File,Image Type,Epsilon,Category,Predicted Label,Accuracy,Correct Prediction
image_0001.jpg,Original,,barrel,barrel,0.7953242,True
image_0001.jpg,Adversarial Example,0.001,barrel,barrel,0.78917074,True
image_0001.jpg,Adversarial Example,0.01,barrel,barrel,0.76768297,True
image_0001.jpg,Adversarial Example,0.1,barrel,barrel,0.6329431,True
image_0001.jpg,Adversarial Example,0.3,barrel,rain_barrel,0.8017871,False
image_0002.jpg,Original,,barrel,barrel,0.5065747,True
image_0002.jpg,Adversarial Example,0.001,barrel,rain_barrel,0.51879597,False
image_0002.jpg,Adversarial Example,0.01,barrel,rain_barrel,0.95863736,False
image_0002.jpg,Adversarial Example,0.1,barrel,rain_barrel,0.9997738,False
image_0002.jpg,Adversarial Example,0.3,barrel,rain_barrel,0.9998659,False
image_0003.jpg,Original,,barrel,barrel,0.09026808,True
image_0003.jpg,Adversarial Example,0.001,barrel,vase,0.08876837,False
image_0003.jpg,Adversarial Example,0.01,barrel,crash_helmet,0.14173986,False
image_0003.jpg,Adversarial Example,0.1,barrel,crash_helmet,0.9493404,False
image_0003.jpg,Adversarial Example,0.3,barrel,jack-o'-lantern,0.99986255,False
image_0004.jpg,Original,,barrel,barrel,0.7280822,True
image_0004.jpg,Adversarial Example,0.001,barrel,barrel,0.6016646,True
image_0004.jpg,Adversarial Example,0.01,barrel,barrel,0.14229913,True
image_0004.jpg,Adversarial Example,0.1,barrel,candle,0.69745934,False
image_0004.jpg,Adversarial Example,0.3,barrel,soup_bowl,0.9992735,False
image_0005.jpg,Original,,barrel,barrel,0.5893011,True
image_0005.jpg,Adversarial Example,0.001,barrel,barrel,0.577386,True
image_0005.jpg,Adversarial Example,0.01,barrel,barrel,0.3816133,True
image_0005.jpg,Adversarial Example,0.1,barrel,drum,0.46559483,False
image_0005.jpg,Adversarial Example,0.3,barrel,cup,0.99730647,False
image_0006.jpg,Original,,barrel,barrel,0.8790507,True
image_0006.jpg,Adversarial Example,0.001,barrel,barrel,0.8343282,True
image_0006.jpg,Adversarial Example,0.01,barrel,barrel,0.35820532,True
image_0006.jpg,Adversarial Example,0.1,barrel,cuirass,0.9634114,False
image_0006.jpg,Adversarial Example,0.3,barrel,hen,0.9993709,False
image_0007.jpg,Original,,barrel,vase,0.35797703,False
image_0007.jpg,Adversarial Example,0.001,barrel,vase,0.35850453,False
image_0007.jpg,Adversarial Example,0.01,barrel,vase,0.37742972,False
image_0007.jpg,Adversarial Example,0.1,barrel,vase,0.44895536,False
image_0007.jpg,Adversarial Example,0.3,barrel,vase,0.7588146,False
image_0008.jpg,Original,,barrel,barrel,0.8444599,True
image_0008.jpg,Adversarial Example,0.001,barrel,barrel,0.82865566,True
image_0008.jpg,Adversarial Example,0.01,barrel,barrel,0.774425,True
image_0008.jpg,Adversarial Example,0.1,barrel,barrel,0.50886273,True
image_0008.jpg,Adversarial Example,0.3,barrel,eel,0.9999939,False
image_0009.jpg,Original,,barrel,barrel,0.7344058,True
image_0009.jpg,Adversarial Example,0.001,barrel,barrel,0.73535615,True
image_0009.jpg,Adversarial Example,0.01,barrel,barrel,0.758528,True
image_0009.jpg,Adversarial Example,0.1,barrel,barrel,0.83535725,True
image_0009.jpg,Adversarial Example,0.3,barrel,barrel,0.7358614,True
image_0010.jpg,Original,,barrel,pick,0.9647875,False
image_0010.jpg,Adversarial Example,0.001,barrel,pick,0.70673335,False
image_0010.jpg,Adversarial Example,0.01,barrel,barrel,0.7077537,True
image_0010.jpg,Adversarial Example,0.1,barrel,barrel,0.9983658,True
image_0010.jpg,Adversarial Example,0.3,barrel,barrel,0.9999995,True
image_0011.jpg,Original,,barrel,rain_barrel,0.4754828,False
image_0011.jpg,Adversarial Example,0.001,barrel,rain_barrel,0.47517788,False
image_0011.jpg,Adversarial Example,0.01,barrel,rain_barrel,0.46478578,False
image_0011.jpg,Adversarial Example,0.1,barrel,barrel,0.5365873,True
image_0011.jpg,Adversarial Example,0.3,barrel,barrel,0.6836202,True
image_0012.jpg,Original,,barrel,rain_barrel,0.35232878,False
image_0012.jpg,Adversarial Example,0.001,barrel,rain_barrel,0.3474731,False
image_0012.jpg,Adversarial Example,0.01,barrel,rain_barrel,0.35770175,False
image_0012.jpg,Adversarial Example,0.1,barrel,rain_barrel,0.34387976,False
image_0012.jpg,Adversarial Example,0.3,barrel,hoopskirt,0.8898389,False
image_0013.jpg,Original,,barrel,rain_barrel,0.80575335,False
image_0013.jpg,Adversarial Example,0.001,barrel,rain_barrel,0.7975094,False
image_0013.jpg,Adversarial Example,0.01,barrel,rain_barrel,0.7500088,False
image_0013.jpg,Adversarial Example,0.1,barrel,rain_barrel,0.38159817,False
image_0013.jpg,Adversarial Example,0.3,barrel,barrel,0.6996928,True
image_0014.jpg,Original,,barrel,rain_barrel,0.64378184,False
image_0014.jpg,Adversarial Example,0.001,barrel,rain_barrel,0.61018103,False
image_0014.jpg,Adversarial Example,0.01,barrel,rain_barrel,0.45819682,False
image_0014.jpg,Adversarial Example,0.1,barrel,barrel,0.74276096,True
image_0014.jpg,Adversarial Example,0.3,barrel,barrel,0.9866643,True
image_0015.jpg,Original,,barrel,barrel,0.51635504,True
image_0015.jpg,Adversarial Example,0.001,barrel,barrel,0.5184427,True
image_0015.jpg,Adversarial Example,0.01,barrel,barrel,0.5566576,True
image_0015.jpg,Adversarial Example,0.1,barrel,barrel,0.5408948,True
image_0015.jpg,Adversarial Example,0.3,barrel,barrel,0.50376356,True
image_0016.jpg,Original,,barrel,drum,0.8126059,False
image_0016.jpg,Adversarial Example,0.001,barrel,drum,0.6817893,False
image_0016.jpg,Adversarial Example,0.01,barrel,drum,0.41367498,False
image_0016.jpg,Adversarial Example,0.1,barrel,backpack,0.3587105,False
image_0016.jpg,Adversarial Example,0.3,barrel,shield,0.9756178,False
image_0017.jpg,Original,,barrel,barrel,0.7591818,True
image_0017.jpg,Adversarial Example,0.001,barrel,barrel,0.7471961,True
image_0017.jpg,Adversarial Example,0.01,barrel,paintbrush,0.5003591,False
image_0017.jpg,Adversarial Example,0.1,barrel,broom,0.9959413,False
image_0017.jpg,Adversarial Example,0.3,barrel,broom,0.99999213,False
image_0018.jpg,Original,,barrel,hamper,0.45699582,False
image_0018.jpg,Adversarial Example,0.001,barrel,hamper,0.4461238,False
image_0018.jpg,Adversarial Example,0.01,barrel,hamper,0.48598588,False
image_0018.jpg,Adversarial Example,0.1,barrel,drum,0.18687916,False
image_0018.jpg,Adversarial Example,0.3,barrel,bucket,0.41316965,False
image_0019.jpg,Original,,barrel,barrel,0.56723946,True
image_0019.jpg,Adversarial Example,0.001,barrel,barrel,0.5220245,True
image_0019.jpg,Adversarial Example,0.01,barrel,barrel,0.43231192,True
image_0019.jpg,Adversarial Example,0.1,barrel,microwave,0.737496,False
image_0019.jpg,Adversarial Example,0.3,barrel,monitor,0.9216605,False
image_0020.jpg,Original,,barrel,rain_barrel,0.7201737,False
image_0020.jpg,Adversarial Example,0.001,barrel,rain_barrel,0.70320904,False
image_0020.jpg,Adversarial Example,0.01,barrel,rain_barrel,0.56409425,False
image_0020.jpg,Adversarial Example,0.1,barrel,barrel,0.70461285,True
image_0020.jpg,Adversarial Example,0.3,barrel,barrel,0.95493907,True
image_0021.jpg,Original,,barrel,rain_barrel,0.5452102,False
image_0021.jpg,Adversarial Example,0.001,barrel,rain_barrel,0.45914564,False
image_0021.jpg,Adversarial Example,0.01,barrel,rain_barrel,0.30212104,False
image_0021.jpg,Adversarial Example,0.1,barrel,tile_roof,0.73138267,False
image_0021.jpg,Adversarial Example,0.3,barrel,pole,0.9980153,False
image_0022.jpg,Original,,barrel,thresher,0.3240324,False
image_0022.jpg,Adversarial Example,0.001,barrel,thresher,0.27624813,False
image_0022.jpg,Adversarial Example,0.01,barrel,yurt,0.5687893,False
image_0022.jpg,Adversarial Example,0.1,barrel,buckle,0.9841562,False
image_0022.jpg,Adversarial Example,0.3,barrel,buckle,0.99999964,False
image_0023.jpg,Original,,barrel,barrel,0.34475592,True
image_0023.jpg,Adversarial Example,0.001,barrel,barrel,0.32014042,True
image_0023.jpg,Adversarial Example,0.01,barrel,barrel,0.25664964,True
image_0023.jpg,Adversarial Example,0.1,barrel,reel,0.20608105,False
image_0023.jpg,Adversarial Example,0.3,barrel,barrel,0.33894327,True
image_0024.jpg,Original,,barrel,barrel,0.4609241,True
image_0024.jpg,Adversarial Example,0.001,barrel,barrel,0.44923282,True
image_0024.jpg,Adversarial Example,0.01,barrel,barrel,0.40702766,True
image_0024.jpg,Adversarial Example,0.1,barrel,bucket,0.236259,False
image_0024.jpg,Adversarial Example,0.3,barrel,bucket,0.9494708,False
image_0025.jpg,Original,,barrel,rain_barrel,0.6853781,False
image_0025.jpg,Adversarial Example,0.001,barrel,rain_barrel,0.6656471,False
image_0025.jpg,Adversarial Example,0.01,barrel,rain_barrel,0.54576606,False
image_0025.jpg,Adversarial Example,0.1,barrel,barrel,0.75919014,True
image_0025.jpg,Adversarial Example,0.3,barrel,barrel,0.99564785,True
image_0026.jpg,Original,,barrel,rain_barrel,0.654486,False
image_0026.jpg,Adversarial Example,0.001,barrel,rain_barrel,0.6554337,False
image_0026.jpg,Adversarial Example,0.01,barrel,rain_barrel,0.6853055,False
image_0026.jpg,Adversarial Example,0.1,barrel,rain_barrel,0.78984505,False
image_0026.jpg,Adversarial Example,0.3,barrel,rain_barrel,0.72625864,False
image_0027.jpg,Original,,barrel,pot,0.40356117,False
image_0027.jpg,Adversarial Example,0.001,barrel,pot,0.36858356,False
image_0027.jpg,Adversarial Example,0.01,barrel,barrel,0.35021967,True
image_0027.jpg,Adversarial Example,0.1,barrel,barrel,0.48760295,True
image_0027.jpg,Adversarial Example,0.3,barrel,rain_barrel,0.39730236,False
image_0028.jpg,Original,,barrel,rain_barrel,0.74279916,False
image_0028.jpg,Adversarial Example,0.001,barrel,rain_barrel,0.7309832,False
image_0028.jpg,Adversarial Example,0.01,barrel,rain_barrel,0.68939793,False
image_0028.jpg,Adversarial Example,0.1,barrel,barrel,0.7068086,True
image_0028.jpg,Adversarial Example,0.3,barrel,bucket,0.99559456,False
image_0029.jpg,Original,,barrel,barrel,0.36342677,True
image_0029.jpg,Adversarial Example,0.001,barrel,barrel,0.3595405,True
image_0029.jpg,Adversarial Example,0.01,barrel,barrel,0.32330003,True
image_0029.jpg,Adversarial Example,0.1,barrel,barrel,0.1281608,True
image_0029.jpg,Adversarial Example,0.3,barrel,ashcan,0.080769084,False
image_0030.jpg,Original,,barrel,barrel,0.81131846,True
image_0030.jpg,Adversarial Example,0.001,barrel,barrel,0.8131907,True
image_0030.jpg,Adversarial Example,0.01,barrel,barrel,0.7987324,True
image_0030.jpg,Adversarial Example,0.1,barrel,barrel,0.7974021,True
image_0030.jpg,Adversarial Example,0.3,barrel,mailbox,0.7479107,False
image_0031.jpg,Original,,barrel,barrel,0.18184006,True
image_0031.jpg,Adversarial Example,0.001,barrel,bucket,0.18846226,False
image_0031.jpg,Adversarial Example,0.01,barrel,bucket,0.9605643,False
image_0031.jpg,Adversarial Example,0.1,barrel,bucket,0.99986196,False
image_0031.jpg,Adversarial Example,0.3,barrel,ashcan,0.9999982,False
image_0032.jpg,Original,,barrel,barrel,0.6399971,True
image_0032.jpg,Adversarial Example,0.001,barrel,barrel,0.6384101,True
image_0032.jpg,Adversarial Example,0.01,barrel,barrel,0.6270755,True
image_0032.jpg,Adversarial Example,0.1,barrel,barrel,0.51372606,True
image_0032.jpg,Adversarial Example,0.3,barrel,rain_barrel,0.5542441,False
image_0033.jpg,Original,,barrel,Windsor_tie,0.16610286,False
image_0033.jpg,Adversarial Example,0.001,barrel,conch,0.3071201,False
image_0033.jpg,Adversarial Example,0.01,barrel,conch,0.99630797,False
image_0033.jpg,Adversarial Example,0.1,barrel,spotlight,0.9994228,False
image_0033.jpg,Adversarial Example,0.3,barrel,bell_cote,1.0,False
image_0034.jpg,Original,,barrel,barrel,0.6672082,True
image_0034.jpg,Adversarial Example,0.001,barrel,barrel,0.6689715,True
image_0034.jpg,Adversarial Example,0.01,barrel,barrel,0.6760367,True
image_0034.jpg,Adversarial Example,0.1,barrel,barrel,0.76095825,True
image_0034.jpg,Adversarial Example,0.3,barrel,barrel,0.5220457,True
image_0035.jpg,Original,,barrel,barrel,0.29373217,True
image_0035.jpg,Adversarial Example,0.001,barrel,rain_barrel,0.12759832,False
image_0035.jpg,Adversarial Example,0.01,barrel,cocktail_shaker,0.9861794,False
image_0035.jpg,Adversarial Example,0.1,barrel,goblet,0.9999715,False
image_0035.jpg,Adversarial Example,0.3,barrel,bulbul,0.9975745,False
image_0036.jpg,Original,,barrel,barrel,0.90080684,True
image_0036.jpg,Adversarial Example,0.001,barrel,barrel,0.8898496,True
image_0036.jpg,Adversarial Example,0.01,barrel,barrel,0.8472163,True
image_0036.jpg,Adversarial Example,0.1,barrel,paper_towel,0.999895,False
image_0036.jpg,Adversarial Example,0.3,barrel,rain_barrel,0.16104622,False
image_0037.jpg,Original,,barrel,barrel,0.77257866,True
image_0037.jpg,Adversarial Example,0.001,barrel,barrel,0.6838936,True
image_0037.jpg,Adversarial Example,0.01,barrel,barrel,0.3091399,True
image_0037.jpg,Adversarial Example,0.1,barrel,drum,0.68855083,False
image_0037.jpg,Adversarial Example,0.3,barrel,space_heater,1.0,False
image_0038.jpg,Original,,barrel,barrel,0.6947644,True
image_0038.jpg,Adversarial Example,0.001,barrel,barrel,0.4844394,True
image_0038.jpg,Adversarial Example,0.01,barrel,milk_can,0.4225323,False
image_0038.jpg,Adversarial Example,0.1,barrel,quill,0.098781064,False
image_0038.jpg,Adversarial Example,0.3,barrel,tile_roof,0.9995628,False
image_0039.jpg,Original,,barrel,barrel,0.92885864,True
image_0039.jpg,Adversarial Example,0.001,barrel,barrel,0.91524076,True
image_0039.jpg,Adversarial Example,0.01,barrel,barrel,0.7505152,True
image_0039.jpg,Adversarial Example,0.1,barrel,beer_glass,0.9572666,False
image_0039.jpg,Adversarial Example,0.3,barrel,packet,0.9817472,False
image_0040.jpg,Original,,barrel,rain_barrel,0.790807,False
image_0040.jpg,Adversarial Example,0.001,barrel,rain_barrel,0.7885087,False
image_0040.jpg,Adversarial Example,0.01,barrel,rain_barrel,0.79717875,False
image_0040.jpg,Adversarial Example,0.1,barrel,rain_barrel,0.6914956,False
image_0040.jpg,Adversarial Example,0.3,barrel,caldron,0.9858263,False
image_0041.jpg,Original,,barrel,hamper,0.28901652,False
image_0041.jpg,Adversarial Example,0.001,barrel,barrel,0.3094712,True
image_0041.jpg,Adversarial Example,0.01,barrel,barrel,0.86900014,True
image_0041.jpg,Adversarial Example,0.1,barrel,barrel,0.97419566,True
image_0041.jpg,Adversarial Example,0.3,barrel,barrel,0.9999807,True
image_0042.jpg,Original,,barrel,barrel,0.57099915,True
image_0042.jpg,Adversarial Example,0.001,barrel,teapot,0.13308102,False
image_0042.jpg,Adversarial Example,0.01,barrel,teapot,0.9997396,False
image_0042.jpg,Adversarial Example,0.1,barrel,teapot,1.0,False
image_0042.jpg,Adversarial Example,0.3,barrel,teapot,0.9999527,False
image_0043.jpg,Original,,barrel,barrel,0.48442414,True
image_0043.jpg,Adversarial Example,0.001,barrel,eggnog,0.13721853,False
image_0043.jpg,Adversarial Example,0.01,barrel,eggnog,0.99547935,False
image_0043.jpg,Adversarial Example,0.1,barrel,coffee_mug,0.9995055,False
image_0043.jpg,Adversarial Example,0.3,barrel,cup,0.99999523,False
image_0044.jpg,Original,,barrel,bearskin,0.11076124,False
image_0044.jpg,Adversarial Example,0.001,barrel,bearskin,0.0785084,False
image_0044.jpg,Adversarial Example,0.01,barrel,shovel,0.120489195,False
image_0044.jpg,Adversarial Example,0.1,barrel,shovel,0.07971386,False
image_0044.jpg,Adversarial Example,0.3,barrel,barrel,0.96904546,True
image_0045.jpg,Original,,barrel,vase,0.48993883,False
image_0045.jpg,Adversarial Example,0.001,barrel,vase,0.29210424,False
image_0045.jpg,Adversarial Example,0.01,barrel,barrel,0.77673215,True
image_0045.jpg,Adversarial Example,0.1,barrel,barrel,0.9936225,True
image_0045.jpg,Adversarial Example,0.3,barrel,rain_barrel,0.99999464,False
image_0046.jpg,Original,,barrel,rain_barrel,0.6142641,False
image_0046.jpg,Adversarial Example,0.001,barrel,rain_barrel,0.559986,False
image_0046.jpg,Adversarial Example,0.01,barrel,barrel,0.6711144,True
image_0046.jpg,Adversarial Example,0.1,barrel,barrel,0.9429335,True
image_0046.jpg,Adversarial Example,0.3,barrel,coffeepot,0.99933606,False
image_0047.jpg,Original,,barrel,barrel,0.5237087,True
image_0047.jpg,Adversarial Example,0.001,barrel,barrel,0.4500616,True
image_0047.jpg,Adversarial Example,0.01,barrel,rain_barrel,0.81193155,False
image_0047.jpg,Adversarial Example,0.1,barrel,rain_barrel,0.9738966,False
image_0047.jpg,Adversarial Example,0.3,barrel,ashcan,0.9968278,False
image_0001.jpg,Original,,electric_guitar,electric_guitar,0.9521901,True
image_0001.jpg,Adversarial Example,0.001,electric_guitar,electric_guitar,0.9509244,True
image_0001.jpg,Adversarial Example,0.01,electric_guitar,electric_guitar,0.93419755,True
image_0001.jpg,Adversarial Example,0.1,electric_guitar,electric_guitar,0.8217591,True
image_0001.jpg,Adversarial Example,0.3,electric_guitar,hook,0.17862202,False
image_0002.jpg,Original,,electric_guitar,hook,0.07845467,False
image_0002.jpg,Adversarial Example,0.001,electric_guitar,hook,0.07734595,False
image_0002.jpg,Adversarial Example,0.01,electric_guitar,hook,0.0726079,False
image_0002.jpg,Adversarial Example,0.1,electric_guitar,hook,0.14025703,False
image_0002.jpg,Adversarial Example,0.3,electric_guitar,horizontal_bar,0.18194668,False
image_0003.jpg,Original,,electric_guitar,rule,0.07099589,False
image_0003.jpg,Adversarial Example,0.001,electric_guitar,electric_guitar,0.22638832,True
image_0003.jpg,Adversarial Example,0.01,electric_guitar,electric_guitar,0.9972811,True
image_0003.jpg,Adversarial Example,0.1,electric_guitar,electric_guitar,0.9999865,True
image_0003.jpg,Adversarial Example,0.3,electric_guitar,pencil_box,1.0,False
image_0004.jpg,Original,,electric_guitar,electric_guitar,0.8895536,True
image_0004.jpg,Adversarial Example,0.001,electric_guitar,electric_guitar,0.8838317,True
image_0004.jpg,Adversarial Example,0.01,electric_guitar,electric_guitar,0.8602414,True
image_0004.jpg,Adversarial Example,0.1,electric_guitar,electric_guitar,0.7921979,True
image_0004.jpg,Adversarial Example,0.3,electric_guitar,scabbard,0.7354016,False
image_0005.jpg,Original,,electric_guitar,electric_guitar,0.93352115,True
image_0005.jpg,Adversarial Example,0.001,electric_guitar,electric_guitar,0.9273692,True
image_0005.jpg,Adversarial Example,0.01,electric_guitar,electric_guitar,0.88674664,True
image_0005.jpg,Adversarial Example,0.1,electric_guitar,projector,0.07150791,False
image_0005.jpg,Adversarial Example,0.3,electric_guitar,tabby,0.9481523,False
image_0006.jpg,Original,,electric_guitar,electric_guitar,0.9457578,True
image_0006.jpg,Adversarial Example,0.001,electric_guitar,electric_guitar,0.85598445,True
image_0006.jpg,Adversarial Example,0.01,electric_guitar,paper_towel,0.46195188,False
image_0006.jpg,Adversarial Example,0.1,electric_guitar,rule,0.99990916,False
image_0006.jpg,Adversarial Example,0.3,electric_guitar,toilet_tissue,0.9996393,False
image_0007.jpg,Original,,electric_guitar,electric_guitar,0.98667717,True
image_0007.jpg,Adversarial Example,0.001,electric_guitar,electric_guitar,0.98593175,True
image_0007.jpg,Adversarial Example,0.01,electric_guitar,electric_guitar,0.98006916,True
image_0007.jpg,Adversarial Example,0.1,electric_guitar,jigsaw_puzzle,0.5974378,False
image_0007.jpg,Adversarial Example,0.3,electric_guitar,electric_ray,0.109986745,False
image_0008.jpg,Original,,electric_guitar,electric_guitar,0.6850738,True
image_0008.jpg,Adversarial Example,0.001,electric_guitar,electric_guitar,0.6384908,True
image_0008.jpg,Adversarial Example,0.01,electric_guitar,acoustic_guitar,0.5272105,False
image_0008.jpg,Adversarial Example,0.1,electric_guitar,acoustic_guitar,0.97946393,False
image_0008.jpg,Adversarial Example,0.3,electric_guitar,acoustic_guitar,0.9900899,False
image_0009.jpg,Original,,electric_guitar,acoustic_guitar,0.98737216,False
image_0009.jpg,Adversarial Example,0.001,electric_guitar,acoustic_guitar,0.9844818,False
image_0009.jpg,Adversarial Example,0.01,electric_guitar,paper_towel,0.94630075,False
image_0009.jpg,Adversarial Example,0.1,electric_guitar,paper_towel,0.99994946,False
image_0009.jpg,Adversarial Example,0.3,electric_guitar,paper_towel,0.9999987,False
image_0010.jpg,Original,,electric_guitar,electric_guitar,0.20274511,True
image_0010.jpg,Adversarial Example,0.001,electric_guitar,electric_guitar,0.20129907,True
image_0010.jpg,Adversarial Example,0.01,electric_guitar,electric_guitar,0.19402042,True
image_0010.jpg,Adversarial Example,0.1,electric_guitar,electric_guitar,0.3545643,True
image_0010.jpg,Adversarial Example,0.3,electric_guitar,mailbag,0.19380204,False
image_0011.jpg,Original,,electric_guitar,rule,0.14721575,False
image_0011.jpg,Adversarial Example,0.001,electric_guitar,mortarboard,0.11778761,False
image_0011.jpg,Adversarial Example,0.01,electric_guitar,mortarboard,0.9834854,False
image_0011.jpg,Adversarial Example,0.1,electric_guitar,mortarboard,0.9999405,False
image_0011.jpg,Adversarial Example,0.3,electric_guitar,envelope,0.99998605,False
image_0012.jpg,Original,,electric_guitar,electric_guitar,0.8435268,True
image_0012.jpg,Adversarial Example,0.001,electric_guitar,electric_guitar,0.58301914,True
image_0012.jpg,Adversarial Example,0.01,electric_guitar,hatchet,0.99960214,False
image_0012.jpg,Adversarial Example,0.1,electric_guitar,can_opener,0.9998275,False
image_0012.jpg,Adversarial Example,0.3,electric_guitar,hook,0.9998549,False
image_0013.jpg,Original,,electric_guitar,electric_guitar,0.854782,True
image_0013.jpg,Adversarial Example,0.001,electric_guitar,electric_guitar,0.846898,True
image_0013.jpg,Adversarial Example,0.01,electric_guitar,electric_guitar,0.82654226,True
image_0013.jpg,Adversarial Example,0.1,electric_guitar,electric_guitar,0.8620076,True
image_0013.jpg,Adversarial Example,0.3,electric_guitar,snail,0.08178903,False
image_0014.jpg,Original,,electric_guitar,electric_guitar,0.98311144,True
image_0014.jpg,Adversarial Example,0.001,electric_guitar,electric_guitar,0.9831025,True
image_0014.jpg,Adversarial Example,0.01,electric_guitar,electric_guitar,0.98266566,True
image_0014.jpg,Adversarial Example,0.1,electric_guitar,electric_guitar,0.9843352,True
image_0014.jpg,Adversarial Example,0.3,electric_guitar,electric_guitar,0.97520804,True
image_0015.jpg,Original,,electric_guitar,electric_guitar,0.87131816,True
image_0015.jpg,Adversarial Example,0.001,electric_guitar,electric_guitar,0.86041445,True
image_0015.jpg,Adversarial Example,0.01,electric_guitar,electric_guitar,0.8526736,True
image_0015.jpg,Adversarial Example,0.1,electric_guitar,electric_guitar,0.8152257,True
image_0015.jpg,Adversarial Example,0.3,electric_guitar,electric_guitar,0.42580348,True
image_0016.jpg,Original,,electric_guitar,cello,0.30018264,False
image_0016.jpg,Adversarial Example,0.001,electric_guitar,hatchet,0.23830853,False
image_0016.jpg,Adversarial Example,0.01,electric_guitar,electric_guitar,0.2706473,True
image_0016.jpg,Adversarial Example,0.1,electric_guitar,electric_guitar,0.3948846,True
image_0016.jpg,Adversarial Example,0.3,electric_guitar,electric_guitar,0.5754809,True
image_0017.jpg,Original,,electric_guitar,acoustic_guitar,0.90889406,False
image_0017.jpg,Adversarial Example,0.001,electric_guitar,acoustic_guitar,0.88683015,False
image_0017.jpg,Adversarial Example,0.01,electric_guitar,acoustic_guitar,0.7678743,False
image_0017.jpg,Adversarial Example,0.1,electric_guitar,acoustic_guitar,0.7517273,False
image_0017.jpg,Adversarial Example,0.3,electric_guitar,jigsaw_puzzle,0.99993503,False
image_0018.jpg,Original,,electric_guitar,electric_guitar,0.5449283,True
image_0018.jpg,Adversarial Example,0.001,electric_guitar,electric_guitar,0.40363875,True
image_0018.jpg,Adversarial Example,0.01,electric_guitar,buckle,0.52257305,False
image_0018.jpg,Adversarial Example,0.1,electric_guitar,banjo,0.7573676,False
image_0018.jpg,Adversarial Example,0.3,electric_guitar,spider_web,0.9989512,False
image_0019.jpg,Original,,electric_guitar,electric_guitar,0.93037623,True
image_0019.jpg,Adversarial Example,0.001,electric_guitar,electric_guitar,0.923458,True
image_0019.jpg,Adversarial Example,0.01,electric_guitar,electric_guitar,0.92735815,True
image_0019.jpg,Adversarial Example,0.1,electric_guitar,electric_guitar,0.711399,True
image_0019.jpg,Adversarial Example,0.3,electric_guitar,refrigerator,0.5816743,False
image_0020.jpg,Original,,electric_guitar,electric_guitar,0.9858823,True
image_0020.jpg,Adversarial Example,0.001,electric_guitar,electric_guitar,0.9684235,True
image_0020.jpg,Adversarial Example,0.01,electric_guitar,acoustic_guitar,0.7002168,False
image_0020.jpg,Adversarial Example,0.1,electric_guitar,acoustic_guitar,0.9999211,False
image_0020.jpg,Adversarial Example,0.3,electric_guitar,acoustic_guitar,0.99972576,False
image_0021.jpg,Original,,electric_guitar,electric_guitar,0.4404089,True
image_0021.jpg,Adversarial Example,0.001,electric_guitar,electric_guitar,0.41445565,True
image_0021.jpg,Adversarial Example,0.01,electric_guitar,electric_guitar,0.44500762,True
image_0021.jpg,Adversarial Example,0.1,electric_guitar,electric_guitar,0.46371967,True
image_0021.jpg,Adversarial Example,0.3,electric_guitar,prison,0.9975042,False
image_0022.jpg,Original,,electric_guitar,electric_guitar,0.5964192,True
image_0022.jpg,Adversarial Example,0.001,electric_guitar,electric_guitar,0.53254,True
image_0022.jpg,Adversarial Example,0.01,electric_guitar,acoustic_guitar,0.816741,False
image_0022.jpg,Adversarial Example,0.1,electric_guitar,acoustic_guitar,0.8179585,False
image_0022.jpg,Adversarial Example,0.3,electric_guitar,ice_lolly,0.75460845,False
image_0023.jpg,Original,,electric_guitar,banjo,0.89851934,False
image_0023.jpg,Adversarial Example,0.001,electric_guitar,banjo,0.7834725,False
image_0023.jpg,Adversarial Example,0.01,electric_guitar,banjo,0.5658401,False
image_0023.jpg,Adversarial Example,0.1,electric_guitar,jigsaw_puzzle,0.3799415,False
image_0023.jpg,Adversarial Example,0.3,electric_guitar,jigsaw_puzzle,0.93324614,False
image_0024.jpg,Original,,electric_guitar,hair_slide,0.7158759,False
image_0024.jpg,Adversarial Example,0.001,electric_guitar,hair_slide,0.6310533,False
image_0024.jpg,Adversarial Example,0.01,electric_guitar,hair_slide,0.51732886,False
image_0024.jpg,Adversarial Example,0.1,electric_guitar,paper_towel,0.999637,False
image_0024.jpg,Adversarial Example,0.3,electric_guitar,can_opener,0.786524,False
image_0025.jpg,Original,,electric_guitar,electric_guitar,0.9835053,True
image_0025.jpg,Adversarial Example,0.001,electric_guitar,electric_guitar,0.9810743,True
image_0025.jpg,Adversarial Example,0.01,electric_guitar,electric_guitar,0.95628875,True
image_0025.jpg,Adversarial Example,0.1,electric_guitar,electric_guitar,0.9429878,True
image_0025.jpg,Adversarial Example,0.3,electric_guitar,electric_guitar,0.61643326,True
image_0026.jpg,Original,,electric_guitar,space_shuttle,0.07687155,False
image_0026.jpg,Adversarial Example,0.001,electric_guitar,space_shuttle,0.07425837,False
image_0026.jpg,Adversarial Example,0.01,electric_guitar,scabbard,0.09800238,False
image_0026.jpg,Adversarial Example,0.1,electric_guitar,scabbard,0.13697194,False
image_0026.jpg,Adversarial Example,0.3,electric_guitar,hair_slide,0.22398394,False
image_0027.jpg,Original,,electric_guitar,electric_guitar,0.36212415,True
image_0027.jpg,Adversarial Example,0.001,electric_guitar,electric_guitar,0.36653325,True
image_0027.jpg,Adversarial Example,0.01,electric_guitar,acoustic_guitar,0.33616132,False
image_0027.jpg,Adversarial Example,0.1,electric_guitar,electric_guitar,0.2367113,True
image_0027.jpg,Adversarial Example,0.3,electric_guitar,banjo,0.13545017,False
image_0028.jpg,Original,,electric_guitar,electric_guitar,0.14752284,True
image_0028.jpg,Adversarial Example,0.001,electric_guitar,electric_guitar,0.14788686,True
image_0028.jpg,Adversarial Example,0.01,electric_guitar,electric_guitar,0.16022909,True
image_0028.jpg,Adversarial Example,0.1,electric_guitar,electric_guitar,0.2757856,True
image_0028.jpg,Adversarial Example,0.3,electric_guitar,electric_guitar,0.32339558,True
image_0029.jpg,Original,,electric_guitar,electric_guitar,0.94255686,True
image_0029.jpg,Adversarial Example,0.001,electric_guitar,electric_guitar,0.92227685,True
image_0029.jpg,Adversarial Example,0.01,electric_guitar,electric_guitar,0.5916909,True
image_0029.jpg,Adversarial Example,0.1,electric_guitar,acoustic_guitar,0.9955869,False
image_0029.jpg,Adversarial Example,0.3,electric_guitar,acoustic_guitar,0.99474674,False
image_0030.jpg,Original,,electric_guitar,electric_guitar,0.32572344,True
image_0030.jpg,Adversarial Example,0.001,electric_guitar,electric_guitar,0.25008586,True
image_0030.jpg,Adversarial Example,0.01,electric_guitar,electric_guitar,0.20380026,True
image_0030.jpg,Adversarial Example,0.1,electric_guitar,syringe,0.41798934,False
image_0030.jpg,Adversarial Example,0.3,electric_guitar,syringe,0.99973947,False
image_0031.jpg,Original,,electric_guitar,electric_guitar,0.8564468,True
image_0031.jpg,Adversarial Example,0.001,electric_guitar,electric_guitar,0.85773116,True
image_0031.jpg,Adversarial Example,0.01,electric_guitar,electric_guitar,0.8679377,True
image_0031.jpg,Adversarial Example,0.1,electric_guitar,electric_guitar,0.88638675,True
image_0031.jpg,Adversarial Example,0.3,electric_guitar,electric_guitar,0.9375754,True
image_0032.jpg,Original,,electric_guitar,electric_guitar,0.77290034,True
image_0032.jpg,Adversarial Example,0.001,electric_guitar,electric_guitar,0.724339,True
image_0032.jpg,Adversarial Example,0.01,electric_guitar,electric_guitar,0.3030204,True
image_0032.jpg,Adversarial Example,0.1,electric_guitar,holster,0.46956205,False
image_0032.jpg,Adversarial Example,0.3,electric_guitar,padlock,0.9217118,False
image_0033.jpg,Original,,electric_guitar,electric_guitar,0.971059,True
image_0033.jpg,Adversarial Example,0.001,electric_guitar,electric_guitar,0.95207185,True
image_0033.jpg,Adversarial Example,0.01,electric_guitar,jigsaw_puzzle,0.9999479,False
image_0033.jpg,Adversarial Example,0.1,electric_guitar,jigsaw_puzzle,0.99402267,False
image_0033.jpg,Adversarial Example,0.3,electric_guitar,jigsaw_puzzle,0.9997683,False
image_0034.jpg,Original,,electric_guitar,acoustic_guitar,0.98519486,False
image_0034.jpg,Adversarial Example,0.001,electric_guitar,acoustic_guitar,0.9753337,False
image_0034.jpg,Adversarial Example,0.01,electric_guitar,acoustic_guitar,0.68719196,False
image_0034.jpg,Adversarial Example,0.1,electric_guitar,acoustic_guitar,0.3096689,False
image_0034.jpg,Adversarial Example,0.3,electric_guitar,dumbbell,0.8521558,False
image_0035.jpg,Original,,electric_guitar,acoustic_guitar,0.22944486,False
image_0035.jpg,Adversarial Example,0.001,electric_guitar,acoustic_guitar,0.22014943,False
image_0035.jpg,Adversarial Example,0.01,electric_guitar,acoustic_guitar,0.21467713,False
image_0035.jpg,Adversarial Example,0.1,electric_guitar,acoustic_guitar,0.3508708,False
image_0035.jpg,Adversarial Example,0.3,electric_guitar,electric_guitar,0.23398212,True
image_0036.jpg,Original,,electric_guitar,electric_guitar,0.9512862,True
image_0036.jpg,Adversarial Example,0.001,electric_guitar,electric_guitar,0.9470118,True
image_0036.jpg,Adversarial Example,0.01,electric_guitar,electric_guitar,0.9411747,True
image_0036.jpg,Adversarial Example,0.1,electric_guitar,electric_guitar,0.90414584,True
image_0036.jpg,Adversarial Example,0.3,electric_guitar,screwdriver,0.26124468,False
image_0037.jpg,Original,,electric_guitar,electric_guitar,0.098057315,True
image_0037.jpg,Adversarial Example,0.001,electric_guitar,bearskin,0.09554959,False
image_0037.jpg,Adversarial Example,0.01,electric_guitar,bearskin,0.14158778,False
image_0037.jpg,Adversarial Example,0.1,electric_guitar,backpack,0.0874331,False
image_0037.jpg,Adversarial Example,0.3,electric_guitar,cardigan,0.98292565,False
image_0038.jpg,Original,,electric_guitar,acoustic_guitar,0.43920997,False
image_0038.jpg,Adversarial Example,0.001,electric_guitar,banjo,0.3274484,False
image_0038.jpg,Adversarial Example,0.01,electric_guitar,hair_slide,0.9046891,False
image_0038.jpg,Adversarial Example,0.1,electric_guitar,plunger,0.732214,False
image_0038.jpg,Adversarial Example,0.3,electric_guitar,dumbbell,0.9977489,False
image_0039.jpg,Original,,electric_guitar,electric_guitar,0.83583426,True
image_0039.jpg,Adversarial Example,0.001,electric_guitar,electric_guitar,0.8148396,True
image_0039.jpg,Adversarial Example,0.01,electric_guitar,electric_guitar,0.7379082,True
image_0039.jpg,Adversarial Example,0.1,electric_guitar,electric_guitar,0.742297,True
image_0039.jpg,Adversarial Example,0.3,electric_guitar,electric_guitar,0.21223699,True
image_0040.jpg,Original,,electric_guitar,acoustic_guitar,0.9202986,False
image_0040.jpg,Adversarial Example,0.001,electric_guitar,acoustic_guitar,0.89998347,False
image_0040.jpg,Adversarial Example,0.01,electric_guitar,acoustic_guitar,0.5982942,False
image_0040.jpg,Adversarial Example,0.1,electric_guitar,electric_guitar,0.99300545,True
image_0040.jpg,Adversarial Example,0.3,electric_guitar,screwdriver,0.997607,False
image_0041.jpg,Original,,electric_guitar,electric_guitar,0.9654739,True
image_0041.jpg,Adversarial Example,0.001,electric_guitar,electric_guitar,0.9652048,True
image_0041.jpg,Adversarial Example,0.01,electric_guitar,electric_guitar,0.9716303,True
image_0041.jpg,Adversarial Example,0.1,electric_guitar,jigsaw_puzzle,0.95032007,False
image_0041.jpg,Adversarial Example,0.3,electric_guitar,vault,0.35714012,False
image_0042.jpg,Original,,electric_guitar,earthstar,0.22022752,False
image_0042.jpg,Adversarial Example,0.001,electric_guitar,earthstar,0.17485018,False
image_0042.jpg,Adversarial Example,0.01,electric_guitar,earthstar,0.16102302,False
image_0042.jpg,Adversarial Example,0.1,electric_guitar,electric_guitar,0.8387811,True
image_0042.jpg,Adversarial Example,0.3,electric_guitar,syringe,0.9625699,False
image_0043.jpg,Original,,electric_guitar,electric_guitar,0.5145172,True
image_0043.jpg,Adversarial Example,0.001,electric_guitar,pick,0.31496117,False
image_0043.jpg,Adversarial Example,0.01,electric_guitar,paper_towel,0.9905922,False
image_0043.jpg,Adversarial Example,0.1,electric_guitar,paper_towel,0.99999976,False
image_0043.jpg,Adversarial Example,0.3,electric_guitar,envelope,0.9999229,False
image_0044.jpg,Original,,electric_guitar,electric_guitar,0.9093973,True
image_0044.jpg,Adversarial Example,0.001,electric_guitar,electric_guitar,0.50068074,True
image_0044.jpg,Adversarial Example,0.01,electric_guitar,pick,0.9963497,False
image_0044.jpg,Adversarial Example,0.1,electric_guitar,paper_towel,0.9999931,False
image_0044.jpg,Adversarial Example,0.3,electric_guitar,analog_clock,0.997783,False
image_0045.jpg,Original,,electric_guitar,electric_guitar,0.1679843,True
image_0045.jpg,Adversarial Example,0.001,electric_guitar,electric_guitar,0.16902383,True
image_0045.jpg,Adversarial Example,0.01,electric_guitar,electric_guitar,0.16314922,True
image_0045.jpg,Adversarial Example,0.1,electric_guitar,abaya,0.05415315,False
image_0045.jpg,Adversarial Example,0.3,electric_guitar,bolo_tie,0.20136984,False
image_0046.jpg,Original,,electric_guitar,banjo,0.17506601,False
image_0046.jpg,Adversarial Example,0.001,electric_guitar,banjo,0.1612075,False
image_0046.jpg,Adversarial Example,0.01,electric_guitar,banjo,0.1290915,False
image_0046.jpg,Adversarial Example,0.1,electric_guitar,acoustic_guitar,0.13524926,False
image_0046.jpg,Adversarial Example,0.3,electric_guitar,sombrero,0.15935867,False
image_0047.jpg,Original,,electric_guitar,electric_guitar,0.88419896,True
image_0047.jpg,Adversarial Example,0.001,electric_guitar,electric_guitar,0.83970535,True
image_0047.jpg,Adversarial Example,0.01,electric_guitar,electric_guitar,0.68412787,True
image_0047.jpg,Adversarial Example,0.1,electric_guitar,dumbbell,0.32568294,False
image_0047.jpg,Adversarial Example,0.3,electric_guitar,projector,0.2451338,False
image_0048.jpg,Original,,electric_guitar,electric_guitar,0.9336159,True
image_0048.jpg,Adversarial Example,0.001,electric_guitar,electric_guitar,0.9286164,True
image_0048.jpg,Adversarial Example,0.01,electric_guitar,electric_guitar,0.94821995,True
image_0048.jpg,Adversarial Example,0.1,electric_guitar,electric_guitar,0.87066686,True
image_0048.jpg,Adversarial Example,0.3,electric_guitar,theater_curtain,0.9999976,False
image_0049.jpg,Original,,electric_guitar,electric_guitar,0.9318437,True
image_0049.jpg,Adversarial Example,0.001,electric_guitar,electric_guitar,0.90202075,True
image_0049.jpg,Adversarial Example,0.01,electric_guitar,electric_guitar,0.91551745,True
image_0049.jpg,Adversarial Example,0.1,electric_guitar,electric_guitar,0.5394102,True
image_0049.jpg,Adversarial Example,0.3,electric_guitar,jigsaw_puzzle,0.9998627,False
image_0050.jpg,Original,,electric_guitar,electric_guitar,0.9136165,True
image_0050.jpg,Adversarial Example,0.001,electric_guitar,electric_guitar,0.7559563,True
image_0050.jpg,Adversarial Example,0.01,electric_guitar,packet,0.99454415,False
image_0050.jpg,Adversarial Example,0.1,electric_guitar,jigsaw_puzzle,0.9999809,False
image_0050.jpg,Adversarial Example,0.3,electric_guitar,jigsaw_puzzle,0.9999994,False
image_0051.jpg,Original,,electric_guitar,electric_guitar,0.8927116,True
image_0051.jpg,Adversarial Example,0.001,electric_guitar,electric_guitar,0.84827906,True
image_0051.jpg,Adversarial Example,0.01,electric_guitar,electric_guitar,0.5766909,True
image_0051.jpg,Adversarial Example,0.1,electric_guitar,electric_guitar,0.29077283,True
image_0051.jpg,Adversarial Example,0.3,electric_guitar,iron,0.59338313,False
image_0052.jpg,Original,,electric_guitar,acoustic_guitar,0.8571141,False
image_0052.jpg,Adversarial Example,0.001,electric_guitar,acoustic_guitar,0.8283861,False
image_0052.jpg,Adversarial Example,0.01,electric_guitar,acoustic_guitar,0.8437651,False
image_0052.jpg,Adversarial Example,0.1,electric_guitar,acoustic_guitar,0.6699304,False
image_0052.jpg,Adversarial Example,0.3,electric_guitar,wall_clock,0.26039046,False
image_0053.jpg,Original,,electric_guitar,acoustic_guitar,0.90059614,False
image_0053.jpg,Adversarial Example,0.001,electric_guitar,acoustic_guitar,0.89090127,False
image_0053.jpg,Adversarial Example,0.01,electric_guitar,acoustic_guitar,0.79507595,False
image_0053.jpg,Adversarial Example,0.1,electric_guitar,acoustic_guitar,0.49205306,False
image_0053.jpg,Adversarial Example,0.3,electric_guitar,iron,0.99244267,False
image_0054.jpg,Original,,electric_guitar,buckle,0.3054743,False
image_0054.jpg,Adversarial Example,0.001,electric_guitar,buckle,0.29405308,False
image_0054.jpg,Adversarial Example,0.01,electric_guitar,buckle,0.22141004,False
image_0054.jpg,Adversarial Example,0.1,electric_guitar,pick,0.12258401,False
image_0054.jpg,Adversarial Example,0.3,electric_guitar,electric_ray,0.9169076,False
image_0055.jpg,Original,,electric_guitar,electric_guitar,0.9677389,True
image_0055.jpg,Adversarial Example,0.001,electric_guitar,electric_guitar,0.967399,True
image_0055.jpg,Adversarial Example,0.01,electric_guitar,electric_guitar,0.96466994,True
image_0055.jpg,Adversarial Example,0.1,electric_guitar,electric_guitar,0.95472944,True
image_0055.jpg,Adversarial Example,0.3,electric_guitar,electric_guitar,0.9420182,True
image_0056.jpg,Original,,electric_guitar,electric_guitar,0.52270305,True
image_0056.jpg,Adversarial Example,0.001,electric_guitar,electric_guitar,0.49162045,True
image_0056.jpg,Adversarial Example,0.01,electric_guitar,electric_guitar,0.41909328,True
image_0056.jpg,Adversarial Example,0.1,electric_guitar,acoustic_guitar,0.5325299,False
image_0056.jpg,Adversarial Example,0.3,electric_guitar,electric_guitar,0.5486588,True
image_0057.jpg,Original,,electric_guitar,electric_guitar,0.5010391,True
image_0057.jpg,Adversarial Example,0.001,electric_guitar,electric_guitar,0.49760506,True
image_0057.jpg,Adversarial Example,0.01,electric_guitar,electric_guitar,0.4360112,True
image_0057.jpg,Adversarial Example,0.1,electric_guitar,paper_towel,0.5686354,False
image_0057.jpg,Adversarial Example,0.3,electric_guitar,pinwheel,0.91762817,False
image_0058.jpg,Original,,electric_guitar,electric_guitar,0.98498327,True
image_0058.jpg,Adversarial Example,0.001,electric_guitar,electric_guitar,0.984203,True
image_0058.jpg,Adversarial Example,0.01,electric_guitar,electric_guitar,0.98962665,True
image_0058.jpg,Adversarial Example,0.1,electric_guitar,electric_guitar,0.93564534,True
image_0058.jpg,Adversarial Example,0.3,electric_guitar,brain_coral,0.15985374,False
image_0059.jpg,Original,,electric_guitar,electric_guitar,0.8993449,True
image_0059.jpg,Adversarial Example,0.001,electric_guitar,electric_guitar,0.8857948,True
image_0059.jpg,Adversarial Example,0.01,electric_guitar,electric_guitar,0.9144074,True
image_0059.jpg,Adversarial Example,0.1,electric_guitar,electric_guitar,0.8522847,True
image_0059.jpg,Adversarial Example,0.3,electric_guitar,electric_guitar,0.56455547,True
image_0060.jpg,Original,,electric_guitar,electric_guitar,0.69717765,True
image_0060.jpg,Adversarial Example,0.001,electric_guitar,electric_guitar,0.693815,True
image_0060.jpg,Adversarial Example,0.01,electric_guitar,electric_guitar,0.73607737,True
image_0060.jpg,Adversarial Example,0.1,electric_guitar,acoustic_guitar,0.45800582,False
image_0060.jpg,Adversarial Example,0.3,electric_guitar,cello,0.9874772,False
image_0061.jpg,Original,,electric_guitar,acoustic_guitar,0.8327824,False
image_0061.jpg,Adversarial Example,0.001,electric_guitar,acoustic_guitar,0.81207526,False
image_0061.jpg,Adversarial Example,0.01,electric_guitar,acoustic_guitar,0.4853846,False
image_0061.jpg,Adversarial Example,0.1,electric_guitar,mask,0.43574816,False
image_0061.jpg,Adversarial Example,0.3,electric_guitar,mask,0.25240442,False
image_0062.jpg,Original,,electric_guitar,electric_guitar,0.49347314,True
image_0062.jpg,Adversarial Example,0.001,electric_guitar,electric_guitar,0.44121322,True
image_0062.jpg,Adversarial Example,0.01,electric_guitar,electric_guitar,0.40208247,True
image_0062.jpg,Adversarial Example,0.1,electric_guitar,African_chameleon,0.7601336,False
image_0062.jpg,Adversarial Example,0.3,electric_guitar,mitten,0.75846016,False
image_0063.jpg,Original,,electric_guitar,acoustic_guitar,0.9172379,False
image_0063.jpg,Adversarial Example,0.001,electric_guitar,acoustic_guitar,0.90938103,False
image_0063.jpg,Adversarial Example,0.01,electric_guitar,acoustic_guitar,0.8706889,False
image_0063.jpg,Adversarial Example,0.1,electric_guitar,acoustic_guitar,0.84111995,False
image_0063.jpg,Adversarial Example,0.3,electric_guitar,acoustic_guitar,0.30542153,False
image_0064.jpg,Original,,electric_guitar,electric_guitar,0.9401227,True
image_0064.jpg,Adversarial Example,0.001,electric_guitar,electric_guitar,0.8131689,True
image_0064.jpg,Adversarial Example,0.01,electric_guitar,hand_blower,0.859088,False
image_0064.jpg,Adversarial Example,0.1,electric_guitar,jigsaw_puzzle,0.9999703,False
image_0064.jpg,Adversarial Example,0.3,electric_guitar,harp,1.0,False
image_0065.jpg,Original,,electric_guitar,electric_guitar,0.92541474,True
image_0065.jpg,Adversarial Example,0.001,electric_guitar,electric_guitar,0.91333735,True
image_0065.jpg,Adversarial Example,0.01,electric_guitar,electric_guitar,0.8241472,True
image_0065.jpg,Adversarial Example,0.1,electric_guitar,electric_guitar,0.5200104,True
image_0065.jpg,Adversarial Example,0.3,electric_guitar,acoustic_guitar,0.50699425,False
image_0066.jpg,Original,,electric_guitar,electric_guitar,0.71056443,True
image_0066.jpg,Adversarial Example,0.001,electric_guitar,electric_guitar,0.67309475,True
image_0066.jpg,Adversarial Example,0.01,electric_guitar,electric_guitar,0.6389037,True
image_0066.jpg,Adversarial Example,0.1,electric_guitar,acoustic_guitar,0.86695457,False
image_0066.jpg,Adversarial Example,0.3,electric_guitar,binder,0.91255033,False
image_0067.jpg,Original,,electric_guitar,electric_guitar,0.8047197,True
image_0067.jpg,Adversarial Example,0.001,electric_guitar,electric_guitar,0.78870606,True
image_0067.jpg,Adversarial Example,0.01,electric_guitar,electric_guitar,0.7439225,True
image_0067.jpg,Adversarial Example,0.1,electric_guitar,electric_guitar,0.51946926,True
image_0067.jpg,Adversarial Example,0.3,electric_guitar,throne,0.9167237,False
image_0068.jpg,Original,,electric_guitar,electric_guitar,0.91961503,True
image_0068.jpg,Adversarial Example,0.001,electric_guitar,electric_guitar,0.9059244,True
image_0068.jpg,Adversarial Example,0.01,electric_guitar,electric_guitar,0.85658205,True
image_0068.jpg,Adversarial Example,0.1,electric_guitar,jigsaw_puzzle,0.97865844,False
image_0068.jpg,Adversarial Example,0.3,electric_guitar,jigsaw_puzzle,0.07705806,False
image_0069.jpg,Original,,electric_guitar,electric_guitar,0.97331005,True
image_0069.jpg,Adversarial Example,0.001,electric_guitar,electric_guitar,0.96828,True
image_0069.jpg,Adversarial Example,0.01,electric_guitar,electric_guitar,0.9599516,True
image_0069.jpg,Adversarial Example,0.1,electric_guitar,electric_guitar,0.8613026,True
image_0069.jpg,Adversarial Example,0.3,electric_guitar,guillotine,0.9851306,False
image_0070.jpg,Original,,electric_guitar,electric_guitar,0.9422174,True
image_0070.jpg,Adversarial Example,0.001,electric_guitar,electric_guitar,0.93452847,True
image_0070.jpg,Adversarial Example,0.01,electric_guitar,electric_guitar,0.80106467,True
image_0070.jpg,Adversarial Example,0.1,electric_guitar,jigsaw_puzzle,0.9941393,False
image_0070.jpg,Adversarial Example,0.3,electric_guitar,corkscrew,0.715246,False
image_0071.jpg,Original,,electric_guitar,electric_guitar,0.64990544,True
image_0071.jpg,Adversarial Example,0.001,electric_guitar,electric_guitar,0.59908867,True
image_0071.jpg,Adversarial Example,0.01,electric_guitar,jigsaw_puzzle,0.8920661,False
image_0071.jpg,Adversarial Example,0.1,electric_guitar,jigsaw_puzzle,0.99958163,False
image_0071.jpg,Adversarial Example,0.3,electric_guitar,wine_bottle,0.37709162,False
image_0072.jpg,Original,,electric_guitar,electric_guitar,0.64044064,True
image_0072.jpg,Adversarial Example,0.001,electric_guitar,electric_guitar,0.6115576,True
image_0072.jpg,Adversarial Example,0.01,electric_guitar,electric_guitar,0.65097916,True
image_0072.jpg,Adversarial Example,0.1,electric_guitar,electric_guitar,0.49559838,True
image_0072.jpg,Adversarial Example,0.3,electric_guitar,hand_blower,0.585672,False
image_0073.jpg,Original,,electric_guitar,electric_guitar,0.9756026,True
image_0073.jpg,Adversarial Example,0.001,electric_guitar,electric_guitar,0.97626424,True
image_0073.jpg,Adversarial Example,0.01,electric_guitar,electric_guitar,0.97554225,True
image_0073.jpg,Adversarial Example,0.1,electric_guitar,electric_guitar,0.95237875,True
image_0073.jpg,Adversarial Example,0.3,electric_guitar,jigsaw_puzzle,0.94642323,False
image_0074.jpg,Original,,electric_guitar,electric_guitar,0.9585335,True
image_0074.jpg,Adversarial Example,0.001,electric_guitar,electric_guitar,0.9571622,True
image_0074.jpg,Adversarial Example,0.01,electric_guitar,electric_guitar,0.9364759,True
image_0074.jpg,Adversarial Example,0.1,electric_guitar,electric_guitar,0.6155075,True
image_0074.jpg,Adversarial Example,0.3,electric_guitar,African_chameleon,0.3752711,False
image_0075.jpg,Original,,electric_guitar,paddle,0.06866331,False
image_0075.jpg,Adversarial Example,0.001,electric_guitar,shovel,0.059499744,False
image_0075.jpg,Adversarial Example,0.01,electric_guitar,can_opener,0.3940949,False
image_0075.jpg,Adversarial Example,0.1,electric_guitar,hatchet,0.9811715,False
image_0075.jpg,Adversarial Example,0.3,electric_guitar,hammer,0.9999317,False
image_0001.jpg,Original,,schooner,schooner,0.91342235,True
image_0001.jpg,Adversarial Example,0.001,schooner,schooner,0.8145071,True
image_0001.jpg,Adversarial Example,0.01,schooner,pirate,0.9438816,False
image_0001.jpg,Adversarial Example,0.1,schooner,pirate,0.99999297,False
image_0001.jpg,Adversarial Example,0.3,schooner,pirate,0.999926,False
image_0002.jpg,Original,,schooner,schooner,0.9707568,True
image_0002.jpg,Adversarial Example,0.001,schooner,schooner,0.9675916,True
image_0002.jpg,Adversarial Example,0.01,schooner,schooner,0.9702288,True
image_0002.jpg,Adversarial Example,0.1,schooner,schooner,0.8881144,True
image_0002.jpg,Adversarial Example,0.3,schooner,sundial,0.4802944,False
image_0003.jpg,Original,,schooner,schooner,0.87627256,True
image_0003.jpg,Adversarial Example,0.001,schooner,schooner,0.8677344,True
image_0003.jpg,Adversarial Example,0.01,schooner,schooner,0.73821044,True
image_0003.jpg,Adversarial Example,0.1,schooner,pirate,0.596738,False
image_0003.jpg,Adversarial Example,0.3,schooner,pirate,0.4974854,False
image_0004.jpg,Original,,schooner,schooner,0.95407933,True
image_0004.jpg,Adversarial Example,0.001,schooner,schooner,0.9367645,True
image_0004.jpg,Adversarial Example,0.01,schooner,yawl,0.47577947,False
image_0004.jpg,Adversarial Example,0.1,schooner,yawl,0.9993418,False
image_0004.jpg,Adversarial Example,0.3,schooner,yawl,0.9973252,False
image_0005.jpg,Original,,schooner,schooner,0.86704576,True
image_0005.jpg,Adversarial Example,0.001,schooner,schooner,0.5927954,True
image_0005.jpg,Adversarial Example,0.01,schooner,pirate,0.9995141,False
image_0005.jpg,Adversarial Example,0.1,schooner,pirate,0.99999833,False
image_0005.jpg,Adversarial Example,0.3,schooner,pirate,0.99306726,False
image_0006.jpg,Original,,schooner,schooner,0.9505464,True
image_0006.jpg,Adversarial Example,0.001,schooner,schooner,0.9212303,True
image_0006.jpg,Adversarial Example,0.01,schooner,schooner,0.53587395,True
image_0006.jpg,Adversarial Example,0.1,schooner,pirate,0.89712524,False
image_0006.jpg,Adversarial Example,0.3,schooner,apron,0.99804413,False
image_0007.jpg,Original,,schooner,schooner,0.90839005,True
image_0007.jpg,Adversarial Example,0.001,schooner,schooner,0.8176632,True
image_0007.jpg,Adversarial Example,0.01,schooner,pirate,0.96391886,False
image_0007.jpg,Adversarial Example,0.1,schooner,pirate,0.99847287,False
image_0007.jpg,Adversarial Example,0.3,schooner,caldron,0.99959785,False
image_0008.jpg,Original,,schooner,schooner,0.9487752,True
image_0008.jpg,Adversarial Example,0.001,schooner,schooner,0.9423272,True
image_0008.jpg,Adversarial Example,0.01,schooner,schooner,0.9104756,True
image_0008.jpg,Adversarial Example,0.1,schooner,schooner,0.5723259,True
image_0008.jpg,Adversarial Example,0.3,schooner,yawl,0.9766598,False
image_0009.jpg,Original,,schooner,schooner,0.95935446,True
image_0009.jpg,Adversarial Example,0.001,schooner,schooner,0.95590246,True
image_0009.jpg,Adversarial Example,0.01,schooner,schooner,0.933343,True
image_0009.jpg,Adversarial Example,0.1,schooner,schooner,0.65985054,True
image_0009.jpg,Adversarial Example,0.3,schooner,jigsaw_puzzle,1.0,False
image_0010.jpg,Original,,schooner,schooner,0.8650728,True
image_0010.jpg,Adversarial Example,0.001,schooner,schooner,0.8575682,True
image_0010.jpg,Adversarial Example,0.01,schooner,schooner,0.8317016,True
image_0010.jpg,Adversarial Example,0.1,schooner,schooner,0.8331008,True
image_0010.jpg,Adversarial Example,0.3,schooner,schooner,0.84691656,True
image_0011.jpg,Original,,schooner,schooner,0.9651802,True
image_0011.jpg,Adversarial Example,0.001,schooner,schooner,0.95468545,True
image_0011.jpg,Adversarial Example,0.01,schooner,schooner,0.6366998,True
image_0011.jpg,Adversarial Example,0.1,schooner,schooner,0.19347622,True
image_0011.jpg,Adversarial Example,0.3,schooner,yawl,0.99970704,False
image_0012.jpg,Original,,schooner,schooner,0.96112436,True
image_0012.jpg,Adversarial Example,0.001,schooner,schooner,0.8844965,True
image_0012.jpg,Adversarial Example,0.01,schooner,yawl,0.99850214,False
image_0012.jpg,Adversarial Example,0.1,schooner,fireboat,0.9999771,False
image_0012.jpg,Adversarial Example,0.3,schooner,Cardigan,0.9519882,False
image_0013.jpg,Original,,schooner,schooner,0.9717808,True
image_0013.jpg,Adversarial Example,0.001,schooner,schooner,0.95612407,True
image_0013.jpg,Adversarial Example,0.01,schooner,yawl,0.949146,False
image_0013.jpg,Adversarial Example,0.1,schooner,yawl,0.9999896,False
image_0013.jpg,Adversarial Example,0.3,schooner,yawl,0.99999166,False
image_0014.jpg,Original,,schooner,schooner,0.96089065,True
image_0014.jpg,Adversarial Example,0.001,schooner,schooner,0.9428856,True
image_0014.jpg,Adversarial Example,0.01,schooner,schooner,0.44216838,True
image_0014.jpg,Adversarial Example,0.1,schooner,yawl,0.9987445,False
image_0014.jpg,Adversarial Example,0.3,schooner,ski_mask,0.999997,False
image_0015.jpg,Original,,schooner,pirate,0.19927232,False
image_0015.jpg,Adversarial Example,0.001,schooner,pirate,0.07120435,False
image_0015.jpg,Adversarial Example,0.01,schooner,lifeboat,0.9076241,False
image_0015.jpg,Adversarial Example,0.1,schooner,pop_bottle,0.9929321,False
image_0015.jpg,Adversarial Example,0.3,schooner,pop_bottle,0.9999962,False
image_0016.jpg,Original,,schooner,schooner,0.95636356,True
image_0016.jpg,Adversarial Example,0.001,schooner,schooner,0.9336808,True
image_0016.jpg,Adversarial Example,0.01,schooner,schooner,0.5195979,True
image_0016.jpg,Adversarial Example,0.1,schooner,yawl,0.9916781,False
image_0016.jpg,Adversarial Example,0.3,schooner,yawl,0.99732363,False
image_0017.jpg,Original,,schooner,schooner,0.97025543,True
image_0017.jpg,Adversarial Example,0.001,schooner,schooner,0.92026716,True
image_0017.jpg,Adversarial Example,0.01,schooner,pirate,0.8864674,False
image_0017.jpg,Adversarial Example,0.1,schooner,pirate,0.99978,False
image_0017.jpg,Adversarial Example,0.3,schooner,pirate,0.99999213,False
image_0018.jpg,Original,,schooner,schooner,0.95599526,True
image_0018.jpg,Adversarial Example,0.001,schooner,schooner,0.9319321,True
image_0018.jpg,Adversarial Example,0.01,schooner,yawl,0.90270543,False
image_0018.jpg,Adversarial Example,0.1,schooner,church,0.9977943,False
image_0018.jpg,Adversarial Example,0.3,schooner,cardigan,0.99999976,False
image_0019.jpg,Original,,schooner,schooner,0.93973714,True
image_0019.jpg,Adversarial Example,0.001,schooner,schooner,0.84743327,True
image_0019.jpg,Adversarial Example,0.01,schooner,yawl,0.9970625,False
image_0019.jpg,Adversarial Example,0.1,schooner,yawl,0.99825484,False
image_0019.jpg,Adversarial Example,0.3,schooner,yawl,0.999962,False
image_0020.jpg,Original,,schooner,schooner,0.96447635,True
image_0020.jpg,Adversarial Example,0.001,schooner,schooner,0.95504236,True
image_0020.jpg,Adversarial Example,0.01,schooner,schooner,0.9392747,True
image_0020.jpg,Adversarial Example,0.1,schooner,schooner,0.59735745,True
image_0020.jpg,Adversarial Example,0.3,schooner,maypole,0.9914281,False
image_0021.jpg,Original,,schooner,schooner,0.8463122,True
image_0021.jpg,Adversarial Example,0.001,schooner,schooner,0.5250091,True
image_0021.jpg,Adversarial Example,0.01,schooner,yawl,0.9977933,False
image_0021.jpg,Adversarial Example,0.1,schooner,wall_clock,0.9997676,False
image_0021.jpg,Adversarial Example,0.3,schooner,analog_clock,0.7239648,False
image_0022.jpg,Original,,schooner,schooner,0.93822557,True
image_0022.jpg,Adversarial Example,0.001,schooner,schooner,0.90313804,True
image_0022.jpg,Adversarial Example,0.01,schooner,yawl,0.80512905,False
image_0022.jpg,Adversarial Example,0.1,schooner,yawl,0.9943861,False
image_0022.jpg,Adversarial Example,0.3,schooner,yawl,0.99961144,False
image_0023.jpg,Original,,schooner,schooner,0.76957697,True
image_0023.jpg,Adversarial Example,0.001,schooner,schooner,0.5912628,True
image_0023.jpg,Adversarial Example,0.01,schooner,yawl,0.9206781,False
image_0023.jpg,Adversarial Example,0.1,schooner,pirate,0.81299466,False
image_0023.jpg,Adversarial Example,0.3,schooner,mountain_tent,0.9065961,False
image_0024.jpg,Original,,schooner,schooner,0.985076,True
image_0024.jpg,Adversarial Example,0.001,schooner,schooner,0.96550846,True
image_0024.jpg,Adversarial Example,0.01,schooner,schooner,0.54425305,True
image_0024.jpg,Adversarial Example,0.1,schooner,pirate,0.9969406,False
image_0024.jpg,Adversarial Example,0.3,schooner,garbage_truck,0.99999964,False
image_0025.jpg,Original,,schooner,schooner,0.95964235,True
image_0025.jpg,Adversarial Example,0.001,schooner,schooner,0.94475096,True
image_0025.jpg,Adversarial Example,0.01,schooner,schooner,0.9265974,True
image_0025.jpg,Adversarial Example,0.1,schooner,schooner,0.8437031,True
image_0025.jpg,Adversarial Example,0.3,schooner,sundial,0.9995334,False
image_0026.jpg,Original,,schooner,schooner,0.93167603,True
image_0026.jpg,Adversarial Example,0.001,schooner,schooner,0.8927031,True
image_0026.jpg,Adversarial Example,0.01,schooner,yawl,0.5328345,False
image_0026.jpg,Adversarial Example,0.1,schooner,yawl,0.95903534,False
image_0026.jpg,Adversarial Example,0.3,schooner,sundial,0.97092515,False
image_0027.jpg,Original,,schooner,schooner,0.78522295,True
image_0027.jpg,Adversarial Example,0.001,schooner,schooner,0.6054718,True
image_0027.jpg,Adversarial Example,0.01,schooner,lampshade,0.90083295,False
image_0027.jpg,Adversarial Example,0.1,schooner,lampshade,0.99967325,False
image_0027.jpg,Adversarial Example,0.3,schooner,lampshade,0.9999975,False
image_0028.jpg,Original,,schooner,schooner,0.939137,True
image_0028.jpg,Adversarial Example,0.001,schooner,schooner,0.920291,True
image_0028.jpg,Adversarial Example,0.01,schooner,schooner,0.5327685,True
image_0028.jpg,Adversarial Example,0.1,schooner,yawl,0.9634544,False
image_0028.jpg,Adversarial Example,0.3,schooner,safety_pin,0.99999964,False
image_0029.jpg,Original,,schooner,schooner,0.96882844,True
image_0029.jpg,Adversarial Example,0.001,schooner,schooner,0.94870985,True
image_0029.jpg,Adversarial Example,0.01,schooner,schooner,0.4903394,True
image_0029.jpg,Adversarial Example,0.1,schooner,yawl,0.9977531,False
image_0029.jpg,Adversarial Example,0.3,schooner,yawl,0.9999863,False
image_0030.jpg,Original,,schooner,schooner,0.89965856,True
image_0030.jpg,Adversarial Example,0.001,schooner,schooner,0.7636138,True
image_0030.jpg,Adversarial Example,0.01,schooner,yawl,0.9235305,False
image_0030.jpg,Adversarial Example,0.1,schooner,yawl,0.9993331,False
image_0030.jpg,Adversarial Example,0.3,schooner,vestment,0.9991685,False
image_0031.jpg,Original,,schooner,schooner,0.7291112,True
image_0031.jpg,Adversarial Example,0.001,schooner,schooner,0.6837171,True
image_0031.jpg,Adversarial Example,0.01,schooner,schooner,0.8333655,True
image_0031.jpg,Adversarial Example,0.1,schooner,schooner,0.9107841,True
image_0031.jpg,Adversarial Example,0.3,schooner,lionfish,0.9983854,False
image_0032.jpg,Original,,schooner,yawl,0.5051383,False
image_0032.jpg,Adversarial Example,0.001,schooner,schooner,0.45311967,True
image_0032.jpg,Adversarial Example,0.01,schooner,schooner,0.97649026,True
image_0032.jpg,Adversarial Example,0.1,schooner,schooner,0.99845517,True
image_0032.jpg,Adversarial Example,0.3,schooner,syringe,1.0,False
image_0033.jpg,Original,,schooner,yawl,0.72496694,False
image_0033.jpg,Adversarial Example,0.001,schooner,yawl,0.40184143,False
image_0033.jpg,Adversarial Example,0.01,schooner,schooner,0.99714273,True
image_0033.jpg,Adversarial Example,0.1,schooner,schooner,0.9999783,True
image_0033.jpg,Adversarial Example,0.3,schooner,pirate,0.9999572,False
image_0034.jpg,Original,,schooner,schooner,0.9544934,True
image_0034.jpg,Adversarial Example,0.001,schooner,schooner,0.8989247,True
image_0034.jpg,Adversarial Example,0.01,schooner,yawl,0.86165655,False
image_0034.jpg,Adversarial Example,0.1,schooner,yawl,0.99977845,False
image_0034.jpg,Adversarial Example,0.3,schooner,yawl,0.99938357,False
image_0035.jpg,Original,,schooner,yawl,0.7395884,False
image_0035.jpg,Adversarial Example,0.001,schooner,schooner,0.46617767,True
image_0035.jpg,Adversarial Example,0.01,schooner,schooner,0.99221015,True
image_0035.jpg,Adversarial Example,0.1,schooner,schooner,0.9998086,True
image_0035.jpg,Adversarial Example,0.3,schooner,toaster,0.9999032,False
image_0036.jpg,Original,,schooner,schooner,0.9663408,True
image_0036.jpg,Adversarial Example,0.001,schooner,schooner,0.9205247,True
image_0036.jpg,Adversarial Example,0.01,schooner,lampshade,0.9989208,False
image_0036.jpg,Adversarial Example,0.1,schooner,lampshade,0.9999045,False
image_0036.jpg,Adversarial Example,0.3,schooner,tray,1.0,False
image_0037.jpg,Original,,schooner,schooner,0.9612366,True
image_0037.jpg,Adversarial Example,0.001,schooner,schooner,0.8761139,True
image_0037.jpg,Adversarial Example,0.01,schooner,yawl,0.9859185,False
image_0037.jpg,Adversarial Example,0.1,schooner,wreck,0.96147215,False
image_0037.jpg,Adversarial Example,0.3,schooner,sundial,0.9974662,False
image_0038.jpg,Original,,schooner,schooner,0.7513478,True
image_0038.jpg,Adversarial Example,0.001,schooner,schooner,0.5477022,True
image_0038.jpg,Adversarial Example,0.01,schooner,pirate,0.97982806,False
image_0038.jpg,Adversarial Example,0.1,schooner,pirate,0.9997876,False
image_0038.jpg,Adversarial Example,0.3,schooner,pirate,0.99965537,False
image_0039.jpg,Original,,schooner,schooner,0.9433462,True
image_0039.jpg,Adversarial Example,0.001,schooner,schooner,0.85426307,True
image_0039.jpg,Adversarial Example,0.01,schooner,yawl,0.99086446,False
image_0039.jpg,Adversarial Example,0.1,schooner,yawl,0.9994159,False
image_0039.jpg,Adversarial Example,0.3,schooner,yawl,0.9998598,False
image_0040.jpg,Original,,schooner,schooner,0.9100833,True
image_0040.jpg,Adversarial Example,0.001,schooner,schooner,0.8560899,True
image_0040.jpg,Adversarial Example,0.01,schooner,schooner,0.7011368,True
image_0040.jpg,Adversarial Example,0.1,schooner,cinema,0.99986494,False
image_0040.jpg,Adversarial Example,0.3,schooner,poncho,0.9999844,False
image_0041.jpg,Original,,schooner,schooner,0.96449417,True
image_0041.jpg,Adversarial Example,0.001,schooner,schooner,0.9432277,True
image_0041.jpg,Adversarial Example,0.01,schooner,yawl,0.66256577,False
image_0041.jpg,Adversarial Example,0.1,schooner,yawl,0.9996958,False
image_0041.jpg,Adversarial Example,0.3,schooner,church,0.99995816,False
image_0042.jpg,Original,,schooner,schooner,0.9571829,True
image_0042.jpg,Adversarial Example,0.001,schooner,schooner,0.9516807,True
image_0042.jpg,Adversarial Example,0.01,schooner,schooner,0.9244192,True
image_0042.jpg,Adversarial Example,0.1,schooner,pirate,0.5401993,False
image_0042.jpg,Adversarial Example,0.3,schooner,pirate,0.9891355,False
image_0043.jpg,Original,,schooner,schooner,0.96481323,True
image_0043.jpg,Adversarial Example,0.001,schooner,schooner,0.94283396,True
image_0043.jpg,Adversarial Example,0.01,schooner,pirate,0.47841582,False
image_0043.jpg,Adversarial Example,0.1,schooner,pirate,0.9932573,False
image_0043.jpg,Adversarial Example,0.3,schooner,wreck,0.9894909,False
image_0044.jpg,Original,,schooner,schooner,0.9515492,True
image_0044.jpg,Adversarial Example,0.001,schooner,schooner,0.9242474,True
image_0044.jpg,Adversarial Example,0.01,schooner,schooner,0.5252405,True
image_0044.jpg,Adversarial Example,0.1,schooner,yawl,0.9968081,False
image_0044.jpg,Adversarial Example,0.3,schooner,schooner,0.42985243,True
image_0045.jpg,Original,,schooner,schooner,0.9399187,True
image_0045.jpg,Adversarial Example,0.001,schooner,schooner,0.8571625,True
image_0045.jpg,Adversarial Example,0.01,schooner,yawl,0.9824761,False
image_0045.jpg,Adversarial Example,0.1,schooner,yawl,0.9998851,False
image_0045.jpg,Adversarial Example,0.3,schooner,yawl,0.99997413,False
image_0046.jpg,Original,,schooner,schooner,0.6523691,True
image_0046.jpg,Adversarial Example,0.001,schooner,yawl,0.64899534,False
image_0046.jpg,Adversarial Example,0.01,schooner,yawl,0.9803991,False
image_0046.jpg,Adversarial Example,0.1,schooner,yawl,0.99930227,False
image_0046.jpg,Adversarial Example,0.3,schooner,yawl,0.99216413,False
image_0047.jpg,Original,,schooner,schooner,0.88739,True
image_0047.jpg,Adversarial Example,0.001,schooner,schooner,0.85961086,True
image_0047.jpg,Adversarial Example,0.01,schooner,schooner,0.77125746,True
image_0047.jpg,Adversarial Example,0.1,schooner,schooner,0.5922506,True
image_0047.jpg,Adversarial Example,0.3,schooner,pillow,0.9983057,False
image_0048.jpg,Original,,schooner,schooner,0.9106825,True
image_0048.jpg,Adversarial Example,0.001,schooner,schooner,0.8502219,True
image_0048.jpg,Adversarial Example,0.01,schooner,yawl,0.9544379,False
image_0048.jpg,Adversarial Example,0.1,schooner,sundial,0.9929732,False
image_0048.jpg,Adversarial Example,0.3,schooner,yawl,0.99998343,False
image_0049.jpg,Original,,schooner,schooner,0.9749417,True
image_0049.jpg,Adversarial Example,0.001,schooner,schooner,0.96233195,True
image_0049.jpg,Adversarial Example,0.01,schooner,schooner,0.87151724,True
image_0049.jpg,Adversarial Example,0.1,schooner,schooner,0.535701,True
image_0049.jpg,Adversarial Example,0.3,schooner,wallet,0.99999046,False
image_0050.jpg,Original,,schooner,schooner,0.9642077,True
image_0050.jpg,Adversarial Example,0.001,schooner,schooner,0.9435808,True
image_0050.jpg,Adversarial Example,0.01,schooner,yawl,0.89500755,False
image_0050.jpg,Adversarial Example,0.1,schooner,schooner,0.7927221,True
image_0050.jpg,Adversarial Example,0.3,schooner,pirate,0.7935775,False
image_0051.jpg,Original,,schooner,schooner,0.9618389,True
image_0051.jpg,Adversarial Example,0.001,schooner,schooner,0.93913454,True
image_0051.jpg,Adversarial Example,0.01,schooner,schooner,0.527233,True
image_0051.jpg,Adversarial Example,0.1,schooner,schooner,0.49981993,True
image_0051.jpg,Adversarial Example,0.3,schooner,gar,0.97947866,False
image_0052.jpg,Original,,schooner,schooner,0.8069754,True
image_0052.jpg,Adversarial Example,0.001,schooner,schooner,0.7275,True
image_0052.jpg,Adversarial Example,0.01,schooner,yawl,0.7900174,False
image_0052.jpg,Adversarial Example,0.1,schooner,yawl,0.9793569,False
image_0052.jpg,Adversarial Example,0.3,schooner,yawl,0.9999137,False
image_0053.jpg,Original,,schooner,schooner,0.9552066,True
image_0053.jpg,Adversarial Example,0.001,schooner,schooner,0.94765246,True
image_0053.jpg,Adversarial Example,0.01,schooner,schooner,0.8334085,True
image_0053.jpg,Adversarial Example,0.1,schooner,schooner,0.48556453,True
image_0053.jpg,Adversarial Example,0.3,schooner,pencil_box,0.9998977,False
image_0054.jpg,Original,,schooner,schooner,0.9444062,True
image_0054.jpg,Adversarial Example,0.001,schooner,schooner,0.7793454,True
image_0054.jpg,Adversarial Example,0.01,schooner,yawl,0.9939287,False
image_0054.jpg,Adversarial Example,0.1,schooner,pirate,0.9955473,False
image_0054.jpg,Adversarial Example,0.3,schooner,Pomeranian,0.99979526,False
image_0055.jpg,Original,,schooner,schooner,0.9487328,True
image_0055.jpg,Adversarial Example,0.001,schooner,schooner,0.8683776,True
image_0055.jpg,Adversarial Example,0.01,schooner,paper_towel,0.21534227,False
image_0055.jpg,Adversarial Example,0.1,schooner,book_jacket,0.999984,False
image_0055.jpg,Adversarial Example,0.3,schooner,mailbag,1.0,False
image_0056.jpg,Original,,schooner,schooner,0.972203,True
image_0056.jpg,Adversarial Example,0.001,schooner,schooner,0.9619137,True
image_0056.jpg,Adversarial Example,0.01,schooner,schooner,0.95695794,True
image_0056.jpg,Adversarial Example,0.1,schooner,bottlecap,0.96065605,False
image_0056.jpg,Adversarial Example,0.3,schooner,buckle,0.9999999,False
image_0057.jpg,Original,,schooner,schooner,0.94589454,True
image_0057.jpg,Adversarial Example,0.001,schooner,schooner,0.9187713,True
image_0057.jpg,Adversarial Example,0.01,schooner,yawl,0.7615121,False
image_0057.jpg,Adversarial Example,0.1,schooner,yawl,0.9990151,False
image_0057.jpg,Adversarial Example,0.3,schooner,obelisk,0.99911064,False
image_0058.jpg,Original,,schooner,schooner,0.88122433,True
image_0058.jpg,Adversarial Example,0.001,schooner,schooner,0.79770124,True
image_0058.jpg,Adversarial Example,0.01,schooner,yawl,0.61379135,False
image_0058.jpg,Adversarial Example,0.1,schooner,pencil_sharpener,0.97468215,False
image_0058.jpg,Adversarial Example,0.3,schooner,spider_monkey,0.99999833,False
image_0059.jpg,Original,,schooner,schooner,0.92365015,True
image_0059.jpg,Adversarial Example,0.001,schooner,schooner,0.8818667,True
image_0059.jpg,Adversarial Example,0.01,schooner,yawl,0.7429843,False
image_0059.jpg,Adversarial Example,0.1,schooner,yawl,0.97800434,False
image_0059.jpg,Adversarial Example,0.3,schooner,quill,1.0,False
image_0060.jpg,Original,,schooner,schooner,0.939417,True
image_0060.jpg,Adversarial Example,0.001,schooner,schooner,0.93489146,True
image_0060.jpg,Adversarial Example,0.01,schooner,schooner,0.91221243,True
image_0060.jpg,Adversarial Example,0.1,schooner,yawl,0.47090393,False
image_0060.jpg,Adversarial Example,0.3,schooner,yawl,0.9828083,False
image_0061.jpg,Original,,schooner,yawl,0.76443106,False
image_0061.jpg,Adversarial Example,0.001,schooner,yawl,0.4688005,False
image_0061.jpg,Adversarial Example,0.01,schooner,schooner,0.9692404,True
image_0061.jpg,Adversarial Example,0.1,schooner,schooner,0.99995446,True
image_0061.jpg,Adversarial Example,0.3,schooner,shower_curtain,0.99999917,False
image_0062.jpg,Original,,schooner,schooner,0.98232335,True
image_0062.jpg,Adversarial Example,0.001,schooner,schooner,0.9691083,True
image_0062.jpg,Adversarial Example,0.01,schooner,pirate,0.8812444,False
image_0062.jpg,Adversarial Example,0.1,schooner,pirate,0.99998856,False
image_0062.jpg,Adversarial Example,0.3,schooner,pirate,0.99928373,False
image_0063.jpg,Original,,schooner,schooner,0.92419314,True
image_0063.jpg,Adversarial Example,0.001,schooner,schooner,0.7305538,True
image_0063.jpg,Adversarial Example,0.01,schooner,yawl,0.9888898,False
image_0063.jpg,Adversarial Example,0.1,schooner,wreck,0.99993753,False
image_0063.jpg,Adversarial Example,0.3,schooner,wreck,0.99993074,False
image_0001.jpg,Original,,flamingo,hook,0.9359898,False
image_0001.jpg,Adversarial Example,0.001,flamingo,hook,0.4722107,False
image_0001.jpg,Adversarial Example,0.01,flamingo,little_blue_heron,0.49566472,False
image_0001.jpg,Adversarial Example,0.1,flamingo,bittern,0.9998417,False
image_0001.jpg,Adversarial Example,0.3,flamingo,crane,0.9998605,False
image_0002.jpg,Original,,flamingo,flamingo,0.5334252,True
image_0002.jpg,Adversarial Example,0.001,flamingo,flamingo,0.5019959,True
image_0002.jpg,Adversarial Example,0.01,flamingo,flamingo,0.36516258,True
image_0002.jpg,Adversarial Example,0.1,flamingo,pelican,0.37458068,False
image_0002.jpg,Adversarial Example,0.3,flamingo,African_chameleon,0.16330284,False
image_0003.jpg,Original,,flamingo,flamingo,0.98958534,True
image_0003.jpg,Adversarial Example,0.001,flamingo,flamingo,0.99031687,True
image_0003.jpg,Adversarial Example,0.01,flamingo,flamingo,0.99223787,True
image_0003.jpg,Adversarial Example,0.1,flamingo,flamingo,0.9789403,True
image_0003.jpg,Adversarial Example,0.3,flamingo,starfish,0.9999963,False
image_0004.jpg,Original,,flamingo,flamingo,0.64365786,True
image_0004.jpg,Adversarial Example,0.001,flamingo,flamingo,0.6377454,True
image_0004.jpg,Adversarial Example,0.01,flamingo,flamingo,0.5807938,True
image_0004.jpg,Adversarial Example,0.1,flamingo,flamingo,0.6386307,True
image_0004.jpg,Adversarial Example,0.3,flamingo,pelican,0.3930508,False
image_0005.jpg,Original,,flamingo,flamingo,0.69060165,True
image_0005.jpg,Adversarial Example,0.001,flamingo,flamingo,0.5762914,True
image_0005.jpg,Adversarial Example,0.01,flamingo,flamingo,0.5394925,True
image_0005.jpg,Adversarial Example,0.1,flamingo,eel,0.275823,False
image_0005.jpg,Adversarial Example,0.3,flamingo,eel,0.9999931,False
image_0006.jpg,Original,,flamingo,American_egret,0.7102022,False
image_0006.jpg,Adversarial Example,0.001,flamingo,American_egret,0.7042193,False
image_0006.jpg,Adversarial Example,0.01,flamingo,American_egret,0.56578445,False
image_0006.jpg,Adversarial Example,0.1,flamingo,flamingo,0.95721585,True
image_0006.jpg,Adversarial Example,0.3,flamingo,grasshopper,0.9535052,False
image_0007.jpg,Original,,flamingo,American_egret,0.32259607,False
image_0007.jpg,Adversarial Example,0.001,flamingo,American_egret,0.29548487,False
image_0007.jpg,Adversarial Example,0.01,flamingo,flamingo,0.28244254,True
image_0007.jpg,Adversarial Example,0.1,flamingo,flamingo,0.79448324,True
image_0007.jpg,Adversarial Example,0.3,flamingo,stove,0.68001527,False
image_0008.jpg,Original,,flamingo,flamingo,0.34065205,True
image_0008.jpg,Adversarial Example,0.001,flamingo,American_egret,0.6271654,False
image_0008.jpg,Adversarial Example,0.01,flamingo,American_egret,0.98760134,False
image_0008.jpg,Adversarial Example,0.1,flamingo,American_egret,0.9999721,False
image_0008.jpg,Adversarial Example,0.3,flamingo,American_egret,0.9999809,False
image_0009.jpg,Original,,flamingo,table_lamp,0.18774554,False
image_0009.jpg,Adversarial Example,0.001,flamingo,hatchet,0.15436694,False
image_0009.jpg,Adversarial Example,0.01,flamingo,handkerchief,0.9981178,False
image_0009.jpg,Adversarial Example,0.1,flamingo,bib,0.999998,False
image_0009.jpg,Adversarial Example,0.3,flamingo,common_newt,0.9999993,False
image_0010.jpg,Original,,flamingo,flamingo,0.8824325,True
image_0010.jpg,Adversarial Example,0.001,flamingo,flamingo,0.88074267,True
image_0010.jpg,Adversarial Example,0.01,flamingo,flamingo,0.85406685,True
image_0010.jpg,Adversarial Example,0.1,flamingo,American_egret,0.32522342,False
image_0010.jpg,Adversarial Example,0.3,flamingo,nematode,0.9698294,False
image_0011.jpg,Original,,flamingo,flamingo,0.9045833,True
image_0011.jpg,Adversarial Example,0.001,flamingo,flamingo,0.8947108,True
image_0011.jpg,Adversarial Example,0.01,flamingo,flamingo,0.82460713,True
image_0011.jpg,Adversarial Example,0.1,flamingo,crane,0.87550414,False
image_0011.jpg,Adversarial Example,0.3,flamingo,crane,0.9998307,False
image_0012.jpg,Original,,flamingo,flamingo,0.87825465,True
image_0012.jpg,Adversarial Example,0.001,flamingo,flamingo,0.8801276,True
image_0012.jpg,Adversarial Example,0.01,flamingo,flamingo,0.8829659,True
image_0012.jpg,Adversarial Example,0.1,flamingo,flamingo,0.9222002,True
image_0012.jpg,Adversarial Example,0.3,flamingo,rapeseed,0.89269096,False
image_0013.jpg,Original,,flamingo,flamingo,0.9625005,True
image_0013.jpg,Adversarial Example,0.001,flamingo,flamingo,0.96151483,True
image_0013.jpg,Adversarial Example,0.01,flamingo,flamingo,0.95403,True
image_0013.jpg,Adversarial Example,0.1,flamingo,tiger_cat,0.72800297,False
image_0013.jpg,Adversarial Example,0.3,flamingo,eel,0.99124056,False
image_0014.jpg,Original,,flamingo,flamingo,0.6161631,True
image_0014.jpg,Adversarial Example,0.001,flamingo,flamingo,0.2515449,True
image_0014.jpg,Adversarial Example,0.01,flamingo,crane,0.99647325,False
image_0014.jpg,Adversarial Example,0.1,flamingo,crane,0.9998839,False
image_0014.jpg,Adversarial Example,0.3,flamingo,crane,0.9991534,False
image_0015.jpg,Original,,flamingo,flamingo,0.90096956,True
image_0015.jpg,Adversarial Example,0.001,flamingo,flamingo,0.8998913,True
image_0015.jpg,Adversarial Example,0.01,flamingo,flamingo,0.90120846,True
image_0015.jpg,Adversarial Example,0.1,flamingo,flamingo,0.8735654,True
image_0015.jpg,Adversarial Example,0.3,flamingo,flamingo,0.63122594,True
image_0016.jpg,Original,,flamingo,flamingo,0.9537627,True
image_0016.jpg,Adversarial Example,0.001,flamingo,flamingo,0.9578718,True
image_0016.jpg,Adversarial Example,0.01,flamingo,flamingo,0.9641253,True
image_0016.jpg,Adversarial Example,0.1,flamingo,flamingo,0.120168746,True
image_0016.jpg,Adversarial Example,0.3,flamingo,squirrel_monkey,0.9872961,False
image_0017.jpg,Original,,flamingo,flamingo,0.8783577,True
image_0017.jpg,Adversarial Example,0.001,flamingo,flamingo,0.8800589,True
image_0017.jpg,Adversarial Example,0.01,flamingo,flamingo,0.89515036,True
image_0017.jpg,Adversarial Example,0.1,flamingo,flamingo,0.8479772,True
image_0017.jpg,Adversarial Example,0.3,flamingo,miniature_pinscher,0.56967247,False
image_0018.jpg,Original,,flamingo,flamingo,0.5272197,True
image_0018.jpg,Adversarial Example,0.001,flamingo,flamingo,0.4930229,True
image_0018.jpg,Adversarial Example,0.01,flamingo,flamingo,0.2334924,True
image_0018.jpg,Adversarial Example,0.1,flamingo,American_egret,0.38768005,False
image_0018.jpg,Adversarial Example,0.3,flamingo,park_bench,0.70456654,False
image_0019.jpg,Original,,flamingo,crane,0.22127986,False
image_0019.jpg,Adversarial Example,0.001,flamingo,ostrich,0.19015487,False
image_0019.jpg,Adversarial Example,0.01,flamingo,ostrich,0.50041664,False
image_0019.jpg,Adversarial Example,0.1,flamingo,llama,0.8688697,False
image_0019.jpg,Adversarial Example,0.3,flamingo,llama,0.98993963,False
image_0020.jpg,Original,,flamingo,flamingo,0.87491155,True
image_0020.jpg,Adversarial Example,0.001,flamingo,flamingo,0.8724445,True
image_0020.jpg,Adversarial Example,0.01,flamingo,flamingo,0.8650774,True
image_0020.jpg,Adversarial Example,0.1,flamingo,flamingo,0.89144766,True
image_0020.jpg,Adversarial Example,0.3,flamingo,flamingo,0.75983757,True
image_0021.jpg,Original,,flamingo,flamingo,0.9709485,True
image_0021.jpg,Adversarial Example,0.001,flamingo,flamingo,0.945392,True
image_0021.jpg,Adversarial Example,0.01,flamingo,bolo_tie,0.81809294,False
image_0021.jpg,Adversarial Example,0.1,flamingo,bolo_tie,0.9995881,False
image_0021.jpg,Adversarial Example,0.3,flamingo,leaf_beetle,0.9999988,False
image_0022.jpg,Original,,flamingo,flamingo,0.2252485,True
image_0022.jpg,Adversarial Example,0.001,flamingo,tripod,0.26375854,False
image_0022.jpg,Adversarial Example,0.01,flamingo,tripod,0.9971046,False
image_0022.jpg,Adversarial Example,0.1,flamingo,tripod,0.9998053,False
image_0022.jpg,Adversarial Example,0.3,flamingo,tripod,0.9994154,False
image_0023.jpg,Original,,flamingo,flamingo,0.7827665,True
image_0023.jpg,Adversarial Example,0.001,flamingo,flamingo,0.77367204,True
image_0023.jpg,Adversarial Example,0.01,flamingo,flamingo,0.74612904,True
image_0023.jpg,Adversarial Example,0.1,flamingo,crane,0.66872376,False
image_0023.jpg,Adversarial Example,0.3,flamingo,crane,0.99907136,False
image_0024.jpg,Original,,flamingo,flamingo,0.92863524,True
image_0024.jpg,Adversarial Example,0.001,flamingo,flamingo,0.9317073,True
image_0024.jpg,Adversarial Example,0.01,flamingo,flamingo,0.91174585,True
image_0024.jpg,Adversarial Example,0.1,flamingo,spoonbill,0.9420146,False
image_0024.jpg,Adversarial Example,0.3,flamingo,axolotl,0.99345315,False
image_0025.jpg,Original,,flamingo,flamingo,0.92195565,True
image_0025.jpg,Adversarial Example,0.001,flamingo,flamingo,0.92487764,True
image_0025.jpg,Adversarial Example,0.01,flamingo,flamingo,0.9393584,True
image_0025.jpg,Adversarial Example,0.1,flamingo,banded_gecko,0.37187406,False
image_0025.jpg,Adversarial Example,0.3,flamingo,agama,0.99997985,False
image_0026.jpg,Original,,flamingo,flamingo,0.90014946,True
image_0026.jpg,Adversarial Example,0.001,flamingo,flamingo,0.88335013,True
image_0026.jpg,Adversarial Example,0.01,flamingo,flamingo,0.7273425,True
image_0026.jpg,Adversarial Example,0.1,flamingo,crane,0.13450952,False
image_0026.jpg,Adversarial Example,0.3,flamingo,goose,0.999928,False
image_0027.jpg,Original,,flamingo,flamingo,0.57857466,True
image_0027.jpg,Adversarial Example,0.001,flamingo,flamingo,0.53690755,True
image_0027.jpg,Adversarial Example,0.01,flamingo,crane,0.6601804,False
image_0027.jpg,Adversarial Example,0.1,flamingo,crane,0.8517689,False
image_0027.jpg,Adversarial Example,0.3,flamingo,crane,0.976154,False
image_0028.jpg,Original,,flamingo,flamingo,0.91434014,True
image_0028.jpg,Adversarial Example,0.001,flamingo,flamingo,0.90895426,True
image_0028.jpg,Adversarial Example,0.01,flamingo,flamingo,0.8737565,True
image_0028.jpg,Adversarial Example,0.1,flamingo,flamingo,0.36703655,True
image_0028.jpg,Adversarial Example,0.3,flamingo,bonnet,0.99974984,False
image_0029.jpg,Original,,flamingo,flamingo,0.0860525,True
image_0029.jpg,Adversarial Example,0.001,flamingo,flamingo,0.067226686,True
image_0029.jpg,Adversarial Example,0.01,flamingo,flamingo,0.04620561,True
image_0029.jpg,Adversarial Example,0.1,flamingo,cowboy_hat,0.07477115,False
image_0029.jpg,Adversarial Example,0.3,flamingo,hummingbird,0.9959273,False
image_0030.jpg,Original,,flamingo,black_stork,0.10371661,False
image_0030.jpg,Adversarial Example,0.001,flamingo,black_stork,0.10271004,False
image_0030.jpg,Adversarial Example,0.01,flamingo,pelican,0.041750394,False
image_0030.jpg,Adversarial Example,0.1,flamingo,flamingo,0.15952824,True
image_0030.jpg,Adversarial Example,0.3,flamingo,vine_snake,0.9308461,False
image_0031.jpg,Original,,flamingo,wall_clock,0.056434315,False
image_0031.jpg,Adversarial Example,0.001,flamingo,necklace,0.04733217,False
image_0031.jpg,Adversarial Example,0.01,flamingo,spindle,0.08691415,False
image_0031.jpg,Adversarial Example,0.1,flamingo,spindle,0.9804395,False
image_0031.jpg,Adversarial Example,0.3,flamingo,spindle,0.99998,False
image_0032.jpg,Original,,flamingo,flamingo,0.6225727,True
image_0032.jpg,Adversarial Example,0.001,flamingo,flamingo,0.3776963,True
image_0032.jpg,Adversarial Example,0.01,flamingo,hook,0.7985605,False
image_0032.jpg,Adversarial Example,0.1,flamingo,umbrella,0.99363846,False
image_0032.jpg,Adversarial Example,0.3,flamingo,umbrella,0.9999999,False
image_0033.jpg,Original,,flamingo,flamingo,0.9038358,True
image_0033.jpg,Adversarial Example,0.001,flamingo,flamingo,0.9032494,True
image_0033.jpg,Adversarial Example,0.01,flamingo,flamingo,0.89182866,True
image_0033.jpg,Adversarial Example,0.1,flamingo,flamingo,0.82466906,True
image_0033.jpg,Adversarial Example,0.3,flamingo,crane,0.41636166,False
image_0034.jpg,Original,,flamingo,flamingo,0.3930984,True
image_0034.jpg,Adversarial Example,0.001,flamingo,flamingo,0.3150601,True
image_0034.jpg,Adversarial Example,0.01,flamingo,flamingo,0.19614169,True
image_0034.jpg,Adversarial Example,0.1,flamingo,crane,0.21718594,False
image_0034.jpg,Adversarial Example,0.3,flamingo,crane,0.13391721,False
image_0035.jpg,Original,,flamingo,flamingo,0.8368139,True
image_0035.jpg,Adversarial Example,0.001,flamingo,flamingo,0.83438087,True
image_0035.jpg,Adversarial Example,0.01,flamingo,flamingo,0.84200394,True
image_0035.jpg,Adversarial Example,0.1,flamingo,flamingo,0.90357125,True
image_0035.jpg,Adversarial Example,0.3,flamingo,flamingo,0.7922308,True
image_0036.jpg,Original,,flamingo,flamingo,0.7452951,True
image_0036.jpg,Adversarial Example,0.001,flamingo,flamingo,0.7313437,True
image_0036.jpg,Adversarial Example,0.01,flamingo,flamingo,0.5589325,True
image_0036.jpg,Adversarial Example,0.1,flamingo,pelican,0.31790373,False
image_0036.jpg,Adversarial Example,0.3,flamingo,pelican,0.89030784,False
image_0037.jpg,Original,,flamingo,flamingo,0.71322656,True
image_0037.jpg,Adversarial Example,0.001,flamingo,flamingo,0.6703071,True
image_0037.jpg,Adversarial Example,0.01,flamingo,flamingo,0.22543213,True
image_0037.jpg,Adversarial Example,0.1,flamingo,crane,0.57454234,False
image_0037.jpg,Adversarial Example,0.3,flamingo,little_blue_heron,0.73359036,False
image_0038.jpg,Original,,flamingo,flamingo,0.7675615,True
image_0038.jpg,Adversarial Example,0.001,flamingo,flamingo,0.69057024,True
image_0038.jpg,Adversarial Example,0.01,flamingo,flamingo,0.34705964,True
image_0038.jpg,Adversarial Example,0.1,flamingo,crane,0.91813236,False
image_0038.jpg,Adversarial Example,0.3,flamingo,crane,0.97634923,False
image_0039.jpg,Original,,flamingo,flamingo,0.9580989,True
image_0039.jpg,Adversarial Example,0.001,flamingo,flamingo,0.9582328,True
image_0039.jpg,Adversarial Example,0.01,flamingo,flamingo,0.9610102,True
image_0039.jpg,Adversarial Example,0.1,flamingo,flamingo,0.8151866,True
image_0039.jpg,Adversarial Example,0.3,flamingo,jellyfish,0.99987113,False
image_0040.jpg,Original,,flamingo,flamingo,0.9503711,True
image_0040.jpg,Adversarial Example,0.001,flamingo,flamingo,0.93957907,True
image_0040.jpg,Adversarial Example,0.01,flamingo,spoonbill,0.6425842,False
image_0040.jpg,Adversarial Example,0.1,flamingo,spoonbill,0.98937374,False
image_0040.jpg,Adversarial Example,0.3,flamingo,European_gallinule,0.99409074,False
image_0041.jpg,Original,,flamingo,flamingo,0.75217545,True
image_0041.jpg,Adversarial Example,0.001,flamingo,flamingo,0.69695467,True
image_0041.jpg,Adversarial Example,0.01,flamingo,flamingo,0.37523115,True
image_0041.jpg,Adversarial Example,0.1,flamingo,ostrich,0.9058283,False
image_0041.jpg,Adversarial Example,0.3,flamingo,throne,0.35964423,False
image_0042.jpg,Original,,flamingo,flamingo,0.931109,True
image_0042.jpg,Adversarial Example,0.001,flamingo,flamingo,0.92731017,True
image_0042.jpg,Adversarial Example,0.01,flamingo,flamingo,0.91263604,True
image_0042.jpg,Adversarial Example,0.1,flamingo,flamingo,0.6574426,True
image_0042.jpg,Adversarial Example,0.3,flamingo,flamingo,0.304201,True
image_0043.jpg,Original,,flamingo,flamingo,0.92488194,True
image_0043.jpg,Adversarial Example,0.001,flamingo,flamingo,0.89950573,True
image_0043.jpg,Adversarial Example,0.01,flamingo,flamingo,0.08729493,True
image_0043.jpg,Adversarial Example,0.1,flamingo,flamingo,0.12913746,True
image_0043.jpg,Adversarial Example,0.3,flamingo,earthstar,0.09659117,False
image_0044.jpg,Original,,flamingo,flamingo,0.81273067,True
image_0044.jpg,Adversarial Example,0.001,flamingo,flamingo,0.79812795,True
image_0044.jpg,Adversarial Example,0.01,flamingo,flamingo,0.6317334,True
image_0044.jpg,Adversarial Example,0.1,flamingo,flamingo,0.8202661,True
image_0044.jpg,Adversarial Example,0.3,flamingo,flamingo,0.08722845,True
image_0045.jpg,Original,,flamingo,flamingo,0.9263038,True
image_0045.jpg,Adversarial Example,0.001,flamingo,flamingo,0.92080003,True
image_0045.jpg,Adversarial Example,0.01,flamingo,flamingo,0.87403196,True
image_0045.jpg,Adversarial Example,0.1,flamingo,flamingo,0.47900924,True
image_0045.jpg,Adversarial Example,0.3,flamingo,little_blue_heron,0.9389492,False
image_0046.jpg,Original,,flamingo,flamingo,0.8614067,True
image_0046.jpg,Adversarial Example,0.001,flamingo,flamingo,0.8694044,True
image_0046.jpg,Adversarial Example,0.01,flamingo,flamingo,0.91610724,True
image_0046.jpg,Adversarial Example,0.1,flamingo,flamingo,0.95835996,True
image_0046.jpg,Adversarial Example,0.3,flamingo,starfish,0.9163278,False
image_0047.jpg,Original,,flamingo,flamingo,0.92581725,True
image_0047.jpg,Adversarial Example,0.001,flamingo,flamingo,0.8920932,True
image_0047.jpg,Adversarial Example,0.01,flamingo,American_egret,0.83825666,False
image_0047.jpg,Adversarial Example,0.1,flamingo,American_egret,0.98246205,False
image_0047.jpg,Adversarial Example,0.3,flamingo,little_blue_heron,0.9943271,False
image_0048.jpg,Original,,flamingo,flamingo,0.93283975,True
image_0048.jpg,Adversarial Example,0.001,flamingo,flamingo,0.86526364,True
image_0048.jpg,Adversarial Example,0.01,flamingo,American_egret,0.88162583,False
image_0048.jpg,Adversarial Example,0.1,flamingo,American_egret,0.9940441,False
image_0048.jpg,Adversarial Example,0.3,flamingo,American_egret,0.99348676,False
image_0049.jpg,Original,,flamingo,flamingo,0.95395523,True
image_0049.jpg,Adversarial Example,0.001,flamingo,flamingo,0.9490565,True
image_0049.jpg,Adversarial Example,0.01,flamingo,flamingo,0.94859505,True
image_0049.jpg,Adversarial Example,0.1,flamingo,flamingo,0.90447366,True
image_0049.jpg,Adversarial Example,0.3,flamingo,flamingo,0.05590751,True
image_0050.jpg,Original,,flamingo,flamingo,0.22816633,True
image_0050.jpg,Adversarial Example,0.001,flamingo,sunglass,0.24935552,False
image_0050.jpg,Adversarial Example,0.01,flamingo,sunglasses,0.45640415,False
image_0050.jpg,Adversarial Example,0.1,flamingo,sunglasses,0.9996284,False
image_0050.jpg,Adversarial Example,0.3,flamingo,hook,0.6715424,False
image_0051.jpg,Original,,flamingo,flamingo,0.9408581,True
image_0051.jpg,Adversarial Example,0.001,flamingo,flamingo,0.93908185,True
image_0051.jpg,Adversarial Example,0.01,flamingo,flamingo,0.93021065,True
image_0051.jpg,Adversarial Example,0.1,flamingo,flamingo,0.93163145,True
image_0051.jpg,Adversarial Example,0.3,flamingo,American_egret,0.99246866,False
image_0052.jpg,Original,,flamingo,flamingo,0.9234184,True
image_0052.jpg,Adversarial Example,0.001,flamingo,flamingo,0.9229074,True
image_0052.jpg,Adversarial Example,0.01,flamingo,flamingo,0.93663794,True
image_0052.jpg,Adversarial Example,0.1,flamingo,flamingo,0.64737296,True
image_0052.jpg,Adversarial Example,0.3,flamingo,corkscrew,0.29588988,False
image_0053.jpg,Original,,flamingo,flamingo,0.80959123,True
image_0053.jpg,Adversarial Example,0.001,flamingo,flamingo,0.80384445,True
image_0053.jpg,Adversarial Example,0.01,flamingo,flamingo,0.80702615,True
image_0053.jpg,Adversarial Example,0.1,flamingo,flamingo,0.57616687,True
image_0053.jpg,Adversarial Example,0.3,flamingo,flamingo,0.54699683,True
image_0054.jpg,Original,,flamingo,flamingo,0.8740384,True
image_0054.jpg,Adversarial Example,0.001,flamingo,flamingo,0.8619528,True
image_0054.jpg,Adversarial Example,0.01,flamingo,flamingo,0.8719179,True
image_0054.jpg,Adversarial Example,0.1,flamingo,trilobite,0.3115042,False
image_0054.jpg,Adversarial Example,0.3,flamingo,custard_apple,0.30510724,False
image_0055.jpg,Original,,flamingo,American_egret,0.2688917,False
image_0055.jpg,Adversarial Example,0.001,flamingo,American_egret,0.26272434,False
image_0055.jpg,Adversarial Example,0.01,flamingo,American_egret,0.22690323,False
image_0055.jpg,Adversarial Example,0.1,flamingo,jigsaw_puzzle,0.6169334,False
image_0055.jpg,Adversarial Example,0.3,flamingo,mushroom,0.9869444,False
image_0056.jpg,Original,,flamingo,flamingo,0.9308873,True
image_0056.jpg,Adversarial Example,0.001,flamingo,flamingo,0.92602,True
image_0056.jpg,Adversarial Example,0.01,flamingo,flamingo,0.9055096,True
image_0056.jpg,Adversarial Example,0.1,flamingo,flamingo,0.87799156,True
image_0056.jpg,Adversarial Example,0.3,flamingo,little_blue_heron,0.9008065,False
image_0057.jpg,Original,,flamingo,flamingo,0.66551614,True
image_0057.jpg,Adversarial Example,0.001,flamingo,flamingo,0.32654527,True
image_0057.jpg,Adversarial Example,0.01,flamingo,crane,0.9922975,False
image_0057.jpg,Adversarial Example,0.1,flamingo,crane,0.9955545,False
image_0057.jpg,Adversarial Example,0.3,flamingo,crane,0.99920964,False
image_0058.jpg,Original,,flamingo,American_egret,0.31293395,False
image_0058.jpg,Adversarial Example,0.001,flamingo,crane,0.32259533,False
image_0058.jpg,Adversarial Example,0.01,flamingo,crane,0.32478508,False
image_0058.jpg,Adversarial Example,0.1,flamingo,crane,0.6748034,False
image_0058.jpg,Adversarial Example,0.3,flamingo,crane,0.9518708,False
image_0059.jpg,Original,,flamingo,flamingo,0.9636995,True
image_0059.jpg,Adversarial Example,0.001,flamingo,flamingo,0.96119475,True
image_0059.jpg,Adversarial Example,0.01,flamingo,flamingo,0.94823885,True
image_0059.jpg,Adversarial Example,0.1,flamingo,flamingo,0.5538136,True
image_0059.jpg,Adversarial Example,0.3,flamingo,crane,0.99983764,False
image_0060.jpg,Original,,flamingo,crane,0.22320202,False
image_0060.jpg,Adversarial Example,0.001,flamingo,crane,0.2076086,False
image_0060.jpg,Adversarial Example,0.01,flamingo,crane,0.1903554,False
image_0060.jpg,Adversarial Example,0.1,flamingo,flamingo,0.43713343,True
image_0060.jpg,Adversarial Example,0.3,flamingo,night_snake,0.9805124,False
image_0061.jpg,Original,,flamingo,American_egret,0.57671094,False
image_0061.jpg,Adversarial Example,0.001,flamingo,American_egret,0.5519416,False
image_0061.jpg,Adversarial Example,0.01,flamingo,American_egret,0.5024912,False
image_0061.jpg,Adversarial Example,0.1,flamingo,flamingo,0.4807336,True
image_0061.jpg,Adversarial Example,0.3,flamingo,banded_gecko,0.97424793,False
image_0062.jpg,Original,,flamingo,flamingo,0.7170696,True
image_0062.jpg,Adversarial Example,0.001,flamingo,flamingo,0.70355934,True
image_0062.jpg,Adversarial Example,0.01,flamingo,flamingo,0.64038557,True
image_0062.jpg,Adversarial Example,0.1,flamingo,African_chameleon,0.78243804,False
image_0062.jpg,Adversarial Example,0.3,flamingo,chain,0.7098964,False
image_0063.jpg,Original,,flamingo,flamingo,0.34314045,True
image_0063.jpg,Adversarial Example,0.001,flamingo,flamingo,0.3158132,True
image_0063.jpg,Adversarial Example,0.01,flamingo,pelican,0.19059297,False
image_0063.jpg,Adversarial Example,0.1,flamingo,pelican,0.94075596,False
image_0063.jpg,Adversarial Example,0.3,flamingo,dining_table,0.39240104,False
image_0064.jpg,Original,,flamingo,flamingo,0.8840405,True
image_0064.jpg,Adversarial Example,0.001,flamingo,flamingo,0.87501913,True
image_0064.jpg,Adversarial Example,0.01,flamingo,flamingo,0.8465693,True
image_0064.jpg,Adversarial Example,0.1,flamingo,flamingo,0.9690443,True
image_0064.jpg,Adversarial Example,0.3,flamingo,hermit_crab,0.1459869,False
image_0065.jpg,Original,,flamingo,flamingo,0.3811197,True
image_0065.jpg,Adversarial Example,0.001,flamingo,flamingo,0.31021073,True
image_0065.jpg,Adversarial Example,0.01,flamingo,American_egret,0.33122206,False
image_0065.jpg,Adversarial Example,0.1,flamingo,American_egret,0.7213093,False
image_0065.jpg,Adversarial Example,0.3,flamingo,breakwater,0.9998939,False
image_0066.jpg,Original,,flamingo,trimaran,0.16706172,False
image_0066.jpg,Adversarial Example,0.001,flamingo,trimaran,0.15530239,False
image_0066.jpg,Adversarial Example,0.01,flamingo,trimaran,0.11806756,False
image_0066.jpg,Adversarial Example,0.1,flamingo,flamingo,0.12532975,True
image_0066.jpg,Adversarial Example,0.3,flamingo,trimaran,0.16003144,False
image_0067.jpg,Original,,flamingo,flamingo,0.2514868,True
image_0067.jpg,Adversarial Example,0.001,flamingo,hook,0.15997273,False
image_0067.jpg,Adversarial Example,0.01,flamingo,gas_pump,0.9751026,False
image_0067.jpg,Adversarial Example,0.1,flamingo,coffee_mug,0.9991835,False
image_0067.jpg,Adversarial Example,0.3,flamingo,hook,0.99999845,False
