File,Image Type,Epsilon,Category,Predicted Label,Accuracy,Correct Prediction
image_0001.jpg,Original,,barrel,barrel,0.38228533,True
image_0001.jpg,Adversarial Example,0.001,barrel,barrel,0.37655076,True
image_0001.jpg,Adversarial Example,0.01,barrel,barrel,0.34007418,True
image_0001.jpg,Adversarial Example,0.1,barrel,barrel,0.3446966,True
image_0001.jpg,Adversarial Example,0.3,barrel,rain_barrel,0.7356931,False
image_0002.jpg,Original,,barrel,barrel,0.71957994,True
image_0002.jpg,Adversarial Example,0.001,barrel,barrel,0.6695204,True
image_0002.jpg,Adversarial Example,0.01,barrel,rain_barrel,0.1647322,False
image_0002.jpg,Adversarial Example,0.1,barrel,pitcher,0.32299495,False
image_0002.jpg,Adversarial Example,0.3,barrel,Dutch_oven,0.9993231,False
image_0003.jpg,Original,,barrel,barrel,0.2737472,True
image_0003.jpg,Adversarial Example,0.001,barrel,barrel,0.1908167,True
image_0003.jpg,Adversarial Example,0.01,barrel,crash_helmet,0.26526865,False
image_0003.jpg,Adversarial Example,0.1,barrel,backpack,0.995806,False
image_0003.jpg,Adversarial Example,0.3,barrel,backpack,0.99998164,False
image_0004.jpg,Original,,barrel,barrel,0.64580554,True
image_0004.jpg,Adversarial Example,0.001,barrel,barrel,0.5915722,True
image_0004.jpg,Adversarial Example,0.01,barrel,barrel,0.19592193,True
image_0004.jpg,Adversarial Example,0.1,barrel,pill_bottle,0.14745428,False
image_0004.jpg,Adversarial Example,0.3,barrel,joystick,0.99099064,False
image_0005.jpg,Original,,barrel,barrel,0.5893208,True
image_0005.jpg,Adversarial Example,0.001,barrel,barrel,0.58769387,True
image_0005.jpg,Adversarial Example,0.01,barrel,barrel,0.58971226,True
image_0005.jpg,Adversarial Example,0.1,barrel,barrel,0.7512913,True
image_0005.jpg,Adversarial Example,0.3,barrel,thimble,0.99105376,False
image_0006.jpg,Original,,barrel,barrel,0.6436507,True
image_0006.jpg,Adversarial Example,0.001,barrel,barrel,0.52460283,True
image_0006.jpg,Adversarial Example,0.01,barrel,barrel,0.20022129,True
image_0006.jpg,Adversarial Example,0.1,barrel,Komodo_dragon,0.9927072,False
image_0006.jpg,Adversarial Example,0.3,barrel,mosquito_net,0.999912,False
image_0007.jpg,Original,,barrel,barrel,0.6040236,True
image_0007.jpg,Adversarial Example,0.001,barrel,barrel,0.6031681,True
image_0007.jpg,Adversarial Example,0.01,barrel,barrel,0.58870316,True
image_0007.jpg,Adversarial Example,0.1,barrel,barrel,0.5174948,True
image_0007.jpg,Adversarial Example,0.3,barrel,chest,0.058048725,False
image_0008.jpg,Original,,barrel,barrel,0.341784,True
image_0008.jpg,Adversarial Example,0.001,barrel,barrel,0.28947613,True
image_0008.jpg,Adversarial Example,0.01,barrel,barrel,0.17516531,True
image_0008.jpg,Adversarial Example,0.1,barrel,water_snake,0.16992296,False
image_0008.jpg,Adversarial Example,0.3,barrel,nematode,0.9947583,False
image_0009.jpg,Original,,barrel,barrel,0.08844391,True
image_0009.jpg,Adversarial Example,0.001,barrel,barrel,0.08756439,True
image_0009.jpg,Adversarial Example,0.01,barrel,barrel,0.0889287,True
image_0009.jpg,Adversarial Example,0.1,barrel,caldron,0.10509871,False
image_0009.jpg,Adversarial Example,0.3,barrel,caldron,0.17160945,False
image_0010.jpg,Original,,barrel,rule,0.2897463,False
image_0010.jpg,Adversarial Example,0.001,barrel,pick,0.3800046,False
image_0010.jpg,Adversarial Example,0.01,barrel,pick,0.999846,False
image_0010.jpg,Adversarial Example,0.1,barrel,envelope,0.9999989,False
image_0010.jpg,Adversarial Example,0.3,barrel,jigsaw_puzzle,1.0,False
image_0011.jpg,Original,,barrel,barrel,0.46466705,True
image_0011.jpg,Adversarial Example,0.001,barrel,barrel,0.45952314,True
image_0011.jpg,Adversarial Example,0.01,barrel,barrel,0.45027417,True
image_0011.jpg,Adversarial Example,0.1,barrel,barrel,0.5397826,True
image_0011.jpg,Adversarial Example,0.3,barrel,rain_barrel,0.4642897,False
image_0012.jpg,Original,,barrel,barrel,0.40697876,True
image_0012.jpg,Adversarial Example,0.001,barrel,barrel,0.38832808,True
image_0012.jpg,Adversarial Example,0.01,barrel,barrel,0.28249523,True
image_0012.jpg,Adversarial Example,0.1,barrel,hoopskirt,0.18293592,False
image_0012.jpg,Adversarial Example,0.3,barrel,backpack,0.1400313,False
image_0013.jpg,Original,,barrel,rain_barrel,0.48352307,False
image_0013.jpg,Adversarial Example,0.001,barrel,rain_barrel,0.47274584,False
image_0013.jpg,Adversarial Example,0.01,barrel,barrel,0.4269624,True
image_0013.jpg,Adversarial Example,0.1,barrel,barrel,0.6146079,True
image_0013.jpg,Adversarial Example,0.3,barrel,bucket,0.9956232,False
image_0014.jpg,Original,,barrel,barrel,0.5916175,True
image_0014.jpg,Adversarial Example,0.001,barrel,barrel,0.5727873,True
image_0014.jpg,Adversarial Example,0.01,barrel,rain_barrel,0.4386415,False
image_0014.jpg,Adversarial Example,0.1,barrel,rain_barrel,0.7884762,False
image_0014.jpg,Adversarial Example,0.3,barrel,apron,0.9987785,False
image_0015.jpg,Original,,barrel,barrel,0.1492072,True
image_0015.jpg,Adversarial Example,0.001,barrel,barrel,0.14433414,True
image_0015.jpg,Adversarial Example,0.01,barrel,rain_barrel,0.12935084,False
image_0015.jpg,Adversarial Example,0.1,barrel,rain_barrel,0.20604134,False
image_0015.jpg,Adversarial Example,0.3,barrel,analog_clock,0.95044523,False
image_0016.jpg,Original,,barrel,drum,0.1664736,False
image_0016.jpg,Adversarial Example,0.001,barrel,drum,0.13881734,False
image_0016.jpg,Adversarial Example,0.01,barrel,backpack,0.65948904,False
image_0016.jpg,Adversarial Example,0.1,barrel,backpack,0.9821485,False
image_0016.jpg,Adversarial Example,0.3,barrel,backpack,0.9995171,False
image_0017.jpg,Original,,barrel,barrel,0.6706126,True
image_0017.jpg,Adversarial Example,0.001,barrel,barrel,0.60358554,True
image_0017.jpg,Adversarial Example,0.01,barrel,barrel,0.30216503,True
image_0017.jpg,Adversarial Example,0.1,barrel,saltshaker,0.99566287,False
image_0017.jpg,Adversarial Example,0.3,barrel,mixing_bowl,0.9995951,False
image_0018.jpg,Original,,barrel,shopping_basket,0.32586622,False
image_0018.jpg,Adversarial Example,0.001,barrel,shopping_basket,0.2985516,False
image_0018.jpg,Adversarial Example,0.01,barrel,shopping_basket,0.1921489,False
image_0018.jpg,Adversarial Example,0.1,barrel,barrel,0.4617092,True
image_0018.jpg,Adversarial Example,0.3,barrel,caldron,0.76831037,False
image_0019.jpg,Original,,barrel,barrel,0.5892666,True
image_0019.jpg,Adversarial Example,0.001,barrel,barrel,0.5394693,True
image_0019.jpg,Adversarial Example,0.01,barrel,rain_barrel,0.23654893,False
image_0019.jpg,Adversarial Example,0.1,barrel,Crock_Pot,0.9973219,False
image_0019.jpg,Adversarial Example,0.3,barrel,purse,0.999627,False
image_0020.jpg,Original,,barrel,rain_barrel,0.5860914,False
image_0020.jpg,Adversarial Example,0.001,barrel,rain_barrel,0.5814167,False
image_0020.jpg,Adversarial Example,0.01,barrel,rain_barrel,0.5535005,False
image_0020.jpg,Adversarial Example,0.1,barrel,barrel,0.40863258,True
image_0020.jpg,Adversarial Example,0.3,barrel,barrel,0.98593616,True
image_0021.jpg,Original,,barrel,solar_dish,0.32062808,False
image_0021.jpg,Adversarial Example,0.001,barrel,rain_barrel,0.39478254,False
image_0021.jpg,Adversarial Example,0.01,barrel,barrel,0.45445782,True
image_0021.jpg,Adversarial Example,0.1,barrel,barrel,0.96928865,True
image_0021.jpg,Adversarial Example,0.3,barrel,tile_roof,0.99740356,False
image_0022.jpg,Original,,barrel,thresher,0.050058447,False
image_0022.jpg,Adversarial Example,0.001,barrel,desk,0.044820942,False
image_0022.jpg,Adversarial Example,0.01,barrel,barrel,0.276914,True
image_0022.jpg,Adversarial Example,0.1,barrel,desk,0.9979316,False
image_0022.jpg,Adversarial Example,0.3,barrel,file,0.9999776,False
image_0023.jpg,Original,,barrel,barrel,0.40873444,True
image_0023.jpg,Adversarial Example,0.001,barrel,barrel,0.3821806,True
image_0023.jpg,Adversarial Example,0.01,barrel,barrel,0.2692586,True
image_0023.jpg,Adversarial Example,0.1,barrel,barrel,0.35534856,True
image_0023.jpg,Adversarial Example,0.3,barrel,cardigan,0.9995709,False
image_0024.jpg,Original,,barrel,rain_barrel,0.6358824,False
image_0024.jpg,Adversarial Example,0.001,barrel,rain_barrel,0.61199784,False
image_0024.jpg,Adversarial Example,0.01,barrel,rain_barrel,0.4905177,False
image_0024.jpg,Adversarial Example,0.1,barrel,barrel,0.52314025,True
image_0024.jpg,Adversarial Example,0.3,barrel,screw,0.97320145,False
image_0025.jpg,Original,,barrel,barrel,0.7067642,True
image_0025.jpg,Adversarial Example,0.001,barrel,barrel,0.67682976,True
image_0025.jpg,Adversarial Example,0.01,barrel,barrel,0.5444659,True
image_0025.jpg,Adversarial Example,0.1,barrel,barrel,0.5739501,True
image_0025.jpg,Adversarial Example,0.3,barrel,bucket,0.9943423,False
image_0026.jpg,Original,,barrel,barrel,0.521475,True
image_0026.jpg,Adversarial Example,0.001,barrel,barrel,0.51494044,True
image_0026.jpg,Adversarial Example,0.01,barrel,barrel,0.46992207,True
image_0026.jpg,Adversarial Example,0.1,barrel,rain_barrel,0.4284575,False
image_0026.jpg,Adversarial Example,0.3,barrel,rain_barrel,0.30474848,False
image_0027.jpg,Original,,barrel,pot,0.3032268,False
image_0027.jpg,Adversarial Example,0.001,barrel,pot,0.29061618,False
image_0027.jpg,Adversarial Example,0.01,barrel,pot,0.19903661,False
image_0027.jpg,Adversarial Example,0.1,barrel,rain_barrel,0.33486167,False
image_0027.jpg,Adversarial Example,0.3,barrel,barrel,0.6192925,True
image_0028.jpg,Original,,barrel,rain_barrel,0.4999823,False
image_0028.jpg,Adversarial Example,0.001,barrel,rain_barrel,0.4803151,False
image_0028.jpg,Adversarial Example,0.01,barrel,rain_barrel,0.40616262,False
image_0028.jpg,Adversarial Example,0.1,barrel,caldron,0.93827224,False
image_0028.jpg,Adversarial Example,0.3,barrel,caldron,0.99617434,False
image_0029.jpg,Original,,barrel,barrel,0.6976777,True
image_0029.jpg,Adversarial Example,0.001,barrel,barrel,0.68938005,True
image_0029.jpg,Adversarial Example,0.01,barrel,barrel,0.6988183,True
image_0029.jpg,Adversarial Example,0.1,barrel,barrel,0.50847924,True
image_0029.jpg,Adversarial Example,0.3,barrel,drum,0.16549005,False
image_0030.jpg,Original,,barrel,barrel,0.7602918,True
image_0030.jpg,Adversarial Example,0.001,barrel,barrel,0.7555785,True
image_0030.jpg,Adversarial Example,0.01,barrel,barrel,0.759767,True
image_0030.jpg,Adversarial Example,0.1,barrel,barrel,0.69865334,True
image_0030.jpg,Adversarial Example,0.3,barrel,mailbox,0.1998294,False
image_0031.jpg,Original,,barrel,barrel,0.49558753,True
image_0031.jpg,Adversarial Example,0.001,barrel,bucket,0.5716154,False
image_0031.jpg,Adversarial Example,0.01,barrel,bucket,0.9929634,False
image_0031.jpg,Adversarial Example,0.1,barrel,bucket,0.9999442,False
image_0031.jpg,Adversarial Example,0.3,barrel,bucket,0.9916381,False
image_0032.jpg,Original,,barrel,barrel,0.6550492,True
image_0032.jpg,Adversarial Example,0.001,barrel,barrel,0.6556638,True
image_0032.jpg,Adversarial Example,0.01,barrel,barrel,0.66341263,True
image_0032.jpg,Adversarial Example,0.1,barrel,barrel,0.7231388,True
image_0032.jpg,Adversarial Example,0.3,barrel,barrel,0.7138344,True
image_0033.jpg,Original,,barrel,spotlight,0.042908795,False
image_0033.jpg,Adversarial Example,0.001,barrel,envelope,0.10344659,False
image_0033.jpg,Adversarial Example,0.01,barrel,envelope,0.9998343,False
image_0033.jpg,Adversarial Example,0.1,barrel,envelope,0.99999547,False
image_0033.jpg,Adversarial Example,0.3,barrel,isopod,0.99996984,False
image_0034.jpg,Original,,barrel,barrel,0.30473033,True
image_0034.jpg,Adversarial Example,0.001,barrel,barrel,0.30145365,True
image_0034.jpg,Adversarial Example,0.01,barrel,barrel,0.2846816,True
image_0034.jpg,Adversarial Example,0.1,barrel,barrel,0.2716463,True
image_0034.jpg,Adversarial Example,0.3,barrel,candle,0.252649,False
image_0035.jpg,Original,,barrel,barrel,0.7112707,True
image_0035.jpg,Adversarial Example,0.001,barrel,barrel,0.4736812,True
image_0035.jpg,Adversarial Example,0.01,barrel,puck,0.99982905,False
image_0035.jpg,Adversarial Example,0.1,barrel,cup,0.99999785,False
image_0035.jpg,Adversarial Example,0.3,barrel,goblet,0.9999391,False
image_0036.jpg,Original,,barrel,barrel,0.8881361,True
image_0036.jpg,Adversarial Example,0.001,barrel,barrel,0.87195444,True
image_0036.jpg,Adversarial Example,0.01,barrel,barrel,0.86951655,True
image_0036.jpg,Adversarial Example,0.1,barrel,soap_dispenser,0.89427006,False
image_0036.jpg,Adversarial Example,0.3,barrel,soap_dispenser,0.9987618,False
image_0037.jpg,Original,,barrel,barrel,0.5392761,True
image_0037.jpg,Adversarial Example,0.001,barrel,barrel,0.45796293,True
image_0037.jpg,Adversarial Example,0.01,barrel,rule,0.06261029,False
image_0037.jpg,Adversarial Example,0.1,barrel,measuring_cup,0.9999988,False
image_0037.jpg,Adversarial Example,0.3,barrel,coffee_mug,0.999998,False
image_0038.jpg,Original,,barrel,barrel,0.7206023,True
image_0038.jpg,Adversarial Example,0.001,barrel,barrel,0.46303326,True
image_0038.jpg,Adversarial Example,0.01,barrel,chain,0.9184876,False
image_0038.jpg,Adversarial Example,0.1,barrel,chain,0.9944495,False
image_0038.jpg,Adversarial Example,0.3,barrel,binoculars,0.99956065,False
image_0039.jpg,Original,,barrel,whiskey_jug,0.5747558,False
image_0039.jpg,Adversarial Example,0.001,barrel,whiskey_jug,0.52397925,False
image_0039.jpg,Adversarial Example,0.01,barrel,whiskey_jug,0.3042256,False
image_0039.jpg,Adversarial Example,0.1,barrel,beer_glass,0.96618104,False
image_0039.jpg,Adversarial Example,0.3,barrel,barrel,0.9987423,True
image_0040.jpg,Original,,barrel,barrel,0.5122883,True
image_0040.jpg,Adversarial Example,0.001,barrel,barrel,0.5075879,True
image_0040.jpg,Adversarial Example,0.01,barrel,barrel,0.4968479,True
image_0040.jpg,Adversarial Example,0.1,barrel,barrel,0.4983812,True
image_0040.jpg,Adversarial Example,0.3,barrel,sleeping_bag,0.94461775,False
image_0041.jpg,Original,,barrel,barrel,0.92231905,True
image_0041.jpg,Adversarial Example,0.001,barrel,barrel,0.72208345,True
image_0041.jpg,Adversarial Example,0.01,barrel,barometer,0.9927618,False
image_0041.jpg,Adversarial Example,0.1,barrel,iron,0.99982685,False
image_0041.jpg,Adversarial Example,0.3,barrel,purse,0.9999949,False
image_0042.jpg,Original,,barrel,Petri_dish,0.09141101,False
image_0042.jpg,Adversarial Example,0.001,barrel,barrel,0.11002501,True
image_0042.jpg,Adversarial Example,0.01,barrel,caldron,0.99963284,False
image_0042.jpg,Adversarial Example,0.1,barrel,teapot,0.99999666,False
image_0042.jpg,Adversarial Example,0.3,barrel,caldron,0.99997973,False
image_0043.jpg,Original,,barrel,barrel,0.4817272,True
image_0043.jpg,Adversarial Example,0.001,barrel,Petri_dish,0.53723896,False
image_0043.jpg,Adversarial Example,0.01,barrel,Petri_dish,0.9992865,False
image_0043.jpg,Adversarial Example,0.1,barrel,Petri_dish,0.99999034,False
image_0043.jpg,Adversarial Example,0.3,barrel,Petri_dish,0.9999999,False
image_0044.jpg,Original,,barrel,barrel,0.18875147,True
image_0044.jpg,Adversarial Example,0.001,barrel,barrel,0.16742139,True
image_0044.jpg,Adversarial Example,0.01,barrel,barrel,0.14623639,True
image_0044.jpg,Adversarial Example,0.1,barrel,backpack,0.3983794,False
image_0044.jpg,Adversarial Example,0.3,barrel,coffeepot,0.985634,False
image_0045.jpg,Original,,barrel,vase,0.33639637,False
image_0045.jpg,Adversarial Example,0.001,barrel,barrel,0.29194725,True
image_0045.jpg,Adversarial Example,0.01,barrel,barrel,0.9560071,True
image_0045.jpg,Adversarial Example,0.1,barrel,crossword_puzzle,0.99999595,False
image_0045.jpg,Adversarial Example,0.3,barrel,barrel,0.99999964,True
image_0046.jpg,Original,,barrel,rain_barrel,0.33912683,False
image_0046.jpg,Adversarial Example,0.001,barrel,rain_barrel,0.3147935,False
image_0046.jpg,Adversarial Example,0.01,barrel,barrel,0.2865903,True
image_0046.jpg,Adversarial Example,0.1,barrel,barrel,0.99506927,True
image_0046.jpg,Adversarial Example,0.3,barrel,hoopskirt,0.9986834,False
image_0047.jpg,Original,,barrel,barrel,0.6062557,True
image_0047.jpg,Adversarial Example,0.001,barrel,barrel,0.5456452,True
image_0047.jpg,Adversarial Example,0.01,barrel,rain_barrel,0.7102555,False
image_0047.jpg,Adversarial Example,0.1,barrel,rain_barrel,0.72023284,False
image_0047.jpg,Adversarial Example,0.3,barrel,mixing_bowl,0.999966,False
image_0001.jpg,Original,,electric_guitar,electric_guitar,0.81977874,True
image_0001.jpg,Adversarial Example,0.001,electric_guitar,electric_guitar,0.809914,True
image_0001.jpg,Adversarial Example,0.01,electric_guitar,electric_guitar,0.74946535,True
image_0001.jpg,Adversarial Example,0.1,electric_guitar,electric_guitar,0.37727216,True
image_0001.jpg,Adversarial Example,0.3,electric_guitar,knot,0.644927,False
image_0002.jpg,Original,,electric_guitar,electric_guitar,0.4074628,True
image_0002.jpg,Adversarial Example,0.001,electric_guitar,electric_guitar,0.40629545,True
image_0002.jpg,Adversarial Example,0.01,electric_guitar,electric_guitar,0.4017261,True
image_0002.jpg,Adversarial Example,0.1,electric_guitar,electric_guitar,0.24905539,True
image_0002.jpg,Adversarial Example,0.3,electric_guitar,knot,0.32442704,False
image_0003.jpg,Original,,electric_guitar,electric_guitar,0.3894535,True
image_0003.jpg,Adversarial Example,0.001,electric_guitar,electric_guitar,0.18078676,True
image_0003.jpg,Adversarial Example,0.01,electric_guitar,rule,0.996114,False
image_0003.jpg,Adversarial Example,0.1,electric_guitar,rule,0.9999995,False
image_0003.jpg,Adversarial Example,0.3,electric_guitar,swing,0.9999995,False
image_0004.jpg,Original,,electric_guitar,electric_guitar,0.9387039,True
image_0004.jpg,Adversarial Example,0.001,electric_guitar,electric_guitar,0.9287012,True
image_0004.jpg,Adversarial Example,0.01,electric_guitar,electric_guitar,0.8709557,True
image_0004.jpg,Adversarial Example,0.1,electric_guitar,violin,0.67044073,False
image_0004.jpg,Adversarial Example,0.3,electric_guitar,jigsaw_puzzle,0.9998524,False
image_0005.jpg,Original,,electric_guitar,electric_guitar,0.26720187,True
image_0005.jpg,Adversarial Example,0.001,electric_guitar,electric_guitar,0.20612335,True
image_0005.jpg,Adversarial Example,0.01,electric_guitar,electric_guitar,0.17732067,True
image_0005.jpg,Adversarial Example,0.1,electric_guitar,electric_guitar,0.18704209,True
image_0005.jpg,Adversarial Example,0.3,electric_guitar,barbell,0.9999747,False
image_0006.jpg,Original,,electric_guitar,electric_guitar,0.95151234,True
image_0006.jpg,Adversarial Example,0.001,electric_guitar,electric_guitar,0.897462,True
image_0006.jpg,Adversarial Example,0.01,electric_guitar,paper_towel,0.93758726,False
image_0006.jpg,Adversarial Example,0.1,electric_guitar,scabbard,0.9752381,False
image_0006.jpg,Adversarial Example,0.3,electric_guitar,jigsaw_puzzle,0.9901316,False
image_0007.jpg,Original,,electric_guitar,electric_guitar,0.9237442,True
image_0007.jpg,Adversarial Example,0.001,electric_guitar,electric_guitar,0.9194948,True
image_0007.jpg,Adversarial Example,0.01,electric_guitar,electric_guitar,0.8803142,True
image_0007.jpg,Adversarial Example,0.1,electric_guitar,electric_guitar,0.39241838,True
image_0007.jpg,Adversarial Example,0.3,electric_guitar,hair_slide,0.6925097,False
image_0008.jpg,Original,,electric_guitar,acoustic_guitar,0.40060115,False
image_0008.jpg,Adversarial Example,0.001,electric_guitar,electric_guitar,0.44048417,True
image_0008.jpg,Adversarial Example,0.01,electric_guitar,electric_guitar,0.76189256,True
image_0008.jpg,Adversarial Example,0.1,electric_guitar,electric_guitar,0.9927999,True
image_0008.jpg,Adversarial Example,0.3,electric_guitar,electric_guitar,0.9984534,True
image_0009.jpg,Original,,electric_guitar,acoustic_guitar,0.9590657,False
image_0009.jpg,Adversarial Example,0.001,electric_guitar,acoustic_guitar,0.9474366,False
image_0009.jpg,Adversarial Example,0.01,electric_guitar,acoustic_guitar,0.9175008,False
image_0009.jpg,Adversarial Example,0.1,electric_guitar,envelope,0.9094487,False
image_0009.jpg,Adversarial Example,0.3,electric_guitar,barbell,0.9999944,False
image_0010.jpg,Original,,electric_guitar,holster,0.56612897,False
image_0010.jpg,Adversarial Example,0.001,electric_guitar,holster,0.5665156,False
image_0010.jpg,Adversarial Example,0.01,electric_guitar,holster,0.5590884,False
image_0010.jpg,Adversarial Example,0.1,electric_guitar,holster,0.5950816,False
image_0010.jpg,Adversarial Example,0.3,electric_guitar,holster,0.71553195,False
image_0011.jpg,Original,,electric_guitar,rule,0.5766238,False
image_0011.jpg,Adversarial Example,0.001,electric_guitar,rule,0.39292657,False
image_0011.jpg,Adversarial Example,0.01,electric_guitar,hatchet,0.9889164,False
image_0011.jpg,Adversarial Example,0.1,electric_guitar,envelope,0.999987,False
image_0011.jpg,Adversarial Example,0.3,electric_guitar,envelope,0.99404246,False
image_0012.jpg,Original,,electric_guitar,electric_guitar,0.78758746,True
image_0012.jpg,Adversarial Example,0.001,electric_guitar,electric_guitar,0.60253775,True
image_0012.jpg,Adversarial Example,0.01,electric_guitar,nail,0.96236426,False
image_0012.jpg,Adversarial Example,0.1,electric_guitar,nail,0.9999753,False
image_0012.jpg,Adversarial Example,0.3,electric_guitar,nail,0.99995863,False
image_0013.jpg,Original,,electric_guitar,electric_guitar,0.5142411,True
image_0013.jpg,Adversarial Example,0.001,electric_guitar,electric_guitar,0.5066794,True
image_0013.jpg,Adversarial Example,0.01,electric_guitar,electric_guitar,0.4829968,True
image_0013.jpg,Adversarial Example,0.1,electric_guitar,electric_guitar,0.4429255,True
image_0013.jpg,Adversarial Example,0.3,electric_guitar,electric_guitar,0.47290504,True
image_0014.jpg,Original,,electric_guitar,electric_guitar,0.9659639,True
image_0014.jpg,Adversarial Example,0.001,electric_guitar,electric_guitar,0.96596867,True
image_0014.jpg,Adversarial Example,0.01,electric_guitar,electric_guitar,0.9663762,True
image_0014.jpg,Adversarial Example,0.1,electric_guitar,electric_guitar,0.96920556,True
image_0014.jpg,Adversarial Example,0.3,electric_guitar,electric_guitar,0.9562144,True
image_0015.jpg,Original,,electric_guitar,electric_guitar,0.70819736,True
image_0015.jpg,Adversarial Example,0.001,electric_guitar,electric_guitar,0.6636005,True
image_0015.jpg,Adversarial Example,0.01,electric_guitar,electric_guitar,0.7944859,True
image_0015.jpg,Adversarial Example,0.1,electric_guitar,electric_guitar,0.32164726,True
image_0015.jpg,Adversarial Example,0.3,electric_guitar,banjo,0.52009505,False
image_0016.jpg,Original,,electric_guitar,hatchet,0.3705238,False
image_0016.jpg,Adversarial Example,0.001,electric_guitar,hatchet,0.19539253,False
image_0016.jpg,Adversarial Example,0.01,electric_guitar,corkscrew,0.97040904,False
image_0016.jpg,Adversarial Example,0.1,electric_guitar,hook,0.22315481,False
image_0016.jpg,Adversarial Example,0.3,electric_guitar,corkscrew,0.99994814,False
image_0017.jpg,Original,,electric_guitar,acoustic_guitar,0.94979763,False
image_0017.jpg,Adversarial Example,0.001,electric_guitar,acoustic_guitar,0.9336689,False
image_0017.jpg,Adversarial Example,0.01,electric_guitar,acoustic_guitar,0.908978,False
image_0017.jpg,Adversarial Example,0.1,electric_guitar,acoustic_guitar,0.82900375,False
image_0017.jpg,Adversarial Example,0.3,electric_guitar,piggy_bank,0.34156874,False
image_0018.jpg,Original,,electric_guitar,electric_guitar,0.4400359,True
image_0018.jpg,Adversarial Example,0.001,electric_guitar,electric_guitar,0.3906892,True
image_0018.jpg,Adversarial Example,0.01,electric_guitar,electric_guitar,0.3770047,True
image_0018.jpg,Adversarial Example,0.1,electric_guitar,violin,0.76300794,False
image_0018.jpg,Adversarial Example,0.3,electric_guitar,plow,0.944906,False
image_0019.jpg,Original,,electric_guitar,electric_guitar,0.45632222,True
image_0019.jpg,Adversarial Example,0.001,electric_guitar,electric_guitar,0.4384729,True
image_0019.jpg,Adversarial Example,0.01,electric_guitar,electric_guitar,0.52231896,True
image_0019.jpg,Adversarial Example,0.1,electric_guitar,electric_guitar,0.21140273,True
image_0019.jpg,Adversarial Example,0.3,electric_guitar,electric_guitar,0.44772932,True
image_0020.jpg,Original,,electric_guitar,electric_guitar,0.87838614,True
image_0020.jpg,Adversarial Example,0.001,electric_guitar,electric_guitar,0.8156772,True
image_0020.jpg,Adversarial Example,0.01,electric_guitar,acoustic_guitar,0.9413332,False
image_0020.jpg,Adversarial Example,0.1,electric_guitar,pick,0.9995353,False
image_0020.jpg,Adversarial Example,0.3,electric_guitar,acoustic_guitar,0.9999969,False
image_0021.jpg,Original,,electric_guitar,electric_guitar,0.3843322,True
image_0021.jpg,Adversarial Example,0.001,electric_guitar,electric_guitar,0.38018584,True
image_0021.jpg,Adversarial Example,0.01,electric_guitar,electric_guitar,0.30540916,True
image_0021.jpg,Adversarial Example,0.1,electric_guitar,banjo,0.21444903,False
image_0021.jpg,Adversarial Example,0.3,electric_guitar,candle,0.30527383,False
image_0022.jpg,Original,,electric_guitar,electric_guitar,0.45984074,True
image_0022.jpg,Adversarial Example,0.001,electric_guitar,electric_guitar,0.43845537,True
image_0022.jpg,Adversarial Example,0.01,electric_guitar,acoustic_guitar,0.22883406,False
image_0022.jpg,Adversarial Example,0.1,electric_guitar,violin,0.94827604,False
image_0022.jpg,Adversarial Example,0.3,electric_guitar,violin,0.9997999,False
image_0023.jpg,Original,,electric_guitar,banjo,0.5543779,False
image_0023.jpg,Adversarial Example,0.001,electric_guitar,banjo,0.34385872,False
image_0023.jpg,Adversarial Example,0.01,electric_guitar,plunger,0.22955847,False
image_0023.jpg,Adversarial Example,0.1,electric_guitar,hair_slide,0.48230946,False
image_0023.jpg,Adversarial Example,0.3,electric_guitar,pinwheel,0.9997093,False
image_0024.jpg,Original,,electric_guitar,hair_slide,0.16147636,False
image_0024.jpg,Adversarial Example,0.001,electric_guitar,neck_brace,0.13423748,False
image_0024.jpg,Adversarial Example,0.01,electric_guitar,neck_brace,0.64718723,False
image_0024.jpg,Adversarial Example,0.1,electric_guitar,hair_slide,0.043559387,False
image_0024.jpg,Adversarial Example,0.3,electric_guitar,plane,0.9678058,False
image_0025.jpg,Original,,electric_guitar,electric_guitar,0.73700434,True
image_0025.jpg,Adversarial Example,0.001,electric_guitar,electric_guitar,0.6971413,True
image_0025.jpg,Adversarial Example,0.01,electric_guitar,electric_guitar,0.55642515,True
image_0025.jpg,Adversarial Example,0.1,electric_guitar,electric_guitar,0.3458798,True
image_0025.jpg,Adversarial Example,0.3,electric_guitar,jigsaw_puzzle,0.89973634,False
image_0026.jpg,Original,,electric_guitar,hair_slide,0.0514268,False
image_0026.jpg,Adversarial Example,0.001,electric_guitar,hair_slide,0.046189576,False
image_0026.jpg,Adversarial Example,0.01,electric_guitar,cornet,0.044446852,False
image_0026.jpg,Adversarial Example,0.1,electric_guitar,cornet,0.09697567,False
image_0026.jpg,Adversarial Example,0.3,electric_guitar,hair_slide,0.059029933,False
image_0027.jpg,Original,,electric_guitar,electric_guitar,0.48934636,True
image_0027.jpg,Adversarial Example,0.001,electric_guitar,electric_guitar,0.47862378,True
image_0027.jpg,Adversarial Example,0.01,electric_guitar,electric_guitar,0.38423723,True
image_0027.jpg,Adversarial Example,0.1,electric_guitar,acoustic_guitar,0.47789207,False
image_0027.jpg,Adversarial Example,0.3,electric_guitar,acoustic_guitar,0.9732699,False
image_0028.jpg,Original,,electric_guitar,banjo,0.20817436,False
image_0028.jpg,Adversarial Example,0.001,electric_guitar,banjo,0.20573981,False
image_0028.jpg,Adversarial Example,0.01,electric_guitar,banjo,0.2138569,False
image_0028.jpg,Adversarial Example,0.1,electric_guitar,banjo,0.26829034,False
image_0028.jpg,Adversarial Example,0.3,electric_guitar,banjo,0.16531818,False
image_0029.jpg,Original,,electric_guitar,electric_guitar,0.7315461,True
image_0029.jpg,Adversarial Example,0.001,electric_guitar,electric_guitar,0.61789197,True
image_0029.jpg,Adversarial Example,0.01,electric_guitar,milk_can,0.23739931,False
image_0029.jpg,Adversarial Example,0.1,electric_guitar,dumbbell,0.976177,False
image_0029.jpg,Adversarial Example,0.3,electric_guitar,dumbbell,0.09587424,False
image_0030.jpg,Original,,electric_guitar,cello,0.06553231,False
image_0030.jpg,Adversarial Example,0.001,electric_guitar,plunger,0.06484847,False
image_0030.jpg,Adversarial Example,0.01,electric_guitar,dumbbell,0.7500468,False
image_0030.jpg,Adversarial Example,0.1,electric_guitar,dumbbell,0.9956899,False
image_0030.jpg,Adversarial Example,0.3,electric_guitar,teapot,0.9999999,False
image_0031.jpg,Original,,electric_guitar,electric_guitar,0.9401271,True
image_0031.jpg,Adversarial Example,0.001,electric_guitar,electric_guitar,0.94018793,True
image_0031.jpg,Adversarial Example,0.01,electric_guitar,electric_guitar,0.9402826,True
image_0031.jpg,Adversarial Example,0.1,electric_guitar,electric_guitar,0.9367284,True
image_0031.jpg,Adversarial Example,0.3,electric_guitar,electric_guitar,0.95839685,True
image_0032.jpg,Original,,electric_guitar,electric_guitar,0.50239295,True
image_0032.jpg,Adversarial Example,0.001,electric_guitar,electric_guitar,0.4705571,True
image_0032.jpg,Adversarial Example,0.01,electric_guitar,electric_guitar,0.26033285,True
image_0032.jpg,Adversarial Example,0.1,electric_guitar,holster,0.97808844,False
image_0032.jpg,Adversarial Example,0.3,electric_guitar,holster,0.99967134,False
image_0033.jpg,Original,,electric_guitar,electric_guitar,0.9588048,True
image_0033.jpg,Adversarial Example,0.001,electric_guitar,electric_guitar,0.94756496,True
image_0033.jpg,Adversarial Example,0.01,electric_guitar,paper_towel,0.5230036,False
image_0033.jpg,Adversarial Example,0.1,electric_guitar,violin,0.9140005,False
image_0033.jpg,Adversarial Example,0.3,electric_guitar,revolver,0.9944982,False
image_0034.jpg,Original,,electric_guitar,acoustic_guitar,0.83612573,False
image_0034.jpg,Adversarial Example,0.001,electric_guitar,acoustic_guitar,0.7881854,False
image_0034.jpg,Adversarial Example,0.01,electric_guitar,acoustic_guitar,0.29031715,False
image_0034.jpg,Adversarial Example,0.1,electric_guitar,violin,0.9927054,False
image_0034.jpg,Adversarial Example,0.3,electric_guitar,jigsaw_puzzle,0.9999963,False
image_0035.jpg,Original,,electric_guitar,electric_guitar,0.18543601,True
image_0035.jpg,Adversarial Example,0.001,electric_guitar,electric_guitar,0.17526068,True
image_0035.jpg,Adversarial Example,0.01,electric_guitar,electric_guitar,0.15357813,True
image_0035.jpg,Adversarial Example,0.1,electric_guitar,acoustic_guitar,0.12306281,False
image_0035.jpg,Adversarial Example,0.3,electric_guitar,electric_guitar,0.08583818,True
image_0036.jpg,Original,,electric_guitar,electric_guitar,0.5809639,True
image_0036.jpg,Adversarial Example,0.001,electric_guitar,electric_guitar,0.48712453,True
image_0036.jpg,Adversarial Example,0.01,electric_guitar,electric_guitar,0.3534445,True
image_0036.jpg,Adversarial Example,0.1,electric_guitar,electric_guitar,0.27363136,True
image_0036.jpg,Adversarial Example,0.3,electric_guitar,brain_coral,0.99925715,False
image_0037.jpg,Original,,electric_guitar,electric_guitar,0.21140526,True
image_0037.jpg,Adversarial Example,0.001,electric_guitar,electric_guitar,0.17016412,True
image_0037.jpg,Adversarial Example,0.01,electric_guitar,electric_guitar,0.17424339,True
image_0037.jpg,Adversarial Example,0.1,electric_guitar,electric_guitar,0.11584932,True
image_0037.jpg,Adversarial Example,0.3,electric_guitar,radiator,0.9165675,False
image_0038.jpg,Original,,electric_guitar,banjo,0.43395227,False
image_0038.jpg,Adversarial Example,0.001,electric_guitar,banjo,0.27864346,False
image_0038.jpg,Adversarial Example,0.01,electric_guitar,banjo,0.23614545,False
image_0038.jpg,Adversarial Example,0.1,electric_guitar,hammer,0.46039465,False
image_0038.jpg,Adversarial Example,0.3,electric_guitar,parachute,0.9999994,False
image_0039.jpg,Original,,electric_guitar,electric_guitar,0.57427067,True
image_0039.jpg,Adversarial Example,0.001,electric_guitar,electric_guitar,0.546016,True
image_0039.jpg,Adversarial Example,0.01,electric_guitar,electric_guitar,0.4445005,True
image_0039.jpg,Adversarial Example,0.1,electric_guitar,electric_guitar,0.5411467,True
image_0039.jpg,Adversarial Example,0.3,electric_guitar,wing,0.7215166,False
image_0040.jpg,Original,,electric_guitar,acoustic_guitar,0.8875718,False
image_0040.jpg,Adversarial Example,0.001,electric_guitar,acoustic_guitar,0.87190324,False
image_0040.jpg,Adversarial Example,0.01,electric_guitar,banjo,0.5939134,False
image_0040.jpg,Adversarial Example,0.1,electric_guitar,banjo,0.9764019,False
image_0040.jpg,Adversarial Example,0.3,electric_guitar,gong,0.77281886,False
image_0041.jpg,Original,,electric_guitar,electric_guitar,0.69133127,True
image_0041.jpg,Adversarial Example,0.001,electric_guitar,electric_guitar,0.65999424,True
image_0041.jpg,Adversarial Example,0.01,electric_guitar,electric_guitar,0.43289244,True
image_0041.jpg,Adversarial Example,0.1,electric_guitar,jigsaw_puzzle,0.6234199,False
image_0041.jpg,Adversarial Example,0.3,electric_guitar,buckle,0.8425856,False
image_0042.jpg,Original,,electric_guitar,hatchet,0.083589055,False
image_0042.jpg,Adversarial Example,0.001,electric_guitar,hatchet,0.065734126,False
image_0042.jpg,Adversarial Example,0.01,electric_guitar,syringe,0.19481938,False
image_0042.jpg,Adversarial Example,0.1,electric_guitar,syringe,0.7952827,False
image_0042.jpg,Adversarial Example,0.3,electric_guitar,screw,0.8146648,False
image_0043.jpg,Original,,electric_guitar,electric_guitar,0.14290728,True
image_0043.jpg,Adversarial Example,0.001,electric_guitar,pick,0.11015187,False
image_0043.jpg,Adversarial Example,0.01,electric_guitar,Christmas_stocking,0.97980475,False
image_0043.jpg,Adversarial Example,0.1,electric_guitar,Christmas_stocking,0.9997874,False
image_0043.jpg,Adversarial Example,0.3,electric_guitar,plow,0.9999993,False
image_0044.jpg,Original,,electric_guitar,electric_guitar,0.7324569,True
image_0044.jpg,Adversarial Example,0.001,electric_guitar,electric_guitar,0.49258688,True
image_0044.jpg,Adversarial Example,0.01,electric_guitar,pick,0.99865377,False
image_0044.jpg,Adversarial Example,0.1,electric_guitar,paper_towel,0.99999857,False
image_0044.jpg,Adversarial Example,0.3,electric_guitar,hook,0.99999976,False
image_0045.jpg,Original,,electric_guitar,scabbard,0.12902579,False
image_0045.jpg,Adversarial Example,0.001,electric_guitar,scabbard,0.1297515,False
image_0045.jpg,Adversarial Example,0.01,electric_guitar,scabbard,0.14305809,False
image_0045.jpg,Adversarial Example,0.1,electric_guitar,scabbard,0.37895414,False
image_0045.jpg,Adversarial Example,0.3,electric_guitar,frilled_lizard,0.101569995,False
image_0046.jpg,Original,,electric_guitar,acoustic_guitar,0.72867674,False
image_0046.jpg,Adversarial Example,0.001,electric_guitar,acoustic_guitar,0.70960146,False
image_0046.jpg,Adversarial Example,0.01,electric_guitar,acoustic_guitar,0.65096265,False
image_0046.jpg,Adversarial Example,0.1,electric_guitar,acoustic_guitar,0.48300803,False
image_0046.jpg,Adversarial Example,0.3,electric_guitar,loupe,0.3891296,False
image_0047.jpg,Original,,electric_guitar,electric_guitar,0.6088886,True
image_0047.jpg,Adversarial Example,0.001,electric_guitar,electric_guitar,0.45530424,True
image_0047.jpg,Adversarial Example,0.01,electric_guitar,electric_guitar,0.25359514,True
image_0047.jpg,Adversarial Example,0.1,electric_guitar,scabbard,0.50091684,False
image_0047.jpg,Adversarial Example,0.3,electric_guitar,violin,0.9994635,False
image_0048.jpg,Original,,electric_guitar,electric_guitar,0.8633655,True
image_0048.jpg,Adversarial Example,0.001,electric_guitar,electric_guitar,0.81580186,True
image_0048.jpg,Adversarial Example,0.01,electric_guitar,electric_guitar,0.6447368,True
image_0048.jpg,Adversarial Example,0.1,electric_guitar,tile_roof,0.75974166,False
image_0048.jpg,Adversarial Example,0.3,electric_guitar,theater_curtain,0.9998209,False
image_0049.jpg,Original,,electric_guitar,electric_guitar,0.9333656,True
image_0049.jpg,Adversarial Example,0.001,electric_guitar,electric_guitar,0.89944,True
image_0049.jpg,Adversarial Example,0.01,electric_guitar,electric_guitar,0.45124906,True
image_0049.jpg,Adversarial Example,0.1,electric_guitar,violin,0.9920643,False
image_0049.jpg,Adversarial Example,0.3,electric_guitar,corkscrew,0.9995091,False
image_0050.jpg,Original,,electric_guitar,electric_guitar,0.93000644,True
image_0050.jpg,Adversarial Example,0.001,electric_guitar,electric_guitar,0.81104004,True
image_0050.jpg,Adversarial Example,0.01,electric_guitar,jigsaw_puzzle,0.99091446,False
image_0050.jpg,Adversarial Example,0.1,electric_guitar,jigsaw_puzzle,0.9998522,False
image_0050.jpg,Adversarial Example,0.3,electric_guitar,jigsaw_puzzle,0.9999515,False
image_0051.jpg,Original,,electric_guitar,electric_guitar,0.65332377,True
image_0051.jpg,Adversarial Example,0.001,electric_guitar,electric_guitar,0.5996389,True
image_0051.jpg,Adversarial Example,0.01,electric_guitar,electric_guitar,0.33601516,True
image_0051.jpg,Adversarial Example,0.1,electric_guitar,electric_guitar,0.81779313,True
image_0051.jpg,Adversarial Example,0.3,electric_guitar,backpack,0.5357915,False
image_0052.jpg,Original,,electric_guitar,acoustic_guitar,0.7524393,False
image_0052.jpg,Adversarial Example,0.001,electric_guitar,acoustic_guitar,0.74213743,False
image_0052.jpg,Adversarial Example,0.01,electric_guitar,acoustic_guitar,0.750561,False
image_0052.jpg,Adversarial Example,0.1,electric_guitar,acoustic_guitar,0.61713034,False
image_0052.jpg,Adversarial Example,0.3,electric_guitar,acoustic_guitar,0.48430425,False
image_0053.jpg,Original,,electric_guitar,acoustic_guitar,0.24802758,False
image_0053.jpg,Adversarial Example,0.001,electric_guitar,acoustic_guitar,0.21686274,False
image_0053.jpg,Adversarial Example,0.01,electric_guitar,limousine,0.12608236,False
image_0053.jpg,Adversarial Example,0.1,electric_guitar,acoustic_guitar,0.33976066,False
image_0053.jpg,Adversarial Example,0.3,electric_guitar,jigsaw_puzzle,0.9999883,False
image_0054.jpg,Original,,electric_guitar,electric_guitar,0.12243509,True
image_0054.jpg,Adversarial Example,0.001,electric_guitar,electric_guitar,0.112792656,True
image_0054.jpg,Adversarial Example,0.01,electric_guitar,electric_guitar,0.09690336,True
image_0054.jpg,Adversarial Example,0.1,electric_guitar,paper_towel,0.058442555,False
image_0054.jpg,Adversarial Example,0.3,electric_guitar,safety_pin,0.9888558,False
image_0055.jpg,Original,,electric_guitar,electric_guitar,0.7561441,True
image_0055.jpg,Adversarial Example,0.001,electric_guitar,electric_guitar,0.75532055,True
image_0055.jpg,Adversarial Example,0.01,electric_guitar,electric_guitar,0.72900176,True
image_0055.jpg,Adversarial Example,0.1,electric_guitar,electric_guitar,0.794809,True
image_0055.jpg,Adversarial Example,0.3,electric_guitar,electric_guitar,0.93604,True
image_0056.jpg,Original,,electric_guitar,electric_guitar,0.9512204,True
image_0056.jpg,Adversarial Example,0.001,electric_guitar,electric_guitar,0.9461008,True
image_0056.jpg,Adversarial Example,0.01,electric_guitar,electric_guitar,0.9317986,True
image_0056.jpg,Adversarial Example,0.1,electric_guitar,paper_towel,0.86776805,False
image_0056.jpg,Adversarial Example,0.3,electric_guitar,electric_guitar,0.8420477,True
image_0057.jpg,Original,,electric_guitar,electric_guitar,0.49166837,True
image_0057.jpg,Adversarial Example,0.001,electric_guitar,electric_guitar,0.45856693,True
image_0057.jpg,Adversarial Example,0.01,electric_guitar,electric_guitar,0.3119499,True
image_0057.jpg,Adversarial Example,0.1,electric_guitar,Christmas_stocking,0.8183479,False
image_0057.jpg,Adversarial Example,0.3,electric_guitar,pinwheel,0.7901732,False
image_0058.jpg,Original,,electric_guitar,electric_guitar,0.8704312,True
image_0058.jpg,Adversarial Example,0.001,electric_guitar,electric_guitar,0.8605767,True
image_0058.jpg,Adversarial Example,0.01,electric_guitar,electric_guitar,0.8170659,True
image_0058.jpg,Adversarial Example,0.1,electric_guitar,electric_guitar,0.6912646,True
image_0058.jpg,Adversarial Example,0.3,electric_guitar,screw,0.13128603,False
image_0059.jpg,Original,,electric_guitar,electric_guitar,0.810187,True
image_0059.jpg,Adversarial Example,0.001,electric_guitar,electric_guitar,0.7557889,True
image_0059.jpg,Adversarial Example,0.01,electric_guitar,electric_guitar,0.6776045,True
image_0059.jpg,Adversarial Example,0.1,electric_guitar,violin,0.92172277,False
image_0059.jpg,Adversarial Example,0.3,electric_guitar,throne,0.6002872,False
image_0060.jpg,Original,,electric_guitar,electric_guitar,0.50356716,True
image_0060.jpg,Adversarial Example,0.001,electric_guitar,electric_guitar,0.45147428,True
image_0060.jpg,Adversarial Example,0.01,electric_guitar,electric_guitar,0.51686907,True
image_0060.jpg,Adversarial Example,0.1,electric_guitar,violin,0.99689364,False
image_0060.jpg,Adversarial Example,0.3,electric_guitar,bulletproof_vest,0.64662874,False
image_0061.jpg,Original,,electric_guitar,acoustic_guitar,0.41239795,False
image_0061.jpg,Adversarial Example,0.001,electric_guitar,acoustic_guitar,0.31658965,False
image_0061.jpg,Adversarial Example,0.01,electric_guitar,electric_guitar,0.1183546,True
image_0061.jpg,Adversarial Example,0.1,electric_guitar,mask,0.9787481,False
image_0061.jpg,Adversarial Example,0.3,electric_guitar,mask,0.9996158,False
image_0062.jpg,Original,,electric_guitar,electric_guitar,0.77068913,True
image_0062.jpg,Adversarial Example,0.001,electric_guitar,electric_guitar,0.72129536,True
image_0062.jpg,Adversarial Example,0.01,electric_guitar,electric_guitar,0.25905308,True
image_0062.jpg,Adversarial Example,0.1,electric_guitar,barbell,0.8976711,False
image_0062.jpg,Adversarial Example,0.3,electric_guitar,dumbbell,0.9967615,False
image_0063.jpg,Original,,electric_guitar,acoustic_guitar,0.76405174,False
image_0063.jpg,Adversarial Example,0.001,electric_guitar,acoustic_guitar,0.75667477,False
image_0063.jpg,Adversarial Example,0.01,electric_guitar,acoustic_guitar,0.8044507,False
image_0063.jpg,Adversarial Example,0.1,electric_guitar,acoustic_guitar,0.8020152,False
image_0063.jpg,Adversarial Example,0.3,electric_guitar,snowplow,0.37382296,False
image_0064.jpg,Original,,electric_guitar,electric_guitar,0.93195075,True
image_0064.jpg,Adversarial Example,0.001,electric_guitar,electric_guitar,0.9001409,True
image_0064.jpg,Adversarial Example,0.01,electric_guitar,acoustic_guitar,0.2984801,False
image_0064.jpg,Adversarial Example,0.1,electric_guitar,violin,0.9979297,False
image_0064.jpg,Adversarial Example,0.3,electric_guitar,corkscrew,0.9999999,False
image_0065.jpg,Original,,electric_guitar,electric_guitar,0.6243461,True
image_0065.jpg,Adversarial Example,0.001,electric_guitar,electric_guitar,0.58165675,True
image_0065.jpg,Adversarial Example,0.01,electric_guitar,violin,0.318149,False
image_0065.jpg,Adversarial Example,0.1,electric_guitar,violin,0.9685551,False
image_0065.jpg,Adversarial Example,0.3,electric_guitar,violin,0.99898225,False
image_0066.jpg,Original,,electric_guitar,electric_guitar,0.83329105,True
image_0066.jpg,Adversarial Example,0.001,electric_guitar,electric_guitar,0.814528,True
image_0066.jpg,Adversarial Example,0.01,electric_guitar,electric_guitar,0.52866477,True
image_0066.jpg,Adversarial Example,0.1,electric_guitar,acoustic_guitar,0.6005782,False
image_0066.jpg,Adversarial Example,0.3,electric_guitar,bath_towel,0.9998441,False
image_0067.jpg,Original,,electric_guitar,electric_guitar,0.9345642,True
image_0067.jpg,Adversarial Example,0.001,electric_guitar,electric_guitar,0.9208509,True
image_0067.jpg,Adversarial Example,0.01,electric_guitar,electric_guitar,0.94939494,True
image_0067.jpg,Adversarial Example,0.1,electric_guitar,electric_guitar,0.90318936,True
image_0067.jpg,Adversarial Example,0.3,electric_guitar,electric_guitar,0.96188533,True
image_0068.jpg,Original,,electric_guitar,electric_guitar,0.59091294,True
image_0068.jpg,Adversarial Example,0.001,electric_guitar,electric_guitar,0.49338177,True
image_0068.jpg,Adversarial Example,0.01,electric_guitar,electric_guitar,0.15362029,True
image_0068.jpg,Adversarial Example,0.1,electric_guitar,cassette,0.1851179,False
image_0068.jpg,Adversarial Example,0.3,electric_guitar,padlock,0.988194,False
image_0069.jpg,Original,,electric_guitar,electric_guitar,0.96827656,True
image_0069.jpg,Adversarial Example,0.001,electric_guitar,electric_guitar,0.9593376,True
image_0069.jpg,Adversarial Example,0.01,electric_guitar,electric_guitar,0.8963911,True
image_0069.jpg,Adversarial Example,0.1,electric_guitar,pay-phone,0.75480455,False
image_0069.jpg,Adversarial Example,0.3,electric_guitar,guillotine,0.9999106,False
image_0070.jpg,Original,,electric_guitar,electric_guitar,0.7987635,True
image_0070.jpg,Adversarial Example,0.001,electric_guitar,electric_guitar,0.741487,True
image_0070.jpg,Adversarial Example,0.01,electric_guitar,electric_guitar,0.55227995,True
image_0070.jpg,Adversarial Example,0.1,electric_guitar,revolver,0.35779357,False
image_0070.jpg,Adversarial Example,0.3,electric_guitar,revolver,0.99985826,False
image_0071.jpg,Original,,electric_guitar,electric_guitar,0.89613926,True
image_0071.jpg,Adversarial Example,0.001,electric_guitar,electric_guitar,0.8727603,True
image_0071.jpg,Adversarial Example,0.01,electric_guitar,electric_guitar,0.89297765,True
image_0071.jpg,Adversarial Example,0.1,electric_guitar,shield,0.06450606,False
image_0071.jpg,Adversarial Example,0.3,electric_guitar,china_cabinet,0.96965134,False
image_0072.jpg,Original,,electric_guitar,acoustic_guitar,0.35406983,False
image_0072.jpg,Adversarial Example,0.001,electric_guitar,acoustic_guitar,0.3293468,False
image_0072.jpg,Adversarial Example,0.01,electric_guitar,acoustic_guitar,0.42211318,False
image_0072.jpg,Adversarial Example,0.1,electric_guitar,acoustic_guitar,0.43053532,False
image_0072.jpg,Adversarial Example,0.3,electric_guitar,electric_guitar,0.37218004,True
image_0073.jpg,Original,,electric_guitar,electric_guitar,0.9350444,True
image_0073.jpg,Adversarial Example,0.001,electric_guitar,electric_guitar,0.93081397,True
image_0073.jpg,Adversarial Example,0.01,electric_guitar,electric_guitar,0.882725,True
image_0073.jpg,Adversarial Example,0.1,electric_guitar,electric_guitar,0.8363902,True
image_0073.jpg,Adversarial Example,0.3,electric_guitar,pinwheel,0.52794784,False
image_0074.jpg,Original,,electric_guitar,electric_guitar,0.21686776,True
image_0074.jpg,Adversarial Example,0.001,electric_guitar,electric_guitar,0.20566607,True
image_0074.jpg,Adversarial Example,0.01,electric_guitar,banjo,0.15469623,False
image_0074.jpg,Adversarial Example,0.1,electric_guitar,banjo,0.4118628,False
image_0074.jpg,Adversarial Example,0.3,electric_guitar,abaya,0.20278995,False
image_0075.jpg,Original,,electric_guitar,letter_opener,0.109105445,False
image_0075.jpg,Adversarial Example,0.001,electric_guitar,letter_opener,0.08270821,False
image_0075.jpg,Adversarial Example,0.01,electric_guitar,shovel,0.4354296,False
image_0075.jpg,Adversarial Example,0.1,electric_guitar,shovel,0.9745224,False
image_0075.jpg,Adversarial Example,0.3,electric_guitar,beaver,0.99430627,False
image_0001.jpg,Original,,schooner,schooner,0.9167682,True
image_0001.jpg,Adversarial Example,0.001,schooner,schooner,0.8651373,True
image_0001.jpg,Adversarial Example,0.01,schooner,pirate,0.94199485,False
image_0001.jpg,Adversarial Example,0.1,schooner,pirate,0.9999149,False
image_0001.jpg,Adversarial Example,0.3,schooner,pirate,0.99999845,False
image_0002.jpg,Original,,schooner,schooner,0.8271314,True
image_0002.jpg,Adversarial Example,0.001,schooner,schooner,0.8176656,True
image_0002.jpg,Adversarial Example,0.01,schooner,schooner,0.7759428,True
image_0002.jpg,Adversarial Example,0.1,schooner,schooner,0.4872663,True
image_0002.jpg,Adversarial Example,0.3,schooner,cloak,0.9870635,False
image_0003.jpg,Original,,schooner,schooner,0.9045042,True
image_0003.jpg,Adversarial Example,0.001,schooner,schooner,0.90033436,True
image_0003.jpg,Adversarial Example,0.01,schooner,schooner,0.8441818,True
image_0003.jpg,Adversarial Example,0.1,schooner,schooner,0.3873969,True
image_0003.jpg,Adversarial Example,0.3,schooner,puffer,0.9936161,False
image_0004.jpg,Original,,schooner,schooner,0.8891897,True
image_0004.jpg,Adversarial Example,0.001,schooner,schooner,0.8519464,True
image_0004.jpg,Adversarial Example,0.01,schooner,schooner,0.3374982,True
image_0004.jpg,Adversarial Example,0.1,schooner,picket_fence,0.7021907,False
image_0004.jpg,Adversarial Example,0.3,schooner,yawl,0.99999976,False
image_0005.jpg,Original,,schooner,schooner,0.885591,True
image_0005.jpg,Adversarial Example,0.001,schooner,schooner,0.68409175,True
image_0005.jpg,Adversarial Example,0.01,schooner,dam,0.99999595,False
image_0005.jpg,Adversarial Example,0.1,schooner,fountain,0.99999654,False
image_0005.jpg,Adversarial Example,0.3,schooner,tricycle,1.0,False
image_0006.jpg,Original,,schooner,schooner,0.90148205,True
image_0006.jpg,Adversarial Example,0.001,schooner,schooner,0.8853544,True
image_0006.jpg,Adversarial Example,0.01,schooner,schooner,0.57856905,True
image_0006.jpg,Adversarial Example,0.1,schooner,pirate,0.9980987,False
image_0006.jpg,Adversarial Example,0.3,schooner,shopping_basket,0.99999833,False
image_0007.jpg,Original,,schooner,schooner,0.84495026,True
image_0007.jpg,Adversarial Example,0.001,schooner,schooner,0.7537422,True
image_0007.jpg,Adversarial Example,0.01,schooner,pirate,0.99168915,False
image_0007.jpg,Adversarial Example,0.1,schooner,pirate,0.9999707,False
image_0007.jpg,Adversarial Example,0.3,schooner,pirate,0.99999905,False
image_0008.jpg,Original,,schooner,schooner,0.8363653,True
image_0008.jpg,Adversarial Example,0.001,schooner,schooner,0.82191914,True
image_0008.jpg,Adversarial Example,0.01,schooner,schooner,0.72438425,True
image_0008.jpg,Adversarial Example,0.1,schooner,schooner,0.5175234,True
image_0008.jpg,Adversarial Example,0.3,schooner,yawl,0.98595065,False
image_0009.jpg,Original,,schooner,schooner,0.734369,True
image_0009.jpg,Adversarial Example,0.001,schooner,schooner,0.7057021,True
image_0009.jpg,Adversarial Example,0.01,schooner,schooner,0.80712044,True
image_0009.jpg,Adversarial Example,0.1,schooner,schooner,0.93409175,True
image_0009.jpg,Adversarial Example,0.3,schooner,tripod,0.9926426,False
image_0010.jpg,Original,,schooner,schooner,0.90854245,True
image_0010.jpg,Adversarial Example,0.001,schooner,schooner,0.90232337,True
image_0010.jpg,Adversarial Example,0.01,schooner,schooner,0.8516783,True
image_0010.jpg,Adversarial Example,0.1,schooner,schooner,0.6519416,True
image_0010.jpg,Adversarial Example,0.3,schooner,schooner,0.52360344,True
image_0011.jpg,Original,,schooner,schooner,0.8642571,True
image_0011.jpg,Adversarial Example,0.001,schooner,schooner,0.8363194,True
image_0011.jpg,Adversarial Example,0.01,schooner,schooner,0.46753097,True
image_0011.jpg,Adversarial Example,0.1,schooner,mosquito_net,0.9936034,False
image_0011.jpg,Adversarial Example,0.3,schooner,trimaran,0.99990463,False
image_0012.jpg,Original,,schooner,schooner,0.7418079,True
image_0012.jpg,Adversarial Example,0.001,schooner,schooner,0.61237746,True
image_0012.jpg,Adversarial Example,0.01,schooner,yawl,0.93175125,False
image_0012.jpg,Adversarial Example,0.1,schooner,fireboat,0.99996495,False
image_0012.jpg,Adversarial Example,0.3,schooner,yawl,0.9999999,False
image_0013.jpg,Original,,schooner,schooner,0.8103148,True
image_0013.jpg,Adversarial Example,0.001,schooner,schooner,0.72587115,True
image_0013.jpg,Adversarial Example,0.01,schooner,schooner,0.089316554,True
image_0013.jpg,Adversarial Example,0.1,schooner,yawl,0.99999714,False
image_0013.jpg,Adversarial Example,0.3,schooner,yawl,0.9997687,False
image_0014.jpg,Original,,schooner,schooner,0.7889088,True
image_0014.jpg,Adversarial Example,0.001,schooner,schooner,0.726522,True
image_0014.jpg,Adversarial Example,0.01,schooner,pirate,0.51150835,False
image_0014.jpg,Adversarial Example,0.1,schooner,trimaran,0.99909914,False
image_0014.jpg,Adversarial Example,0.3,schooner,vacuum,0.99966884,False
image_0015.jpg,Original,,schooner,solar_dish,0.24491689,False
image_0015.jpg,Adversarial Example,0.001,schooner,beaker,0.24348134,False
image_0015.jpg,Adversarial Example,0.01,schooner,lampshade,0.9950387,False
image_0015.jpg,Adversarial Example,0.1,schooner,pillow,0.9999999,False
image_0015.jpg,Adversarial Example,0.3,schooner,prayer_rug,0.9999871,False
image_0016.jpg,Original,,schooner,schooner,0.9029439,True
image_0016.jpg,Adversarial Example,0.001,schooner,schooner,0.8874814,True
image_0016.jpg,Adversarial Example,0.01,schooner,schooner,0.6575491,True
image_0016.jpg,Adversarial Example,0.1,schooner,yawl,0.9404241,False
image_0016.jpg,Adversarial Example,0.3,schooner,yawl,0.99795485,False
image_0017.jpg,Original,,schooner,schooner,0.9587535,True
image_0017.jpg,Adversarial Example,0.001,schooner,schooner,0.90541506,True
image_0017.jpg,Adversarial Example,0.01,schooner,fountain,0.99933845,False
image_0017.jpg,Adversarial Example,0.1,schooner,pickelhaube,0.9998512,False
image_0017.jpg,Adversarial Example,0.3,schooner,sax,0.9921731,False
image_0018.jpg,Original,,schooner,schooner,0.8497743,True
image_0018.jpg,Adversarial Example,0.001,schooner,schooner,0.7607289,True
image_0018.jpg,Adversarial Example,0.01,schooner,schooner,0.22607283,True
image_0018.jpg,Adversarial Example,0.1,schooner,mosquito_net,0.9878808,False
image_0018.jpg,Adversarial Example,0.3,schooner,theater_curtain,1.0,False
image_0019.jpg,Original,,schooner,schooner,0.89136654,True
image_0019.jpg,Adversarial Example,0.001,schooner,schooner,0.8414787,True
image_0019.jpg,Adversarial Example,0.01,schooner,yawl,0.23348643,False
image_0019.jpg,Adversarial Example,0.1,schooner,yawl,0.9982017,False
image_0019.jpg,Adversarial Example,0.3,schooner,yawl,0.99999166,False
image_0020.jpg,Original,,schooner,schooner,0.9189397,True
image_0020.jpg,Adversarial Example,0.001,schooner,schooner,0.9071664,True
image_0020.jpg,Adversarial Example,0.01,schooner,schooner,0.76002973,True
image_0020.jpg,Adversarial Example,0.1,schooner,schooner,0.81649894,True
image_0020.jpg,Adversarial Example,0.3,schooner,parallel_bars,0.92850447,False
image_0021.jpg,Original,,schooner,schooner,0.83896464,True
image_0021.jpg,Adversarial Example,0.001,schooner,schooner,0.77817106,True
image_0021.jpg,Adversarial Example,0.01,schooner,pirate,0.7325925,False
image_0021.jpg,Adversarial Example,0.1,schooner,torch,0.99095166,False
image_0021.jpg,Adversarial Example,0.3,schooner,pirate,0.9999156,False
image_0022.jpg,Original,,schooner,schooner,0.9148386,True
image_0022.jpg,Adversarial Example,0.001,schooner,schooner,0.8934723,True
image_0022.jpg,Adversarial Example,0.01,schooner,schooner,0.5264768,True
image_0022.jpg,Adversarial Example,0.1,schooner,yawl,0.99535865,False
image_0022.jpg,Adversarial Example,0.3,schooner,yawl,0.99992716,False
image_0023.jpg,Original,,schooner,schooner,0.88679296,True
image_0023.jpg,Adversarial Example,0.001,schooner,schooner,0.8771655,True
image_0023.jpg,Adversarial Example,0.01,schooner,schooner,0.73748183,True
image_0023.jpg,Adversarial Example,0.1,schooner,pirate,0.6741353,False
image_0023.jpg,Adversarial Example,0.3,schooner,shovel,0.9491637,False
image_0024.jpg,Original,,schooner,schooner,0.8808074,True
image_0024.jpg,Adversarial Example,0.001,schooner,schooner,0.8220487,True
image_0024.jpg,Adversarial Example,0.01,schooner,dam,0.88330936,False
image_0024.jpg,Adversarial Example,0.1,schooner,papillon,0.30459896,False
image_0024.jpg,Adversarial Example,0.3,schooner,vestment,0.9999995,False
image_0025.jpg,Original,,schooner,schooner,0.90520334,True
image_0025.jpg,Adversarial Example,0.001,schooner,schooner,0.87739587,True
image_0025.jpg,Adversarial Example,0.01,schooner,schooner,0.8441618,True
image_0025.jpg,Adversarial Example,0.1,schooner,yawl,0.98508924,False
image_0025.jpg,Adversarial Example,0.3,schooner,guillotine,0.98571223,False
image_0026.jpg,Original,,schooner,schooner,0.8838715,True
image_0026.jpg,Adversarial Example,0.001,schooner,schooner,0.8514341,True
image_0026.jpg,Adversarial Example,0.01,schooner,yawl,0.51350045,False
image_0026.jpg,Adversarial Example,0.1,schooner,yawl,0.9995752,False
image_0026.jpg,Adversarial Example,0.3,schooner,yawl,0.9997669,False
image_0027.jpg,Original,,schooner,schooner,0.8577239,True
image_0027.jpg,Adversarial Example,0.001,schooner,schooner,0.7659312,True
image_0027.jpg,Adversarial Example,0.01,schooner,wallet,0.47501278,False
image_0027.jpg,Adversarial Example,0.1,schooner,lampshade,0.9996959,False
image_0027.jpg,Adversarial Example,0.3,schooner,harvester,0.99919516,False
image_0028.jpg,Original,,schooner,schooner,0.9491134,True
image_0028.jpg,Adversarial Example,0.001,schooner,schooner,0.946943,True
image_0028.jpg,Adversarial Example,0.01,schooner,schooner,0.95095545,True
image_0028.jpg,Adversarial Example,0.1,schooner,schooner,0.8529638,True
image_0028.jpg,Adversarial Example,0.3,schooner,barrow,0.9999622,False
image_0029.jpg,Original,,schooner,schooner,0.80172,True
image_0029.jpg,Adversarial Example,0.001,schooner,schooner,0.7520417,True
image_0029.jpg,Adversarial Example,0.01,schooner,schooner,0.31907997,True
image_0029.jpg,Adversarial Example,0.1,schooner,yawl,0.5197165,False
image_0029.jpg,Adversarial Example,0.3,schooner,yawl,0.99971396,False
image_0030.jpg,Original,,schooner,yawl,0.47193867,False
image_0030.jpg,Adversarial Example,0.001,schooner,schooner,0.7622541,True
image_0030.jpg,Adversarial Example,0.01,schooner,schooner,0.968459,True
image_0030.jpg,Adversarial Example,0.1,schooner,schooner,0.9870488,True
image_0030.jpg,Adversarial Example,0.3,schooner,schooner,0.99999547,True
image_0031.jpg,Original,,schooner,schooner,0.94874275,True
image_0031.jpg,Adversarial Example,0.001,schooner,schooner,0.9290733,True
image_0031.jpg,Adversarial Example,0.01,schooner,schooner,0.9375695,True
image_0031.jpg,Adversarial Example,0.1,schooner,barn,0.3804331,False
image_0031.jpg,Adversarial Example,0.3,schooner,submarine,0.9999565,False
image_0032.jpg,Original,,schooner,schooner,0.5119787,True
image_0032.jpg,Adversarial Example,0.001,schooner,yawl,0.48902667,False
image_0032.jpg,Adversarial Example,0.01,schooner,yawl,0.9714093,False
image_0032.jpg,Adversarial Example,0.1,schooner,yawl,0.9988154,False
image_0032.jpg,Adversarial Example,0.3,schooner,baboon,0.99782264,False
image_0033.jpg,Original,,schooner,yawl,0.71562827,False
image_0033.jpg,Adversarial Example,0.001,schooner,schooner,0.4603123,True
image_0033.jpg,Adversarial Example,0.01,schooner,schooner,0.98640245,True
image_0033.jpg,Adversarial Example,0.1,schooner,schooner,0.99994063,True
image_0033.jpg,Adversarial Example,0.3,schooner,pirate,0.9993057,False
image_0034.jpg,Original,,schooner,schooner,0.72870904,True
image_0034.jpg,Adversarial Example,0.001,schooner,schooner,0.4657598,True
image_0034.jpg,Adversarial Example,0.01,schooner,yawl,0.9514995,False
image_0034.jpg,Adversarial Example,0.1,schooner,yawl,0.99996984,False
image_0034.jpg,Adversarial Example,0.3,schooner,brown_bear,0.99999404,False
image_0035.jpg,Original,,schooner,yawl,0.81465906,False
image_0035.jpg,Adversarial Example,0.001,schooner,yawl,0.5474055,False
image_0035.jpg,Adversarial Example,0.01,schooner,schooner,0.9806889,True
image_0035.jpg,Adversarial Example,0.1,schooner,schooner,0.9996642,True
image_0035.jpg,Adversarial Example,0.3,schooner,handkerchief,0.9998456,False
image_0036.jpg,Original,,schooner,schooner,0.9100341,True
image_0036.jpg,Adversarial Example,0.001,schooner,schooner,0.82333934,True
image_0036.jpg,Adversarial Example,0.01,schooner,mountain_tent,0.09359366,False
image_0036.jpg,Adversarial Example,0.1,schooner,sliding_door,0.9999273,False
image_0036.jpg,Adversarial Example,0.3,schooner,sundial,1.0,False
image_0037.jpg,Original,,schooner,schooner,0.80790275,True
image_0037.jpg,Adversarial Example,0.001,schooner,schooner,0.5068165,True
image_0037.jpg,Adversarial Example,0.01,schooner,yawl,0.9964857,False
image_0037.jpg,Adversarial Example,0.1,schooner,pirate,0.9956286,False
image_0037.jpg,Adversarial Example,0.3,schooner,pirate,0.9999999,False
image_0038.jpg,Original,,schooner,schooner,0.89259994,True
image_0038.jpg,Adversarial Example,0.001,schooner,schooner,0.8462695,True
image_0038.jpg,Adversarial Example,0.01,schooner,pirate,0.9349572,False
image_0038.jpg,Adversarial Example,0.1,schooner,pirate,0.99998486,False
image_0038.jpg,Adversarial Example,0.3,schooner,pirate,0.99999905,False
image_0039.jpg,Original,,schooner,schooner,0.92035806,True
image_0039.jpg,Adversarial Example,0.001,schooner,schooner,0.89798915,True
image_0039.jpg,Adversarial Example,0.01,schooner,schooner,0.5933965,True
image_0039.jpg,Adversarial Example,0.1,schooner,trimaran,0.99713576,False
image_0039.jpg,Adversarial Example,0.3,schooner,trimaran,0.9999999,False
image_0040.jpg,Original,,schooner,schooner,0.8049027,True
image_0040.jpg,Adversarial Example,0.001,schooner,schooner,0.71448904,True
image_0040.jpg,Adversarial Example,0.01,schooner,pirate,0.10079757,False
image_0040.jpg,Adversarial Example,0.1,schooner,pop_bottle,0.99976116,False
image_0040.jpg,Adversarial Example,0.3,schooner,bubble,1.0,False
image_0041.jpg,Original,,schooner,schooner,0.8930232,True
image_0041.jpg,Adversarial Example,0.001,schooner,schooner,0.8504465,True
image_0041.jpg,Adversarial Example,0.01,schooner,yawl,0.7937609,False
image_0041.jpg,Adversarial Example,0.1,schooner,mashed_potato,0.97085124,False
image_0041.jpg,Adversarial Example,0.3,schooner,hourglass,0.9999999,False
image_0042.jpg,Original,,schooner,schooner,0.8965684,True
image_0042.jpg,Adversarial Example,0.001,schooner,schooner,0.883179,True
image_0042.jpg,Adversarial Example,0.01,schooner,schooner,0.84607846,True
image_0042.jpg,Adversarial Example,0.1,schooner,schooner,0.81289625,True
image_0042.jpg,Adversarial Example,0.3,schooner,submarine,0.997003,False
image_0043.jpg,Original,,schooner,schooner,0.9613191,True
image_0043.jpg,Adversarial Example,0.001,schooner,schooner,0.9444248,True
image_0043.jpg,Adversarial Example,0.01,schooner,schooner,0.3481346,True
image_0043.jpg,Adversarial Example,0.1,schooner,corkscrew,0.9571836,False
image_0043.jpg,Adversarial Example,0.3,schooner,sewing_machine,0.9999999,False
image_0044.jpg,Original,,schooner,schooner,0.8951299,True
image_0044.jpg,Adversarial Example,0.001,schooner,schooner,0.8692,True
image_0044.jpg,Adversarial Example,0.01,schooner,yawl,0.64802635,False
image_0044.jpg,Adversarial Example,0.1,schooner,sundial,0.31796756,False
image_0044.jpg,Adversarial Example,0.3,schooner,crutch,0.9860765,False
image_0045.jpg,Original,,schooner,schooner,0.865076,True
image_0045.jpg,Adversarial Example,0.001,schooner,schooner,0.77137953,True
image_0045.jpg,Adversarial Example,0.01,schooner,yawl,0.8685116,False
image_0045.jpg,Adversarial Example,0.1,schooner,screen,0.73659027,False
image_0045.jpg,Adversarial Example,0.3,schooner,triceratops,0.9999995,False
image_0046.jpg,Original,,schooner,yawl,0.58432734,False
image_0046.jpg,Adversarial Example,0.001,schooner,schooner,0.52135134,True
image_0046.jpg,Adversarial Example,0.01,schooner,schooner,0.93016607,True
image_0046.jpg,Adversarial Example,0.1,schooner,schooner,0.99750143,True
image_0046.jpg,Adversarial Example,0.3,schooner,corn,0.84960186,False
image_0047.jpg,Original,,schooner,schooner,0.8319132,True
image_0047.jpg,Adversarial Example,0.001,schooner,schooner,0.8108725,True
image_0047.jpg,Adversarial Example,0.01,schooner,schooner,0.72672665,True
image_0047.jpg,Adversarial Example,0.1,schooner,schooner,0.6407749,True
image_0047.jpg,Adversarial Example,0.3,schooner,tricycle,0.9948979,False
image_0048.jpg,Original,,schooner,schooner,0.82137555,True
image_0048.jpg,Adversarial Example,0.001,schooner,schooner,0.7718141,True
image_0048.jpg,Adversarial Example,0.01,schooner,schooner,0.41806817,True
image_0048.jpg,Adversarial Example,0.1,schooner,screen,0.38784698,False
image_0048.jpg,Adversarial Example,0.3,schooner,paper_towel,0.9999993,False
image_0049.jpg,Original,,schooner,schooner,0.91634023,True
image_0049.jpg,Adversarial Example,0.001,schooner,schooner,0.8932462,True
image_0049.jpg,Adversarial Example,0.01,schooner,schooner,0.4943958,True
image_0049.jpg,Adversarial Example,0.1,schooner,schooner,0.2637627,True
image_0049.jpg,Adversarial Example,0.3,schooner,brass,0.97954285,False
image_0050.jpg,Original,,schooner,schooner,0.8549117,True
image_0050.jpg,Adversarial Example,0.001,schooner,schooner,0.7726272,True
image_0050.jpg,Adversarial Example,0.01,schooner,pirate,0.56560904,False
image_0050.jpg,Adversarial Example,0.1,schooner,pirate,0.99963605,False
image_0050.jpg,Adversarial Example,0.3,schooner,yawl,0.9984641,False
image_0051.jpg,Original,,schooner,schooner,0.9435062,True
image_0051.jpg,Adversarial Example,0.001,schooner,schooner,0.9246051,True
image_0051.jpg,Adversarial Example,0.01,schooner,schooner,0.29810312,True
image_0051.jpg,Adversarial Example,0.1,schooner,bannister,0.9658869,False
image_0051.jpg,Adversarial Example,0.3,schooner,safe,0.99397063,False
image_0052.jpg,Original,,schooner,schooner,0.8216911,True
image_0052.jpg,Adversarial Example,0.001,schooner,schooner,0.78626895,True
image_0052.jpg,Adversarial Example,0.01,schooner,yawl,0.40186208,False
image_0052.jpg,Adversarial Example,0.1,schooner,yawl,0.99893457,False
image_0052.jpg,Adversarial Example,0.3,schooner,candle,0.9999925,False
image_0053.jpg,Original,,schooner,schooner,0.88994867,True
image_0053.jpg,Adversarial Example,0.001,schooner,schooner,0.8744104,True
image_0053.jpg,Adversarial Example,0.01,schooner,schooner,0.67954946,True
image_0053.jpg,Adversarial Example,0.1,schooner,schooner,0.916867,True
image_0053.jpg,Adversarial Example,0.3,schooner,cardigan,0.9999044,False
image_0054.jpg,Original,,schooner,schooner,0.8517696,True
image_0054.jpg,Adversarial Example,0.001,schooner,schooner,0.7679057,True
image_0054.jpg,Adversarial Example,0.01,schooner,fireboat,0.9396678,False
image_0054.jpg,Adversarial Example,0.1,schooner,pirate,0.9999963,False
image_0054.jpg,Adversarial Example,0.3,schooner,mosquito_net,0.99999166,False
image_0055.jpg,Original,,schooner,schooner,0.87274987,True
image_0055.jpg,Adversarial Example,0.001,schooner,schooner,0.7799139,True
image_0055.jpg,Adversarial Example,0.01,schooner,schooner,0.032127965,True
image_0055.jpg,Adversarial Example,0.1,schooner,mosquito_net,0.99994326,False
image_0055.jpg,Adversarial Example,0.3,schooner,hourglass,1.0,False
image_0056.jpg,Original,,schooner,schooner,0.91782516,True
image_0056.jpg,Adversarial Example,0.001,schooner,schooner,0.90742725,True
image_0056.jpg,Adversarial Example,0.01,schooner,schooner,0.9475332,True
image_0056.jpg,Adversarial Example,0.1,schooner,buckle,0.9999436,False
image_0056.jpg,Adversarial Example,0.3,schooner,buckle,0.99993587,False
image_0057.jpg,Original,,schooner,schooner,0.90476733,True
image_0057.jpg,Adversarial Example,0.001,schooner,schooner,0.88292533,True
image_0057.jpg,Adversarial Example,0.01,schooner,schooner,0.64738405,True
image_0057.jpg,Adversarial Example,0.1,schooner,schooner,0.3175945,True
image_0057.jpg,Adversarial Example,0.3,schooner,yawl,0.9999728,False
image_0058.jpg,Original,,schooner,schooner,0.8597544,True
image_0058.jpg,Adversarial Example,0.001,schooner,schooner,0.83628213,True
image_0058.jpg,Adversarial Example,0.01,schooner,schooner,0.76202244,True
image_0058.jpg,Adversarial Example,0.1,schooner,pencil_sharpener,0.81939244,False
image_0058.jpg,Adversarial Example,0.3,schooner,guillotine,0.9999888,False
image_0059.jpg,Original,,schooner,schooner,0.7624145,True
image_0059.jpg,Adversarial Example,0.001,schooner,schooner,0.6721294,True
image_0059.jpg,Adversarial Example,0.01,schooner,yawl,0.8754455,False
image_0059.jpg,Adversarial Example,0.1,schooner,yawl,0.99828786,False
image_0059.jpg,Adversarial Example,0.3,schooner,yawl,0.99999666,False
image_0060.jpg,Original,,schooner,schooner,0.7583958,True
image_0060.jpg,Adversarial Example,0.001,schooner,schooner,0.73078537,True
image_0060.jpg,Adversarial Example,0.01,schooner,schooner,0.57832855,True
image_0060.jpg,Adversarial Example,0.1,schooner,yawl,0.9116347,False
image_0060.jpg,Adversarial Example,0.3,schooner,yawl,0.99713624,False
image_0061.jpg,Original,,schooner,schooner,0.46198937,True
image_0061.jpg,Adversarial Example,0.001,schooner,yawl,0.56504464,False
image_0061.jpg,Adversarial Example,0.01,schooner,yawl,0.9610965,False
image_0061.jpg,Adversarial Example,0.1,schooner,yawl,0.9994616,False
image_0061.jpg,Adversarial Example,0.3,schooner,safe,0.99999976,False
image_0062.jpg,Original,,schooner,schooner,0.9672743,True
image_0062.jpg,Adversarial Example,0.001,schooner,schooner,0.9392119,True
image_0062.jpg,Adversarial Example,0.01,schooner,schooner,0.19067822,True
image_0062.jpg,Adversarial Example,0.1,schooner,jigsaw_puzzle,0.9999994,False
image_0062.jpg,Adversarial Example,0.3,schooner,pirate,1.0,False
image_0063.jpg,Original,,schooner,yawl,0.49284145,False
image_0063.jpg,Adversarial Example,0.001,schooner,schooner,0.5284973,True
image_0063.jpg,Adversarial Example,0.01,schooner,schooner,0.99401903,True
image_0063.jpg,Adversarial Example,0.1,schooner,schooner,0.99999464,True
image_0063.jpg,Adversarial Example,0.3,schooner,panpipe,1.0,False
image_0001.jpg,Original,,flamingo,ostrich,0.100885116,False
image_0001.jpg,Adversarial Example,0.001,flamingo,hook,0.34386078,False
image_0001.jpg,Adversarial Example,0.01,flamingo,hook,0.99998415,False
image_0001.jpg,Adversarial Example,0.1,flamingo,hook,0.99999964,False
image_0001.jpg,Adversarial Example,0.3,flamingo,nematode,0.999997,False
image_0002.jpg,Original,,flamingo,flamingo,0.40305996,True
image_0002.jpg,Adversarial Example,0.001,flamingo,flamingo,0.39464143,True
image_0002.jpg,Adversarial Example,0.01,flamingo,flamingo,0.36815724,True
image_0002.jpg,Adversarial Example,0.1,flamingo,flamingo,0.20245272,True
image_0002.jpg,Adversarial Example,0.3,flamingo,pelican,0.43634918,False
image_0003.jpg,Original,,flamingo,flamingo,0.9955177,True
image_0003.jpg,Adversarial Example,0.001,flamingo,flamingo,0.9950354,True
image_0003.jpg,Adversarial Example,0.01,flamingo,flamingo,0.99458873,True
image_0003.jpg,Adversarial Example,0.1,flamingo,flamingo,0.83042747,True
image_0003.jpg,Adversarial Example,0.3,flamingo,starfish,0.9999485,False
image_0004.jpg,Original,,flamingo,flamingo,0.82789516,True
image_0004.jpg,Adversarial Example,0.001,flamingo,flamingo,0.82026464,True
image_0004.jpg,Adversarial Example,0.01,flamingo,flamingo,0.76763636,True
image_0004.jpg,Adversarial Example,0.1,flamingo,flamingo,0.87726444,True
image_0004.jpg,Adversarial Example,0.3,flamingo,flamingo,0.19306327,True
image_0005.jpg,Original,,flamingo,flamingo,0.9639994,True
image_0005.jpg,Adversarial Example,0.001,flamingo,flamingo,0.9229562,True
image_0005.jpg,Adversarial Example,0.01,flamingo,flamingo,0.73541236,True
image_0005.jpg,Adversarial Example,0.1,flamingo,chain,0.6392706,False
image_0005.jpg,Adversarial Example,0.3,flamingo,chain,0.99973875,False
image_0006.jpg,Original,,flamingo,American_egret,0.69486433,False
image_0006.jpg,Adversarial Example,0.001,flamingo,American_egret,0.62474763,False
image_0006.jpg,Adversarial Example,0.01,flamingo,flamingo,0.36673006,True
image_0006.jpg,Adversarial Example,0.1,flamingo,ringneck_snake,0.8530248,False
image_0006.jpg,Adversarial Example,0.3,flamingo,knot,0.99982625,False
image_0007.jpg,Original,,flamingo,little_blue_heron,0.16438249,False
image_0007.jpg,Adversarial Example,0.001,flamingo,little_blue_heron,0.15171207,False
image_0007.jpg,Adversarial Example,0.01,flamingo,American_egret,0.18518724,False
image_0007.jpg,Adversarial Example,0.1,flamingo,ringneck_snake,0.9640982,False
image_0007.jpg,Adversarial Example,0.3,flamingo,night_snake,0.9772889,False
image_0008.jpg,Original,,flamingo,American_egret,0.27770963,False
image_0008.jpg,Adversarial Example,0.001,flamingo,flamingo,0.24881794,True
image_0008.jpg,Adversarial Example,0.01,flamingo,flamingo,0.98108345,True
image_0008.jpg,Adversarial Example,0.1,flamingo,ostrich,0.9992342,False
image_0008.jpg,Adversarial Example,0.3,flamingo,bustard,0.9999435,False
image_0009.jpg,Original,,flamingo,hook,0.27080268,False
image_0009.jpg,Adversarial Example,0.001,flamingo,table_lamp,0.24722962,False
image_0009.jpg,Adversarial Example,0.01,flamingo,pillow,0.9977501,False
image_0009.jpg,Adversarial Example,0.1,flamingo,pillow,1.0,False
image_0009.jpg,Adversarial Example,0.3,flamingo,dowitcher,0.99986696,False
image_0010.jpg,Original,,flamingo,flamingo,0.94183797,True
image_0010.jpg,Adversarial Example,0.001,flamingo,flamingo,0.9330405,True
image_0010.jpg,Adversarial Example,0.01,flamingo,flamingo,0.6560479,True
image_0010.jpg,Adversarial Example,0.1,flamingo,flamingo,0.31199032,True
image_0010.jpg,Adversarial Example,0.3,flamingo,great_grey_owl,0.898132,False
image_0011.jpg,Original,,flamingo,flamingo,0.95424074,True
image_0011.jpg,Adversarial Example,0.001,flamingo,flamingo,0.9440866,True
image_0011.jpg,Adversarial Example,0.01,flamingo,flamingo,0.7886264,True
image_0011.jpg,Adversarial Example,0.1,flamingo,crane,0.97190845,False
image_0011.jpg,Adversarial Example,0.3,flamingo,water_snake,0.9999964,False
image_0012.jpg,Original,,flamingo,flamingo,0.9509736,True
image_0012.jpg,Adversarial Example,0.001,flamingo,flamingo,0.9303014,True
image_0012.jpg,Adversarial Example,0.01,flamingo,flamingo,0.90858805,True
image_0012.jpg,Adversarial Example,0.1,flamingo,redshank,0.27793217,False
image_0012.jpg,Adversarial Example,0.3,flamingo,electric_fan,0.9742104,False
image_0013.jpg,Original,,flamingo,flamingo,0.91024405,True
image_0013.jpg,Adversarial Example,0.001,flamingo,flamingo,0.8992625,True
image_0013.jpg,Adversarial Example,0.01,flamingo,flamingo,0.94935745,True
image_0013.jpg,Adversarial Example,0.1,flamingo,flamingo,0.51929516,True
image_0013.jpg,Adversarial Example,0.3,flamingo,eel,0.99987555,False
image_0014.jpg,Original,,flamingo,flamingo,0.84714264,True
image_0014.jpg,Adversarial Example,0.001,flamingo,flamingo,0.6374618,True
image_0014.jpg,Adversarial Example,0.01,flamingo,screen,0.90008426,False
image_0014.jpg,Adversarial Example,0.1,flamingo,screen,0.99999607,False
image_0014.jpg,Adversarial Example,0.3,flamingo,redshank,0.99999034,False
image_0015.jpg,Original,,flamingo,flamingo,0.9350878,True
image_0015.jpg,Adversarial Example,0.001,flamingo,flamingo,0.93265283,True
image_0015.jpg,Adversarial Example,0.01,flamingo,flamingo,0.9244945,True
image_0015.jpg,Adversarial Example,0.1,flamingo,flamingo,0.87414587,True
image_0015.jpg,Adversarial Example,0.3,flamingo,flamingo,0.17934373,True
image_0016.jpg,Original,,flamingo,flamingo,0.8752561,True
image_0016.jpg,Adversarial Example,0.001,flamingo,flamingo,0.85596484,True
image_0016.jpg,Adversarial Example,0.01,flamingo,flamingo,0.93112785,True
image_0016.jpg,Adversarial Example,0.1,flamingo,limpkin,0.8393558,False
image_0016.jpg,Adversarial Example,0.3,flamingo,quail,0.9957919,False
image_0017.jpg,Original,,flamingo,flamingo,0.7974204,True
image_0017.jpg,Adversarial Example,0.001,flamingo,flamingo,0.7716575,True
image_0017.jpg,Adversarial Example,0.01,flamingo,flamingo,0.6280249,True
image_0017.jpg,Adversarial Example,0.1,flamingo,flamingo,0.66056484,True
image_0017.jpg,Adversarial Example,0.3,flamingo,dowitcher,0.99307936,False
image_0018.jpg,Original,,flamingo,flamingo,0.86192894,True
image_0018.jpg,Adversarial Example,0.001,flamingo,flamingo,0.8391462,True
image_0018.jpg,Adversarial Example,0.01,flamingo,flamingo,0.8482199,True
image_0018.jpg,Adversarial Example,0.1,flamingo,little_blue_heron,0.6065253,False
image_0018.jpg,Adversarial Example,0.3,flamingo,armadillo,0.5903672,False
image_0019.jpg,Original,,flamingo,ostrich,0.6030191,False
image_0019.jpg,Adversarial Example,0.001,flamingo,ostrich,0.5594737,False
image_0019.jpg,Adversarial Example,0.01,flamingo,ostrich,0.3321557,False
image_0019.jpg,Adversarial Example,0.1,flamingo,crane,0.8748806,False
image_0019.jpg,Adversarial Example,0.3,flamingo,ostrich,0.28497177,False
image_0020.jpg,Original,,flamingo,flamingo,0.9115938,True
image_0020.jpg,Adversarial Example,0.001,flamingo,flamingo,0.9043168,True
image_0020.jpg,Adversarial Example,0.01,flamingo,flamingo,0.81813556,True
image_0020.jpg,Adversarial Example,0.1,flamingo,flamingo,0.9160751,True
image_0020.jpg,Adversarial Example,0.3,flamingo,flamingo,0.4228129,True
image_0021.jpg,Original,,flamingo,flamingo,0.9429023,True
image_0021.jpg,Adversarial Example,0.001,flamingo,flamingo,0.89955187,True
image_0021.jpg,Adversarial Example,0.01,flamingo,nematode,0.9598567,False
image_0021.jpg,Adversarial Example,0.1,flamingo,nematode,0.99996924,False
image_0021.jpg,Adversarial Example,0.3,flamingo,scorpion,0.99946123,False
image_0022.jpg,Original,,flamingo,flamingo,0.26064596,True
image_0022.jpg,Adversarial Example,0.001,flamingo,flamingo,0.083341375,True
image_0022.jpg,Adversarial Example,0.01,flamingo,harp,0.9575198,False
image_0022.jpg,Adversarial Example,0.1,flamingo,tripod,0.99706143,False
image_0022.jpg,Adversarial Example,0.3,flamingo,jigsaw_puzzle,0.99998176,False
image_0023.jpg,Original,,flamingo,flamingo,0.87171465,True
image_0023.jpg,Adversarial Example,0.001,flamingo,flamingo,0.86141646,True
image_0023.jpg,Adversarial Example,0.01,flamingo,flamingo,0.7622169,True
image_0023.jpg,Adversarial Example,0.1,flamingo,ostrich,0.66217047,False
image_0023.jpg,Adversarial Example,0.3,flamingo,African_chameleon,0.7822787,False
image_0024.jpg,Original,,flamingo,flamingo,0.8995171,True
image_0024.jpg,Adversarial Example,0.001,flamingo,flamingo,0.88996756,True
image_0024.jpg,Adversarial Example,0.01,flamingo,flamingo,0.865779,True
image_0024.jpg,Adversarial Example,0.1,flamingo,flamingo,0.915786,True
image_0024.jpg,Adversarial Example,0.3,flamingo,kelpie,0.8204743,False
image_0025.jpg,Original,,flamingo,flamingo,0.8201135,True
image_0025.jpg,Adversarial Example,0.001,flamingo,flamingo,0.7910817,True
image_0025.jpg,Adversarial Example,0.01,flamingo,flamingo,0.6237807,True
image_0025.jpg,Adversarial Example,0.1,flamingo,flamingo,0.29982635,True
image_0025.jpg,Adversarial Example,0.3,flamingo,starfish,0.9998956,False
image_0026.jpg,Original,,flamingo,flamingo,0.87628967,True
image_0026.jpg,Adversarial Example,0.001,flamingo,flamingo,0.8393431,True
image_0026.jpg,Adversarial Example,0.01,flamingo,flamingo,0.05512914,True
image_0026.jpg,Adversarial Example,0.1,flamingo,whippet,0.99839765,False
image_0026.jpg,Adversarial Example,0.3,flamingo,goose,0.9999982,False
image_0027.jpg,Original,,flamingo,flamingo,0.47009125,True
image_0027.jpg,Adversarial Example,0.001,flamingo,flamingo,0.41768214,True
image_0027.jpg,Adversarial Example,0.01,flamingo,crane,0.68725556,False
image_0027.jpg,Adversarial Example,0.1,flamingo,crane,0.9155238,False
image_0027.jpg,Adversarial Example,0.3,flamingo,little_blue_heron,0.913689,False
image_0028.jpg,Original,,flamingo,flamingo,0.9834975,True
image_0028.jpg,Adversarial Example,0.001,flamingo,flamingo,0.9803247,True
image_0028.jpg,Adversarial Example,0.01,flamingo,flamingo,0.93033993,True
image_0028.jpg,Adversarial Example,0.1,flamingo,flamingo,0.8108709,True
image_0028.jpg,Adversarial Example,0.3,flamingo,bonnet,0.9997143,False
image_0029.jpg,Original,,flamingo,flamingo,0.07175783,True
image_0029.jpg,Adversarial Example,0.001,flamingo,flamingo,0.05357942,True
image_0029.jpg,Adversarial Example,0.01,flamingo,electric_guitar,0.037955083,False
image_0029.jpg,Adversarial Example,0.1,flamingo,partridge,0.09967607,False
image_0029.jpg,Adversarial Example,0.3,flamingo,brain_coral,0.33425388,False
image_0030.jpg,Original,,flamingo,armadillo,0.047779374,False
image_0030.jpg,Adversarial Example,0.001,flamingo,flamingo,0.04583802,True
image_0030.jpg,Adversarial Example,0.01,flamingo,flamingo,0.33973885,True
image_0030.jpg,Adversarial Example,0.1,flamingo,flamingo,0.98685956,True
image_0030.jpg,Adversarial Example,0.3,flamingo,hook,0.9824243,False
image_0031.jpg,Original,,flamingo,flamingo,0.42732346,True
image_0031.jpg,Adversarial Example,0.001,flamingo,flamingo,0.2475391,True
image_0031.jpg,Adversarial Example,0.01,flamingo,birdhouse,0.46915928,False
image_0031.jpg,Adversarial Example,0.1,flamingo,birdhouse,0.9895828,False
image_0031.jpg,Adversarial Example,0.3,flamingo,wall_clock,0.9999975,False
image_0032.jpg,Original,,flamingo,flamingo,0.2647784,True
image_0032.jpg,Adversarial Example,0.001,flamingo,flamingo,0.1370109,True
image_0032.jpg,Adversarial Example,0.01,flamingo,hook,0.84198153,False
image_0032.jpg,Adversarial Example,0.1,flamingo,hook,0.99991,False
image_0032.jpg,Adversarial Example,0.3,flamingo,teapot,0.9999864,False
image_0033.jpg,Original,,flamingo,flamingo,0.89998347,True
image_0033.jpg,Adversarial Example,0.001,flamingo,flamingo,0.89983857,True
image_0033.jpg,Adversarial Example,0.01,flamingo,flamingo,0.89630365,True
image_0033.jpg,Adversarial Example,0.1,flamingo,flamingo,0.84479743,True
image_0033.jpg,Adversarial Example,0.3,flamingo,stinkhorn,0.2888301,False
image_0034.jpg,Original,,flamingo,dowitcher,0.18775512,False
image_0034.jpg,Adversarial Example,0.001,flamingo,flamingo,0.21928565,True
image_0034.jpg,Adversarial Example,0.01,flamingo,flamingo,0.8476492,True
image_0034.jpg,Adversarial Example,0.1,flamingo,crane,0.6891788,False
image_0034.jpg,Adversarial Example,0.3,flamingo,American_egret,0.072149545,False
image_0035.jpg,Original,,flamingo,flamingo,0.9475743,True
image_0035.jpg,Adversarial Example,0.001,flamingo,flamingo,0.9488347,True
image_0035.jpg,Adversarial Example,0.01,flamingo,flamingo,0.9616902,True
image_0035.jpg,Adversarial Example,0.1,flamingo,flamingo,0.86430043,True
image_0035.jpg,Adversarial Example,0.3,flamingo,triceratops,0.14339912,False
image_0036.jpg,Original,,flamingo,flamingo,0.82589483,True
image_0036.jpg,Adversarial Example,0.001,flamingo,flamingo,0.81443113,True
image_0036.jpg,Adversarial Example,0.01,flamingo,flamingo,0.6205562,True
image_0036.jpg,Adversarial Example,0.1,flamingo,goose,0.47203806,False
image_0036.jpg,Adversarial Example,0.3,flamingo,goose,0.9301196,False
image_0037.jpg,Original,,flamingo,flamingo,0.91408336,True
image_0037.jpg,Adversarial Example,0.001,flamingo,flamingo,0.8976833,True
image_0037.jpg,Adversarial Example,0.01,flamingo,flamingo,0.38659862,True
image_0037.jpg,Adversarial Example,0.1,flamingo,crane,0.8883684,False
image_0037.jpg,Adversarial Example,0.3,flamingo,triceratops,0.67189527,False
image_0038.jpg,Original,,flamingo,flamingo,0.31744093,True
image_0038.jpg,Adversarial Example,0.001,flamingo,flamingo,0.311025,True
image_0038.jpg,Adversarial Example,0.01,flamingo,crane,0.23020737,False
image_0038.jpg,Adversarial Example,0.1,flamingo,frilled_lizard,0.26977882,False
image_0038.jpg,Adversarial Example,0.3,flamingo,Walker_hound,0.13669749,False
image_0039.jpg,Original,,flamingo,flamingo,0.79921716,True
image_0039.jpg,Adversarial Example,0.001,flamingo,flamingo,0.7836992,True
image_0039.jpg,Adversarial Example,0.01,flamingo,flamingo,0.59488267,True
image_0039.jpg,Adversarial Example,0.1,flamingo,flamingo,0.47808406,True
image_0039.jpg,Adversarial Example,0.3,flamingo,yurt,0.9946004,False
image_0040.jpg,Original,,flamingo,flamingo,0.942745,True
image_0040.jpg,Adversarial Example,0.001,flamingo,flamingo,0.934723,True
image_0040.jpg,Adversarial Example,0.01,flamingo,spoonbill,0.46811095,False
image_0040.jpg,Adversarial Example,0.1,flamingo,spoonbill,0.9942059,False
image_0040.jpg,Adversarial Example,0.3,flamingo,knot,0.99894315,False
image_0041.jpg,Original,,flamingo,flamingo,0.6594398,True
image_0041.jpg,Adversarial Example,0.001,flamingo,flamingo,0.60911417,True
image_0041.jpg,Adversarial Example,0.01,flamingo,flamingo,0.365373,True
image_0041.jpg,Adversarial Example,0.1,flamingo,ostrich,0.851231,False
image_0041.jpg,Adversarial Example,0.3,flamingo,ostrich,0.9965479,False
image_0042.jpg,Original,,flamingo,flamingo,0.86410415,True
image_0042.jpg,Adversarial Example,0.001,flamingo,flamingo,0.85208267,True
image_0042.jpg,Adversarial Example,0.01,flamingo,flamingo,0.6410752,True
image_0042.jpg,Adversarial Example,0.1,flamingo,flamingo,0.66351867,True
image_0042.jpg,Adversarial Example,0.3,flamingo,crane,0.9989913,False
image_0043.jpg,Original,,flamingo,flamingo,0.89728796,True
image_0043.jpg,Adversarial Example,0.001,flamingo,flamingo,0.88249266,True
image_0043.jpg,Adversarial Example,0.01,flamingo,flamingo,0.8290545,True
image_0043.jpg,Adversarial Example,0.1,flamingo,flamingo,0.49715367,True
image_0043.jpg,Adversarial Example,0.3,flamingo,mongoose,0.99005693,False
image_0044.jpg,Original,,flamingo,flamingo,0.80840594,True
image_0044.jpg,Adversarial Example,0.001,flamingo,flamingo,0.79638386,True
image_0044.jpg,Adversarial Example,0.01,flamingo,flamingo,0.7259297,True
image_0044.jpg,Adversarial Example,0.1,flamingo,flamingo,0.49381128,True
image_0044.jpg,Adversarial Example,0.3,flamingo,crane,0.12670118,False
image_0045.jpg,Original,,flamingo,flamingo,0.92707974,True
image_0045.jpg,Adversarial Example,0.001,flamingo,flamingo,0.9198638,True
image_0045.jpg,Adversarial Example,0.01,flamingo,flamingo,0.6953494,True
image_0045.jpg,Adversarial Example,0.1,flamingo,little_blue_heron,0.72749764,False
image_0045.jpg,Adversarial Example,0.3,flamingo,planetarium,0.7728134,False
image_0046.jpg,Original,,flamingo,flamingo,0.9924078,True
image_0046.jpg,Adversarial Example,0.001,flamingo,flamingo,0.986408,True
image_0046.jpg,Adversarial Example,0.01,flamingo,flamingo,0.97326577,True
image_0046.jpg,Adversarial Example,0.1,flamingo,flamingo,0.8905871,True
image_0046.jpg,Adversarial Example,0.3,flamingo,loggerhead,0.07319346,False
image_0047.jpg,Original,,flamingo,flamingo,0.86166584,True
image_0047.jpg,Adversarial Example,0.001,flamingo,flamingo,0.8299273,True
image_0047.jpg,Adversarial Example,0.01,flamingo,flamingo,0.26262066,True
image_0047.jpg,Adversarial Example,0.1,flamingo,American_egret,0.9694974,False
image_0047.jpg,Adversarial Example,0.3,flamingo,hook,0.8769111,False
image_0048.jpg,Original,,flamingo,flamingo,0.8697452,True
image_0048.jpg,Adversarial Example,0.001,flamingo,flamingo,0.8145073,True
image_0048.jpg,Adversarial Example,0.01,flamingo,American_egret,0.14197703,False
image_0048.jpg,Adversarial Example,0.1,flamingo,flamingo,0.3243645,True
image_0048.jpg,Adversarial Example,0.3,flamingo,chain,0.8925524,False
image_0049.jpg,Original,,flamingo,flamingo,0.71642834,True
image_0049.jpg,Adversarial Example,0.001,flamingo,flamingo,0.71441376,True
image_0049.jpg,Adversarial Example,0.01,flamingo,flamingo,0.61670786,True
image_0049.jpg,Adversarial Example,0.1,flamingo,flamingo,0.5142802,True
image_0049.jpg,Adversarial Example,0.3,flamingo,flamingo,0.16690207,True
image_0050.jpg,Original,,flamingo,flamingo,0.49703136,True
image_0050.jpg,Adversarial Example,0.001,flamingo,flamingo,0.34043896,True
image_0050.jpg,Adversarial Example,0.01,flamingo,hook,0.12579922,False
image_0050.jpg,Adversarial Example,0.1,flamingo,sunglasses,0.91056603,False
image_0050.jpg,Adversarial Example,0.3,flamingo,sunglasses,0.999171,False
image_0051.jpg,Original,,flamingo,flamingo,0.95540035,True
image_0051.jpg,Adversarial Example,0.001,flamingo,flamingo,0.9549153,True
image_0051.jpg,Adversarial Example,0.01,flamingo,flamingo,0.9423343,True
image_0051.jpg,Adversarial Example,0.1,flamingo,flamingo,0.6698555,True
image_0051.jpg,Adversarial Example,0.3,flamingo,armadillo,0.9321402,False
image_0052.jpg,Original,,flamingo,flamingo,0.19196196,True
image_0052.jpg,Adversarial Example,0.001,flamingo,flamingo,0.1430895,True
image_0052.jpg,Adversarial Example,0.01,flamingo,ostrich,0.1555235,False
image_0052.jpg,Adversarial Example,0.1,flamingo,flamingo,0.12283672,True
image_0052.jpg,Adversarial Example,0.3,flamingo,scale,0.7729542,False
image_0053.jpg,Original,,flamingo,flamingo,0.906376,True
image_0053.jpg,Adversarial Example,0.001,flamingo,flamingo,0.8996759,True
image_0053.jpg,Adversarial Example,0.01,flamingo,flamingo,0.88647825,True
image_0053.jpg,Adversarial Example,0.1,flamingo,flamingo,0.8501735,True
image_0053.jpg,Adversarial Example,0.3,flamingo,sidewinder,0.12909918,False
image_0054.jpg,Original,,flamingo,flamingo,0.87407047,True
image_0054.jpg,Adversarial Example,0.001,flamingo,flamingo,0.85179824,True
image_0054.jpg,Adversarial Example,0.01,flamingo,flamingo,0.9057907,True
image_0054.jpg,Adversarial Example,0.1,flamingo,knot,0.89041615,False
image_0054.jpg,Adversarial Example,0.3,flamingo,mitten,0.9997162,False
image_0055.jpg,Original,,flamingo,flamingo,0.09771133,True
image_0055.jpg,Adversarial Example,0.001,flamingo,nematode,0.07360935,False
image_0055.jpg,Adversarial Example,0.01,flamingo,tray,0.18916135,False
image_0055.jpg,Adversarial Example,0.1,flamingo,doormat,0.8288089,False
image_0055.jpg,Adversarial Example,0.3,flamingo,doormat,0.9999224,False
image_0056.jpg,Original,,flamingo,flamingo,0.926268,True
image_0056.jpg,Adversarial Example,0.001,flamingo,flamingo,0.91278994,True
image_0056.jpg,Adversarial Example,0.01,flamingo,flamingo,0.50000477,True
image_0056.jpg,Adversarial Example,0.1,flamingo,sidewinder,0.058937464,False
image_0056.jpg,Adversarial Example,0.3,flamingo,nail,0.8138728,False
image_0057.jpg,Original,,flamingo,flamingo,0.4583824,True
image_0057.jpg,Adversarial Example,0.001,flamingo,flamingo,0.2490867,True
image_0057.jpg,Adversarial Example,0.01,flamingo,little_blue_heron,0.7972473,False
image_0057.jpg,Adversarial Example,0.1,flamingo,crane,0.9997868,False
image_0057.jpg,Adversarial Example,0.3,flamingo,ostrich,0.9995721,False
image_0058.jpg,Original,,flamingo,American_egret,0.2985615,False
image_0058.jpg,Adversarial Example,0.001,flamingo,American_egret,0.25956252,False
image_0058.jpg,Adversarial Example,0.01,flamingo,flamingo,0.35220796,True
image_0058.jpg,Adversarial Example,0.1,flamingo,crane,0.43653113,False
image_0058.jpg,Adversarial Example,0.3,flamingo,black_swan,0.4524506,False
image_0059.jpg,Original,,flamingo,flamingo,0.9351524,True
image_0059.jpg,Adversarial Example,0.001,flamingo,flamingo,0.9306727,True
image_0059.jpg,Adversarial Example,0.01,flamingo,flamingo,0.8884267,True
image_0059.jpg,Adversarial Example,0.1,flamingo,crane,0.6100895,False
image_0059.jpg,Adversarial Example,0.3,flamingo,Gordon_setter,0.9999571,False
image_0060.jpg,Original,,flamingo,flamingo,0.1613033,True
image_0060.jpg,Adversarial Example,0.001,flamingo,flamingo,0.13842039,True
image_0060.jpg,Adversarial Example,0.01,flamingo,ostrich,0.33076906,False
image_0060.jpg,Adversarial Example,0.1,flamingo,flamingo,0.10219477,True
image_0060.jpg,Adversarial Example,0.3,flamingo,velvet,0.99997735,False
image_0061.jpg,Original,,flamingo,flamingo,0.21333586,True
image_0061.jpg,Adversarial Example,0.001,flamingo,crane,0.20172061,False
image_0061.jpg,Adversarial Example,0.01,flamingo,crane,0.25815758,False
image_0061.jpg,Adversarial Example,0.1,flamingo,American_egret,0.9277682,False
image_0061.jpg,Adversarial Example,0.3,flamingo,boa_constrictor,0.9386711,False
image_0062.jpg,Original,,flamingo,flamingo,0.9337899,True
image_0062.jpg,Adversarial Example,0.001,flamingo,flamingo,0.92533255,True
image_0062.jpg,Adversarial Example,0.01,flamingo,flamingo,0.75984854,True
image_0062.jpg,Adversarial Example,0.1,flamingo,flamingo,0.38342312,True
image_0062.jpg,Adversarial Example,0.3,flamingo,chain,0.99312794,False
image_0063.jpg,Original,,flamingo,ostrich,0.16408913,False
image_0063.jpg,Adversarial Example,0.001,flamingo,flamingo,0.18812452,True
image_0063.jpg,Adversarial Example,0.01,flamingo,flamingo,0.49240312,True
image_0063.jpg,Adversarial Example,0.1,flamingo,flamingo,0.76541823,True
image_0063.jpg,Adversarial Example,0.3,flamingo,nail,0.60259795,False
image_0064.jpg,Original,,flamingo,flamingo,0.90465736,True
image_0064.jpg,Adversarial Example,0.001,flamingo,flamingo,0.89487123,True
image_0064.jpg,Adversarial Example,0.01,flamingo,flamingo,0.93770695,True
image_0064.jpg,Adversarial Example,0.1,flamingo,hog,0.85362154,False
image_0064.jpg,Adversarial Example,0.3,flamingo,French_bulldog,0.9933442,False
image_0065.jpg,Original,,flamingo,flamingo,0.21747014,True
image_0065.jpg,Adversarial Example,0.001,flamingo,flamingo,0.17230016,True
image_0065.jpg,Adversarial Example,0.01,flamingo,lakeside,0.18977213,False
image_0065.jpg,Adversarial Example,0.1,flamingo,lakeside,0.9964669,False
image_0065.jpg,Adversarial Example,0.3,flamingo,seashore,0.991046,False
image_0066.jpg,Original,,flamingo,flamingo,0.1294352,True
image_0066.jpg,Adversarial Example,0.001,flamingo,flamingo,0.12565593,True
image_0066.jpg,Adversarial Example,0.01,flamingo,flamingo,0.110505536,True
image_0066.jpg,Adversarial Example,0.1,flamingo,black_swan,0.08608523,False
image_0066.jpg,Adversarial Example,0.3,flamingo,crib,0.111701064,False
image_0067.jpg,Original,,flamingo,hook,0.277151,False
image_0067.jpg,Adversarial Example,0.001,flamingo,hook,0.16219282,False
image_0067.jpg,Adversarial Example,0.01,flamingo,flamingo,0.86293185,True
image_0067.jpg,Adversarial Example,0.1,flamingo,flamingo,0.9949071,True
image_0067.jpg,Adversarial Example,0.3,flamingo,television,0.9999759,False
